Place,Name,Sex,BirthDate,Equipment,Division,BodyweightKg,WeightClassKg,Squat1Kg,Squat2Kg,Squat3Kg,Best3SquatKg,Bench1Kg,Bench2Kg,Bench3Kg,Best3BenchKg,Deadlift1Kg,Deadlift2Kg,Deadlift3Kg,Best3DeadliftKg,TotalKg,Event
1,Jonathan Macías Flores,M,,Raw,Masters 1,112.7,120,,,,,152.5,160,165,165,,,,,165,B
2,Bernabe Cubas Vargas,M,,Raw,Masters 1,115,120,,,,,150,155,-162.5,155,,,,,155,B
1,Jhonatan Oliver Ramírez Pérez,M,,Raw,Masters 1,125,120+,,,,,-145,150,165,165,,,,,165,B
2,Jorge Mauricio Free Manjarrez,M,,Raw,Masters 1,151.9,120+,,,,,165,-170,-170,165,,,,,165,B
1,Jorge Sánchez Pacheco,M,,Raw,Masters 2,69.9,74,,,,,85,90,95,95,,,,,95,B
1,Mario Ernesto Hernandez Perez,M,,Raw,Masters 2,81.5,83,,,,,110,121,-125,121,,,,,121,B
1,Anibal Nava Martínez,M,,Raw,Masters 2,100.7,105,,,,,100,110,120,120,,,,,120,B
1,Luis Antonio Ramírez Ochoa,M,,Raw,Masters 2,109.2,120,,,,,100,-157.5,157.5,157.5,,,,,157.5,B
2,Francisco Javier Castro Verdugo,M,,Raw,Masters 2,118.6,120,,,,,95,102.5,107.5,107.5,,,,,107.5,B
1,Jose Ariel Delgado Gastelum,M,,Raw,Masters 3,84.5,93,,,,,100,110,-112.5,110,,,,,110,B
1,Alejandro Moran Nieto,M,,Raw,Masters 1,81.9,83,,,,,115,122.5,127.5,127.5,,,,,127.5,B
2,Efrain Galindo Perez,M,,Raw,Masters 1,80.2,83,,,,,120,-125,-125,120,,,,,120,B
1,Abelardo González Rojas,M,,Raw,Masters 1,92,93,,,,,152.5,-157.5,-157.5,152.5,,,,,152.5,B
2,Daniel Velázquez Rocha,M,,Raw,Masters 1,86.5,93,,,,,82.5,90,97.5,97.5,,,,,97.5,B
3,Luis Enrique Guzman Solis,M,,Raw,Masters 1,89.5,93,,,,,85,95,-110,95,,,,,95,B
1,Xavier Irazu Velazquez Hernandez,M,,Raw,Masters 1,101.5,105,,,,,135,140,142.5,142.5,,,,,142.5,B
2,Omar Valentín Ramos Campos,M,,Raw,Masters 1,101.9,105,,,,,120,-130,-130,120,,,,,120,B
3,Juventino Aguilar Mendoza,M,,Raw,Masters 1,103.2,105,,,,,80,85,90,90,,,,,90,B
1,Alejandro Cedillo Islas,M,,Raw,Open,125.1,120+,,,,,180,190,-200,190,,,,,190,B
2,Juan Rodrigo Ramos Ayala,M,,Raw,Open,136.4,120+,,,,,175,185,-190,185,,,,,185,B
3,Javier Alberto Salazar Pasten,M,,Raw,Open,260,120+,,,,,-165,165,-187.5,165,,,,,165,B
G,Alejandro Cedillo Islas,M,,Raw,Open,125.1,120+,,,,,180,,,180,,,,,180,B
1,Israel Torres Villanueva,M,,Raw,Masters 1,64.1,66,,,,,125,130,-135,130,,,,,130,B
2,Wilhem Leibnitz Guido Vilalta,M,,Raw,Masters 1,62.3,66,,,,,100,107.5,110,110,,,,,110,B
1,Andrés Fernández Gamboa,M,,Raw,Masters 1,72.8,74,,,,,115,125,127.5,127.5,,,,,127.5,B
2,Roberto Eugenio Rocha González,M,,Raw,Masters 1,72.3,74,,,,,92.5,95,-100,95,,,,,95,B
3,Jorge Garzafox Margain,M,,Raw,Masters 1,73.3,74,,,,,90,95,-100,95,,,,,95,B
1,José Luis Rodríguez Vargas,M,,Raw,Open,119,120,,,,,175,190,200,200,,,,,200,B
2,Luis González González,M,,Raw,Open,112,120,,,,,170,185,-195,185,,,,,185,B
3,Cesar Mayoral Contreras,M,,Raw,Open,111.7,120,,,,,175,-182.5,-182.5,175,,,,,175,B
4,Eduardo Castillo Bernal,M,,Raw,Open,113.5,120,,,,,-170,170,-182.5,170,,,,,170,B
5,Marcelino Noe Euan Medina,M,,Raw,Open,107.7,120,,,,,155,160,165,165,,,,,165,B
6,Roberto Martinez Davalos,M,,Raw,Open,118.7,120,,,,,145,155,162.5,162.5,,,,,162.5,B
7,Sergio Adrián Bernal Báez,M,,Raw,Open,118.4,120,,,,,140,160,-162.5,160,,,,,160,B
8,Rafael Valadez González,M,,Raw,Open,110.8,120,,,,,150,-160,-160,150,,,,,150,B
9,Francisco Ruiz Rocha,M,,Raw,Open,108.3,120,,,,,135,-140,,135,,,,,135,B
1,Adonai Argenis De Gante González,M,,Raw,Open,103,105,,,,,-185,185,192.5,192.5,,,,,192.5,B
2,Daniel González Colín,M,,Raw,Open,99.1,105,,,,,175,182.5,187.5,187.5,,,,,187.5,B
3,Milton Aleman Barreto,M,,Raw,Open,103.5,105,,,,,180,187.5,-190,187.5,,,,,187.5,B
4,Victor Cuauhtémoc Corona Aranzubia,M,,Raw,Open,103.2,105,,,,,175,180,-187.5,180,,,,,180,B
5,Mauricio Rodríguez Velazquez,M,,Raw,Open,103.8,105,,,,,155,170,-175,170,,,,,170,B
6,Jesús Andrés Ramírez Ortiz,M,,Raw,Open,95.5,105,,,,,155,165,-170,165,,,,,165,B
7,Roberto Peltier Castillo,M,,Raw,Open,104.1,105,,,,,157.5,165,-167.5,165,,,,,165,B
8,Pedro Ismael Avila López,M,,Raw,Open,103,105,,,,,155,162.5,-165,162.5,,,,,162.5,B
9,José Alfredo Mata Valdés,M,,Raw,Open,94.8,105,,,,,-140,145,150,150,,,,,150,B
10,Luis Carlos Linares Iracheta,M,,Raw,Open,97.8,105,,,,,145,150,-160,150,,,,,150,B
11,Erik Pérez Fernández,M,,Raw,Open,102.3,105,,,,,145,150,-152.5,150,,,,,150,B
12,Dylan Casillas Gaume,M,,Raw,Open,104.1,105,,,,,120,135,142.5,142.5,,,,,142.5,B
13,Miguel Campo Palomo,M,,Raw,Open,100.6,105,,,,,130,135,140,140,,,,,140,B
14,Ivan Gomez Blass,M,,Raw,Open,103.3,105,,,,,-127.5,127.5,-132.5,127.5,,,,,127.5,B
DQ,Agustin Luna Muñoz Ledo,M,,Raw,Open,103.8,105,,,,,-155,-155,-155,,,,,,,B
DQ,Roger Devanny Loza Zamudio,M,,Raw,Open,104.5,105,,,,,-190,-190,-190,,,,,,,B
1,Ivan Alexis Serrano Solorio,M,,Raw,Open,92,93,,,,,160,167.5,170,170,,,,,170,B
2,Gabriel García Corona,M,,Raw,Open,92,93,,,,,165,170,-172.5,170,,,,,170,B
3,Daniel Noris Hoyos,M,,Raw,Open,92.2,93,,,,,145,155,165,165,,,,,165,B
4,Jaime David Figueroa Moreno,M,,Raw,Open,91.4,93,,,,,150,155,160,160,,,,,160,B
5,René Alberto Muñoz Olvera,M,,Raw,Open,91.6,93,,,,,147.5,155,-162.5,155,,,,,155,B
6,Migue Angel Rafael Bautista,M,,Raw,Open,85.7,93,,,,,145,152.5,-155,152.5,,,,,152.5,B
7,William Trujillo Moreno,M,,Raw,Open,91.8,93,,,,,145,150,152.5,152.5,,,,,152.5,B
8,Eduardo Rodríguez Muñoz,M,,Raw,Open,92.6,93,,,,,140,147.5,-152.5,147.5,,,,,147.5,B
9,Hernán Herrera Mier Y Concha,M,,Raw,Open,86.6,93,,,,,125,135,140,140,,,,,140,B
10,Christian Ramirez Diaz,M,,Raw,Open,89.2,93,,,,,130,137.5,140,140,,,,,140,B
11,Carlos Alberto Gutierrez Castillo,M,,Raw,Open,90.3,93,,,,,120,130,140,140,,,,,140,B
12,Gibran Jalil Garcia Ohran,M,,Raw,Open,84,93,,,,,135,-145,-145,135,,,,,135,B
13,Martin Daniel Banda Talavera,M,,Raw,Open,87.5,93,,,,,115,-125,130,130,,,,,130,B
14,José Antonio Domínguez Cornejo,M,,Raw,Open,93,93,,,,,125,-130,130,130,,,,,130,B
15,Jorge Enrique Villarreal Ramos,M,,Raw,Open,91.8,93,,,,,120,125,127.5,127.5,,,,,127.5,B
16,Celestino Hernandez Alvarado,M,,Raw,Open,86.1,93,,,,,100,120,-127.5,120,,,,,120,B
DQ,Alam Uriel Fuentes Cordoba,M,,Raw,Open,89.1,93,,,,,-130,-130,-130,,,,,,,B
DQ,Jose Luis Mendoza Zuany,M,,Raw,Open,91.2,93,,,,,-170,-170,-170,,,,,,,B
DQ,Bernardo Cazárez Durán,M,,Raw,Open,92.1,93,,,,,-155,-155,-155,,,,,,,B
1,Eduardo Garza Vazquez,M,,Raw,Open,82.6,83,,,,,150,157.5,162.5,162.5,,,,,162.5,B
2,Sonni António García Íñigo,M,,Raw,Open,81.1,83,,,,,150,155,160,160,,,,,160,B
3,Diego Fernando Ramírez Cruz,M,,Raw,Open,82,83,,,,,145,152.5,157.5,157.5,,,,,157.5,B
4,Rodrigo Aguilar Velázquez,M,,Raw,Open,82.2,83,,,,,140,145,150,150,,,,,150,B
5,Jesus Leopoldo Montijo Durán,M,,Raw,Open,82.9,83,,,,,145,150,-157.5,150,,,,,150,B
6,Gerardo García Vélez,M,,Raw,Open,80.7,83,,,,,125,140,147.5,147.5,,,,,147.5,B
7,Manuel Alejandro Jiménez Pérez,M,,Raw,Open,77.6,83,,,,,135,140,142.5,142.5,,,,,142.5,B
8,José Juan Navarro Tenorio,M,,Raw,Open,81.9,83,,,,,115,130,140,140,,,,,140,B
9,Luis Ocampo Romero,M,,Raw,Open,82.6,83,,,,,127.5,132.5,137.5,137.5,,,,,137.5,B
10,José Fernando Blanco Aragón,M,,Raw,Open,80.1,83,,,,,130,-135,135,135,,,,,135,B
11,Omar Orlando Ortega Moreno,M,,Raw,Open,82.3,83,,,,,127.5,-135,135,135,,,,,135,B
12,Elber Montes Puc,M,,Raw,Open,82.1,83,,,,,125,-132.5,132.5,132.5,,,,,132.5,B
13,Jorge Enrique Rodríguez Rascon,M,,Raw,Open,82.8,83,,,,,130,-140,-140,130,,,,,130,B
14,Mario Adolfo Obeso Mireles,M,,Raw,Open,81.1,83,,,,,115,125,-130,125,,,,,125,B
15,Luis Manuel Martínez Dámaso,M,,Raw,Open,82.2,83,,,,,120,-125,125,125,,,,,125,B
16,German Gustavo Huizar González,M,,Raw,Open,78.5,83,,,,,100,-110,110,110,,,,,110,B
17,Eduardo Figueroa Cárdenas,M,,Raw,Open,79.4,83,,,,,100,105,110,110,,,,,110,B
18,Raul Vazquez Rascon,M,,Raw,Open,80.5,83,,,,,60,80,,80,,,,,80,B
NS,Bastian Cortés Aguirre,M,,Raw,Open,,83,,,,,,,,,,,,,,B
1,Santos Gabriel Jiménez Quintero,M,,Raw,Open,73.2,74,,,,,160,170,173,173,,,,,173,B
2,Jorge Luis Carrasco Delgado,M,,Raw,Open,73.8,74,,,,,135,145,152.5,152.5,,,,,152.5,B
3,Jonathan Peña Muñoz,M,,Raw,Open,73.9,74,,,,,140,147.5,150,150,,,,,150,B
4,Anthony Alexander Ramirez Abrego,M,,Raw,Open,73.6,74,,,,,132.5,142.5,-147.5,142.5,,,,,142.5,B
5,Kevin Acevedo Rosas,M,,Raw,Open,73.1,74,,,,,125,132.5,-135,132.5,,,,,132.5,B
6,Cesar Israel Cabrera Venegas,M,,Raw,Open,72.8,74,,,,,120,-125,127.5,127.5,,,,,127.5,B
7,Marcos Donaldo Martínez Miranda,M,,Raw,Open,73.2,74,,,,,120,127.5,-130,127.5,,,,,127.5,B
8,Jair De Lucio Mendoza,M,,Raw,Open,73.2,74,,,,,120,-122.5,122.5,122.5,,,,,122.5,B
9,Omar Alexandro Villarreal Martell,M,,Raw,Open,73.7,74,,,,,117.5,120,122.5,122.5,,,,,122.5,B
10,Joshua Asrael Aboytes Ruíz,M,,Raw,Open,72.4,74,,,,,120,-127.5,,120,,,,,120,B
11,Alfredo Leonardo Carreón Corona,M,,Raw,Open,73,74,,,,,120,-125,-125,120,,,,,120,B
12,Irving Jesús Suárez Segura,M,,Raw,Open,70.9,74,,,,,105,110,-112.5,110,,,,,110,B
13,José Andrés Ferrer Vera,M,,Raw,Open,73.1,74,,,,,100,-105,105,105,,,,,105,B
14,Carlos García Gutiérrez,M,,Raw,Open,73,74,,,,,87.5,90,-100,90,,,,,90,B
DQ,Demian Davila Zavala,M,,Raw,Open,73.8,74,,,,,-140,-142.5,-142.5,,,,,,,B
NS,Luis Jesus Gómez Suárez,M,,Raw,Open,,74,,,,,,,,,,,,,,B
NS,Juan Eduardo López Valdes,M,,Raw,Open,,74,,,,,,,,,,,,,,B
1,César Eduardo Rodriguez Torres,M,,Raw,Open,65.3,66,,,,,117.5,122.5,127.5,127.5,,,,,127.5,B
2,Gabriel Sierra Segovia,M,,Raw,Open,65.9,66,,,,,117.5,122.5,-125,122.5,,,,,122.5,B
3,Erick Yair Bazan Buendia,M,,Raw,Open,64.2,66,,,,,120,-125,-125,120,,,,,120,B
4,Aleck Maximiliano Robles Pablos,M,,Raw,Open,64.8,66,,,,,105,-112.5,112.5,112.5,,,,,112.5,B
5,Miguel Cruz Olivares,M,,Raw,Open,64.3,66,,,,,85,-90,90,90,,,,,90,B
6,Fabrizio De Dios Medina Avelar,M,,Raw,Open,64.6,66,,,,,90,-105,-105,90,,,,,90,B
1,Manuel Alejandro Ordaz Velazquez,M,,Raw,Open,58.2,59,,,,,90,97.5,102.5,102.5,,,,,102.5,B
2,Sergio Solis Lima,M,,Raw,Open,58.6,59,,,,,85,-95,-95,85,,,,,85,B
1,Aarón Alexis Sandoval Vargas,M,,Raw,Juniors,132.5,120+,,,,,150,160,170,170,,,,,170,B
2,Mario Aguila Rubalcava,M,,Raw,Juniors,133.9,120+,,,,,70,80,-95,80,,,,,80,B
1,Diego Octavio Salgado Saldaña,M,,Raw,Juniors,102.7,105,,,,,170,175,-180,175,,,,,175,B
2,Dylan Alejandro Rivera Estrada,M,,Raw,Juniors,101.7,105,,,,,132.5,142.5,150,150,,,,,150,B
3,Arturo Axel Arredondo Carrasco,M,,Raw,Juniors,103.2,105,,,,,-100,120,140,140,,,,,140,B
4,Eldher Raygoza Peña,M,,Raw,Juniors,101.3,105,,,,,-90,95,102.5,102.5,,,,,102.5,B
1,Ricardo Palacios Ramírez,M,,Raw,Juniors,87.1,93,,,,,135,142.5,-145,142.5,,,,,142.5,B
2,Ivis Mauricio Álvarado Martínez,M,,Raw,Juniors,88.4,93,,,,,120,140,-147.5,140,,,,,140,B
3,Fernando Sanchez Salas,M,,Raw,Juniors,90.3,93,,,,,140,-145,-145,140,,,,,140,B
4,Alexis Daniel Alvarado Valadez,M,,Raw,Juniors,88.7,93,,,,,130,-145,-145,130,,,,,130,B
5,Emilio Gómez De La Garza,M,,Raw,Juniors,91.9,93,,,,,100,107.5,-110,107.5,,,,,107.5,B
1,Alan Francisco Vivanco Estrada,M,,Raw,Juniors,80.9,83,,,,,157.5,165,-172.5,165,,,,,165,B
2,Carlos Armando Lara Segovia,M,,Raw,Juniors,79.8,83,,,,,120,-122.5,125,125,,,,,125,B
3,Andrés Eduardo Mendoza Sandoval,M,,Raw,Juniors,81.5,83,,,,,120,-122.5,-122.5,120,,,,,120,B
4,Emmanuel Peña Beltran,M,,Raw,Juniors,81.1,83,,,,,110,-115,115,115,,,,,115,B
5,Aldo Jose Bonetta Fernandez,M,,Raw,Juniors,78.2,83,,,,,110,-115,-115,110,,,,,110,B
6,Miguel Mario Burton Dueñas,M,,Raw,Juniors,80.2,83,,,,,92.5,97.5,105,105,,,,,105,B
7,Brandon Rios Alvarez,M,,Raw,Juniors,82.6,83,,,,,-95,100,105,105,,,,,105,B
8,Josue Malaquias Liceaga Lepe,M,,Raw,Juniors,74.8,83,,,,,90,100,-110,100,,,,,100,B
9,Kevin Elizalde Partida,M,,Raw,Juniors,81.7,83,,,,,95,-100,-100,95,,,,,95,B
10,Daniel Cruz Rivas,M,,Raw,Juniors,79.2,83,,,,,85,90,-92.5,90,,,,,90,B
1,Carlos Eduardo Martínez Romero,M,,Raw,Juniors,72.1,74,,,,,132.5,140,-145,140,,,,,140,B
2,José Manuel Peniche Góngora,M,,Raw,Juniors,72.7,74,,,,,-127.5,135,-137.5,135,,,,,135,B
3,Luis Fernando Guzmán López,M,,Raw,Juniors,73,74,,,,,117.5,122.5,-125,122.5,,,,,122.5,B
4,Saúl Mendoza Ibañez,M,,Raw,Juniors,72.2,74,,,,,-110,-115,115,115,,,,,115,B
5,Julio César Hinojosa Ramírez,M,,Raw,Juniors,73.4,74,,,,,-110,110,-115,110,,,,,110,B
6,Cristobal López Miranda,M,,Raw,Juniors,74,74,,,,,110,-117.5,-117.5,110,,,,,110,B
7,Leonel Alejandro Soriano Valencia,M,,Raw,Juniors,74,74,,,,,105,-110,-110,105,,,,,105,B
8,Víctor Javier Mendoza Gómez,M,,Raw,Juniors,73.1,74,,,,,92.5,95,-100,95,,,,,95,B
9,César Iván Sedano López,M,,Raw,Juniors,69.8,74,,,,,85,90,-97.5,90,,,,,90,B
10,Jaqueline Lizbeth Moreno Lopez,M,,Raw,Juniors,72.6,74,,,,,45,55,-60,55,,,,,55,B
1,Jesus Israel Cruz Encinas,M,,Raw,Juniors,65.3,66,,,,,150,-155,-155,150,,,,,150,B
2,Julio Saucedo Marquez,M,,Raw,Juniors,64.1,66,,,,,132.5,-137.5,-137.5,132.5,,,,,132.5,B
3,Erick David Morales Montoya,M,,Raw,Juniors,64.4,66,,,,,100,105,-107.5,105,,,,,105,B
4,Luis Antonio Moctezuma Espinosa,M,,Raw,Juniors,65.3,66,,,,,80,90,97.5,97.5,,,,,97.5,B
1,Jose Arturo Adan Rodriguez,M,,Raw,Juniors,56.4,59,,,,,117.5,125,-130,125,,,,,125,B
2,Jaime Martínez Alejos,M,,Raw,Juniors,57,59,,,,,115,-117.5,-117.5,115,,,,,115,B
3,Jose Francisco Martinez Ramirez,M,,Raw,Juniors,58.7,59,,,,,110,-115,-115,110,,,,,110,B
DQ,Pablo Antonio Castillo Bravo,M,,Raw,Juniors,55.5,59,,,,,-85,-92.5,-92.5,,,,,,,B
1,Romeo Fernandez Romero,M,,Raw,Sub-Juniors,103.5,105,,,,,95,-100,100,100,,,,,100,B
1,Axel David Ibarra Astorga,M,,Raw,Sub-Juniors,90.8,93,,,,,110,112.5,115,115,,,,,115,B
1,Jonathan Emanuel Rios Barajas,M,,Raw,Sub-Juniors,81.7,83,,,,,110,117.5,-122.5,117.5,,,,,117.5,B
2,Carlos Andrés Paz Gonzalez,M,,Raw,Sub-Juniors,82,83,,,,,100,110,-120,110,,,,,110,B
3,Joaquín Otoniel Osorio Cerna,M,,Raw,Sub-Juniors,81.4,83,,,,,75,82.5,85,85,,,,,85,B
1,Guadalupe Alejandro Mercado Anaya,M,,Raw,Sub-Juniors,72.5,74,,,,,105,110,-115,110,,,,,110,B
2,Emiliano Rosas Velasco,M,,Raw,Sub-Juniors,72.1,74,,,,,100,105,-107.5,105,,,,,105,B
3,Luis Mario Muñoz Velazquez,M,,Raw,Sub-Juniors,73.8,74,,,,,87.5,92.5,97.5,97.5,,,,,97.5,B
4,José Luis Hernández Cosio,M,,Raw,Sub-Juniors,72.2,74,,,,,-95,-95,95,95,,,,,95,B
5,Santiago Armando Mondragón Vega,M,,Raw,Sub-Juniors,72.4,74,,,,,-87.5,90,-97.5,90,,,,,90,B
6,Bryan Gomez González,M,,Raw,Sub-Juniors,69.4,74,,,,,70,77.5,85,85,,,,,85,B
7,Amairo Esteban Sanchez Perez,M,,Raw,Sub-Juniors,73.1,74,,,,,55,60,65,65,,,,,65,B
1,Josué Ledezma Rodríguez,M,,Raw,Sub-Juniors,63.6,66,,,,,75,85,-90,85,,,,,85,B
2,Sergio Ignacio Sedano López,M,,Raw,Sub-Juniors,61,66,,,,,75,-80,-80,75,,,,,75,B
3,Cristian Israel Galván Landeros,M,,Raw,Sub-Juniors,63,66,,,,,60,75,-85,75,,,,,75,B
4,Axel Saul Hernández Meraz,M,,Raw,Sub-Juniors,66,66,,,,,-70,75,-80,75,,,,,75,B
1,Jesus Manuel Rojo Valenzuela,M,,Raw,Sub-Juniors,56.5,59,,,,,70,75,77.5,77.5,,,,,77.5,B
2,Ángel Cruz Figueroa,M,,Raw,Sub-Juniors,57.7,59,,,,,75,-85,-85,75,,,,,75,B
3,Jose Alfredo Ramos Meraz,M,,Raw,Sub-Juniors,56.45,59,,,,,-65,70,-77.5,70,,,,,70,B
1,Marco Manuel Reyes Arano,M,,Single-ply,Masters 1,87.9,93,,,,,145,150,155,155,,,,,155,B
DQ,Adir Manzano Velasco,M,,Single-ply,Masters 1,90.2,93,,,,,-190,-190,,,,,,,,B
1,Israel Rodríguez Quintín,M,,Single-ply,Masters 1,78.8,83,,,,,180,195,200,200,,,,,200,B
1,David Salgado Hernandez,M,,Single-ply,Masters 1,73.8,74,,,,,162.5,-170,175,175,,,,,175,B
1,Juan Jose Tamayo Fuentes,M,,Single-ply,Open,92.1,93,,,,,150,165,175,175,,,,,175,B
2,Jose Manuel Loaiza Flores,M,,Single-ply,Open,86.2,93,,,,,140,150,152.5,152.5,,,,,152.5,B
3,Jonathan Alvarez Arrocena,M,,Single-ply,Open,86.3,93,,,,,125,135,-145,135,,,,,135,B
1,Agustin Sanchez Contreras,M,,Single-ply,Open,78.2,83,,,,,95,-105,-105,95,,,,,95,B
1,Oscar Enrique Barrera Aguirre,M,,Single-ply,Open,72.7,74,,,,,140,145,150,150,,,,,150,B
2,José Adán Escobar Villagómez,M,,Single-ply,Open,74,74,,,,,120,-122.5,-137.5,120,,,,,120,B
DQ,Juan Giovany Ferreyra Fragoso,M,,Single-ply,Juniors,71.3,74,,,,,-125,-135,-135,,,,,,,B
1,Angelica Sofia Macias Perez,F,,Single-ply,Juniors,64.3,69,,,,,67.5,77.5,-85,77.5,,,,,77.5,B
1,Malinallitzin Porras Cruz,F,,Single-ply,Juniors,74,76,,,,,80,-87.5,-90,80,,,,,80,B
1,Jessica Fabiola Reyes Rico,F,,Single-ply,Open,52.8,57,,,,,95,100,-102.5,100,,,,,100,B
1,Brianna Lizani Marquez Olivas,F,,Single-ply,Open,92,84+,,,,,57.5,67.5,-75,67.5,,,,,67.5,B
1,María del Socorro Pérez Arteaga,F,,Single-ply,Masters 3,61.1,63,,,,,85,90,92.5,92.5,,,,,92.5,B
1,Yoela Yolani Leon Amezquita,F,,Raw,Sub-Juniors,50.5,52,,,,,40,45,-47.5,45,,,,,45,B
1,Mara Fernanda Ortiz De La Torre,F,,Raw,Sub-Juniors,55,57,,,,,45,-50,-50,45,,,,,45,B
2,Noelia Adilene López Carrillo,F,,Raw,Sub-Juniors,55.4,57,,,,,30,35,-37.5,35,,,,,35,B
1,Dariana Itzel Villarreal Martell,F,,Raw,Sub-Juniors,63,63,,,,,47.5,-52.5,-52.5,47.5,,,,,47.5,B
2,Perla Torres,F,,Raw,Sub-Juniors,58,63,,,,,45,-52.5,-52.5,45,,,,,45,B
3,Dania Marissa Martínez Cerna,F,,Raw,Sub-Juniors,59.7,63,,,,,37.5,42.5,45,45,,,,,45,B
1,Aylin Esthefania Cuevas Guzmán,F,,Raw,Juniors,42.1,43,,,,,32.5,37.5,-40,37.5,,,,,37.5,B
1,Wendy Alejandra Aguilar Villagrán,F,,Raw,Juniors,45.3,47,,,,,45,50,-52.5,50,,,,,50,B
2,Estefania Rojo Valenzuela,F,,Raw,Juniors,46.2,47,,,,,40,45,47.5,47.5,,,,,47.5,B
1,Salma Alexandra Martínez Romero,F,,Raw,Juniors,56.3,57,,,,,85,-90,90,90,,,,,90,B
2,Michelle Alexandra Guirado García,F,,Raw,Juniors,56,57,,,,,75,80,82.5,82.5,,,,,82.5,B
3,Krisel Carolina López Lara,F,,Raw,Juniors,56.2,57,,,,,72.5,77.5,-80,77.5,,,,,77.5,B
4,Tzeithel Paulette Ferrell Mejía,F,,Raw,Juniors,56.8,57,,,,,67.5,72.5,75,75,,,,,75,B
5,Yareldy Lisset Pech Cortés,F,,Raw,Juniors,55.9,57,,,,,65,70,-75,70,,,,,70,B
6,Cristina Simental Muñoz,F,,Raw,Juniors,56.2,57,,,,,50,55,57.5,57.5,,,,,57.5,B
7,Angela Arreola Hernández,F,,Raw,Juniors,55.4,57,,,,,45,-50,-50,45,,,,,45,B
1,Dianet Verónica Mariano Huerta,F,,Raw,Juniors,60,63,,,,,72.5,77.5,80,80,,,,,80,B
2,Etna Mirén Cisneros Mata,F,,Raw,Juniors,60.7,63,,,,,70,-75,-75,70,,,,,70,B
3,Alexis Córdova Mora,F,,Raw,Juniors,61.8,63,,,,,65,70,-72.5,70,,,,,70,B
4,Ana Lucía Olivera Quintanilla,F,,Raw,Juniors,58,63,,,,,45,55,-60,55,,,,,55,B
5,Jenifer Samsara Lopez Rodriguez,F,,Raw,Juniors,58.4,63,,,,,-52.5,52.5,55,55,,,,,55,B
6,Maria Jose Camacho,F,,Raw,Juniors,61.1,63,,,,,-55,55,-57.5,55,,,,,55,B
1,America Itzel Portillo Ayón,F,,Raw,Juniors,65.9,69,,,,,62.5,-65,-65,62.5,,,,,62.5,B
2,Valeria Herrera Solís,F,,Raw,Juniors,68.2,69,,,,,55,60,62.5,62.5,,,,,62.5,B
3,Yovana Lizzeth González Vargas,F,,Raw,Juniors,67.2,69,,,,,55,60,-62.5,60,,,,,60,B
1,Alejandra Guadalupe López Cazarez,F,,Raw,Juniors,78.4,84,,,,,52.5,55,57.5,57.5,,,,,57.5,B
2,Emelia Flores García,F,,Raw,Juniors,80,84,,,,,45,47.5,50,50,,,,,50,B
1,Erendira Jacqueline Sedano Quirarte,F,,Raw,Open,42,47,,,,,30,32.5,35,35,,,,,35,B
1,Mitzi Magali Vázquez,F,,Raw,Open,46.6,47,,,,,50,55,-57.5,55,,,,,55,B
2,Jazmín Arévalo Jiménez,F,,Raw,Open,46.6,47,,,,,45,47.5,-52.5,47.5,,,,,47.5,B
3,Asherat Ceja Pliego,F,,Raw,Open,44.1,47,,,,,37.5,40,-42.5,40,,,,,40,B
1,Mónica Mercedes De La Torre Velasco,F,,Raw,Open,52,52,,,,,82.5,85,90,90,,,,,90,B
2,Adriana Gonzalez Serna,F,,Raw,Open,51.7,52,,,,,60,65,67.5,67.5,,,,,67.5,B
3,Perla Esmeralda Espinosa Badillo,F,,Raw,Open,51.3,52,,,,,50,55,60,60,,,,,60,B
4,Fernanda García Torres,F,,Raw,Open,51.5,52,,,,,52.5,57.5,60,60,,,,,60,B
5,Aline Falcón Geronimo,F,,Raw,Open,51.6,52,,,,,57.5,-62.5,-62.5,57.5,,,,,57.5,B
6,María Alejandra Marroquín De León,F,,Raw,Open,51.6,52,,,,,55,-60,-60,55,,,,,55,B
7,Zoraida Esther Gómez Martínez,F,,Raw,Open,48.3,52,,,,,47.5,50,-52.5,50,,,,,50,B
8,Claudia Elizabeth Peña Mata,F,,Raw,Open,50.4,52,,,,,42.5,47.5,-52.5,47.5,,,,,47.5,B
DQ,Johana Jazmín Zermeño Pérez,F,,Raw,Open,50,52,,,,,,,,,,,,,,B
1,Faridi Saavedra Salazar,F,,Raw,Open,56.9,57,,,,,87.5,-92.5,-92.5,87.5,,,,,87.5,B
2,Diana Ximena Martinez Espina,F,,Raw,Open,55.1,57,,,,,67.5,72.5,75,75,,,,,75,B
3,Mariana Guadalupe López Sánchez,F,,Raw,Open,56.9,57,,,,,62.5,-67.5,67.5,67.5,,,,,67.5,B
DQ,Mayra Judith Córdova Ávila,F,,Raw,Open,54.8,57,,,,,-35,-45,-45,,,,,,,B
DQ,Andrea Nataly Romero Vega,F,,Raw,Open,55.3,57,,,,,-67.5,-67.5,-67.5,,,,,,,B
1,Andrea Montserrat Mendez Cruz,F,,Raw,Open,62.4,63,,,,,80,86,88,88,,,,,88,B
2,Karina Montiel Rosete,F,,Raw,Open,62,63,,,,,70,-75,75,75,,,,,75,B
3,Katia Paola Crespo Hernandez,F,,Raw,Open,61.8,63,,,,,65,-70,-70,65,,,,,65,B
4,María Guadalupe González Hernández,F,,Raw,Open,62.2,63,,,,,60,65,-67.5,65,,,,,65,B
5,María De Lourdes González Cervantes,F,,Raw,Open,62,63,,,,,55,60,-65,60,,,,,60,B
6,Alondra Cuevas Alcocer,F,,Raw,Open,62.1,63,,,,,60,-65,-65,60,,,,,60,B
7,Andrea Romero Chávez,F,,Raw,Open,58.9,63,,,,,55,-60,-60,55,,,,,55,B
8,Mariana Castro Muñoz,F,,Raw,Open,60.1,63,,,,,45,52.5,-55,52.5,,,,,52.5,B
1,Aurora Perez Lopez,F,,Raw,Open,67.1,69,,,,,102.5,-107.5,-110,102.5,,,,,102.5,B
2,Larissa Alejandra Martínez Velázquez,F,,Raw,Open,68.5,69,,,,,85,-90,90,90,,,,,90,B
3,Yulissa Nuñez Gutierrez,F,,Raw,Open,66,69,,,,,77.5,-80,-85,77.5,,,,,77.5,B
4,Arilí García García,F,,Raw,Open,69,69,,,,,72.5,-77.5,-77.5,72.5,,,,,72.5,B
5,Antonieta Betancourt Orozco,F,,Raw,Open,68,69,,,,,55,62.5,65,65,,,,,65,B
6,Ada Leticia Lovera Sotelo,F,,Raw,Open,68.3,69,,,,,45,-50,-50,45,,,,,45,B
7,Adriana Abigail González Garza,F,,Raw,Open,67,69,,,,,37.5,-45,-45,37.5,,,,,37.5,B
1,Ileana Mesta Rodríguez,F,,Raw,Open,72.8,76,,,,,-90,92.5,-100,92.5,,,,,92.5,B
2,Karen Toral Vega,F,,Raw,Open,74.1,76,,,,,80,85,87.5,87.5,,,,,87.5,B
3,María Fernanda Ramírez Yáñez,F,,Raw,Open,72.8,76,,,,,75,82.5,85,85,,,,,85,B
4,Sandra Georgina Pereyra Rivera,F,,Raw,Open,72.8,76,,,,,57.5,-62.5,-62.5,57.5,,,,,57.5,B
1,Daniela Victoria Pacheco Covarrubias,F,,Raw,Open,83.1,84,,,,,80,85,-90,85,,,,,85,B
2,Jazmin Lizeth Ramírez Hernández,F,,Raw,Open,81.8,84,,,,,65,70,-75,70,,,,,70,B
3,Fernanda Catalina Castro Canpoos,F,,Raw,Open,82.2,84,,,,,50,55,-57.5,55,,,,,55,B
4,Lesli Teresita Carrizoza Mungaray,F,,Raw,Open,80.2,84,,,,,-37.5,-37.5,37.5,37.5,,,,,37.5,B
1,Maytia Adoración De Jesús Millán López,F,,Raw,Open,93.8,84+,,,,,100,105,110,110,,,,,110,B
2,Astrid Alfonsina Martinez Lomas,F,,Raw,Open,95.1,84+,,,,,85,87.5,90,90,,,,,90,B
3,Eliza Prado Campos,F,,Raw,Open,95.5,84+,,,,,67.5,-70,70,70,,,,,70,B
1,Lilia Beatriz Fernández Mata,F,,Raw,Masters 1,49.8,52,,,,,45,50,55,55,,,,,55,B
1,María Isabel Romero Ojeda,F,,Raw,Masters 1,56.6,57,,,,,-55,60,62.5,62.5,,,,,62.5,B
DQ,Isela Juarez Miguel,F,,Raw,Masters 1,57,57,,,,,-55,-55,-55,,,,,,,B
1,Martha María Rodriguez Ruelas,F,,Raw,Masters 1,61.9,63,,,,,50,57.5,60,60,,,,,60,B
1,Laura Graciela Rosales Vasquez,F,,Raw,Masters 1,69.5,76,,,,,72.5,77.5,-80,77.5,,,,,77.5,B
1,Yisa Maria Ochoa Fuentes,F,,Raw,Masters 1,96.5,84+,,,,,70,72.5,-75,72.5,,,,,72.5,B
1,Brandy Lee Cook,F,,Raw,Masters 2,73.6,76,,,,,37.5,42.5,-47.5,42.5,,,,,42.5,B
1,Angelica Sofia Macias Perez,F,,Single-ply,Juniors,64.3,69,155,167.5,180,180,67.5,77.5,-85,77.5,160,175,185,185,442.5,SBD
1,Malinallitzin Porras Cruz,F,,Single-ply,Juniors,74,76,180,190,-200,190,80,-87.5,-90,80,165,175,-177.5,175,445,SBD
1,Jessica Fabiola Reyes Rico,F,,Single-ply,Open,52.8,57,127.5,130,-132.5,130,95,100,-102.5,100,125,-132.5,132.5,132.5,362.5,SBD
1,Brianna Lizani Marquez Olivas,F,,Single-ply,Open,92,84+,100,115,120,120,57.5,67.5,-75,67.5,115,122.5,127.5,127.5,315,SBD
1,María del Socorro Pérez Arteaga,F,,Single-ply,Masters 3,61.1,63,90,97.5,102.5,102.5,85,90,92.5,92.5,105,110,115,115,310,SBD
1,Yoela Yolani Leon Amezquita,F,,Raw,Sub-Juniors,50.5,52,67.5,75,82.5,82.5,40,45,-47.5,45,85,95,100,100,227.5,SBD
1,Mara Fernanda Ortiz De La Torre,F,,Raw,Sub-Juniors,55,57,85,92.5,97.5,97.5,45,-50,-50,45,95,105,110,110,252.5,SBD
2,Noelia Adilene López Carrillo,F,,Raw,Sub-Juniors,55.4,57,75,-85,85,85,30,35,-37.5,35,87.5,95,100,100,220,SBD
1,Perla Torres,F,,Raw,Sub-Juniors,58,63,95,102.5,107.5,107.5,45,-52.5,-52.5,45,100,107.5,115,115,267.5,SBD
2,Dania Marissa Martínez Cerna,F,,Raw,Sub-Juniors,59.7,63,75,82.5,90,90,37.5,42.5,45,45,95,102.5,115,115,250,SBD
3,Dariana Itzel Villarreal Martell,F,,Raw,Sub-Juniors,63,63,77.5,85,-90,85,47.5,-52.5,-52.5,47.5,97.5,105,107.5,107.5,240,SBD
1,Valeria Elizabeth Hernandez Cuepas,F,,Raw,Sub-Juniors,66.7,69,80,95,-110,95,30,-40,45,45,85,100,125,125,265,SBD
1,Aylin Esthefania Cuevas Guzmán,F,,Raw,Juniors,42.1,43,65,75,80,80,32.5,37.5,-40,37.5,90,100,107.5,107.5,225,SBD
2,Valeria Sedano Quirarte,F,,Raw,Juniors,39.2,43,50,55,60,60,25,-27.5,-27.5,25,80,82.5,85,85,170,SBD
1,Estefania Rojo Valenzuela,F,,Raw,Juniors,46.2,47,75,85,90,90,40,45,47.5,47.5,105,110,112.5,112.5,250,SBD
2,Wendy Alejandra Aguilar Villagrán,F,,Raw,Juniors,45.3,47,65,72.5,-77.5,72.5,45,50,-52.5,50,95,105,110,110,232.5,SBD
1,Michelle Alexandra Guirado García,F,,Raw,Juniors,56,57,127.5,135,140,140,75,80,82.5,82.5,155,165,173,173,395.5,SBD
2,Krisel Carolina López Lara,F,,Raw,Juniors,56.2,57,135,140,145,145,72.5,77.5,-80,77.5,150,160,-170,160,382.5,SBD
3,Yareldy Lisset Pech Cortés,F,,Raw,Juniors,55.9,57,132.5,-140,142.5,142.5,65,70,-75,70,132.5,142.5,147.5,147.5,360,SBD
4,Tzeithel Paulette Ferrell Mejía,F,,Raw,Juniors,56.8,57,120,127.5,132.5,132.5,67.5,72.5,75,75,-132.5,145,-155,145,352.5,SBD
5,Cristina Simental Muñoz,F,,Raw,Juniors,56.2,57,120,-130,130,130,50,55,57.5,57.5,120,125,132.5,132.5,320,SBD
6,Angela Arreola Hernández,F,,Raw,Juniors,55.4,57,105,112.5,115,115,45,-50,-50,45,90,100,110,110,270,SBD
DQ,Salma Alexandra Martínez Romero,F,,Raw,Juniors,56.3,57,135,140,145,145,85,-90,90,90,-142.5,-142.5,-142.5,,,SBD
1,Dianet Verónica Mariano Huerta,F,,Raw,Juniors,60,63,112.5,120,127.5,127.5,72.5,77.5,80,80,145,155,166,166,373.5,SBD
2,Alexis Córdova Mora,F,,Raw,Juniors,61.8,63,125,132.5,137.5,137.5,65,70,-72.5,70,135,145,-152.5,145,352.5,SBD
3,Etna Mirén Cisneros Mata,F,,Raw,Juniors,60.7,63,105,115,120,120,70,-75,-75,70,140,152.5,-162.5,152.5,342.5,SBD
4,Ana Lucía Olivera Quintanilla,F,,Raw,Juniors,58,63,97.5,107.5,-120,107.5,45,55,-60,55,125,140,152.5,152.5,315,SBD
5,Maria Jose Camacho,F,,Raw,Juniors,61.1,63,-105,-110,110,110,-55,55,-57.5,55,105,115,125,125,290,SBD
6,Jenifer Samsara Lopez Rodriguez,F,,Raw,Juniors,58.4,63,100,107.5,-115,107.5,-52.5,52.5,55,55,115,125,-135,125,287.5,SBD
7,Alondra Maley López Carrillo,F,,Raw,Juniors,57.5,63,85,95,105,105,37.5,42.5,-45,42.5,85,100,105,105,252.5,SBD
1,Mara Tiscareño Aguayo,F,,Raw,Juniors,68.3,69,145,152.5,160,160,65,70,-82.5,70,160,170,177.5,177.5,407.5,SBD
2,Valeria Herrera Solís,F,,Raw,Juniors,68.2,69,115,125,132.5,132.5,55,60,62.5,62.5,145,155,165,165,360,SBD
3,Yovana Lizzeth González Vargas,F,,Raw,Juniors,67.2,69,107.5,115,120,120,55,60,-62.5,60,135,145,150,150,330,SBD
4,America Itzel Portillo Ayón,F,,Raw,Juniors,65.9,69,100,110,115,115,62.5,-65,-65,62.5,115,130,-137.5,130,307.5,SBD
1,Emelia Flores García,F,,Raw,Juniors,80,84,100,115,127.5,127.5,45,47.5,50,50,115,130,145,145,322.5,SBD
2,Alejandra Guadalupe López Cazarez,F,,Raw,Juniors,78.4,84,115,125,130,130,52.5,55,57.5,57.5,115,-122.5,127.5,127.5,315,SBD
3,Alma Denisse Ulloa Santos,F,,Raw,Juniors,81.3,84,115,-120,-120,115,60,-65,-65,60,115,120,130,130,305,SBD
1,Erendira Jacqueline Sedano Quirarte,F,,Raw,Open,42,47,50,55,57.5,57.5,30,32.5,35,35,90,95,100,100,192.5,SBD
1,Mitzi Magali Vázquez,F,,Raw,Open,46.6,47,105,-115,118,118,50,55,-57.5,55,115,132.5,-140.5,132.5,305.5,SBD
2,Jazmín Arévalo Jiménez,F,,Raw,Open,46.6,47,75,82.5,87.5,87.5,45,47.5,-52.5,47.5,105,-110,110,110,245,SBD
3,Asherat Ceja Pliego,F,,Raw,Open,44.1,47,55,57.5,60,60,37.5,40,-42.5,40,70,80,85,85,185,SBD
1,Mónica Mercedes De La Torre Velasco,F,,Raw,Open,52,52,110,115,120,120,82.5,85,90,90,140,150,-157.5,150,360,SBD
2,Aline Falcón Geronimo,F,,Raw,Open,51.6,52,112.5,120,122.5,122.5,57.5,-62.5,-62.5,57.5,-145,152.5,155,155,335,SBD
3,Adriana Gonzalez Serna,F,,Raw,Open,51.7,52,117.5,122.5,-126.5,122.5,60,65,67.5,67.5,125,135,142.5,142.5,332.5,SBD
4,Perla Esmeralda Espinosa Badillo,F,,Raw,Open,51.3,52,110,120,125,125,50,55,60,60,-145,145,-155,145,330,SBD
5,Zoraida Esther Gómez Martínez,F,,Raw,Open,48.3,52,100,107.5,115,115,47.5,50,-52.5,50,135,142.5,-145,142.5,307.5,SBD
6,Fernanda García Torres,F,,Raw,Open,51.5,52,92.5,100,105,105,52.5,57.5,60,60,115,125,-132.5,125,290,SBD
7,María Alejandra Marroquín De León,F,,Raw,Open,51.6,52,105,110,-117.5,110,55,-60,-60,55,110,120,-125,120,285,SBD
8,Claudia Elizabeth Peña Mata,F,,Raw,Open,50.4,52,82.5,92.5,-100,92.5,42.5,47.5,-52.5,47.5,92.5,102.5,-110,102.5,242.5,SBD
DQ,Johana Jazmín Zermeño Pérez,F,,Raw,Open,50,52,,,,,,,,,,,,,,SBD
1,Faridi Saavedra Salazar,F,,Raw,Open,56.9,57,155,162.5,170,170,87.5,-92.5,-92.5,87.5,170,-180,-180,170,427.5,SBD
2,Diana Ximena Martinez Espina,F,,Raw,Open,55.1,57,117.5,125,132.5,132.5,67.5,72.5,75,75,157.5,170,180,180,387.5,SBD
3,Mariana Guadalupe López Sánchez,F,,Raw,Open,56.9,57,127.5,-135,-135,127.5,62.5,-67.5,67.5,67.5,142.5,152.5,-160,152.5,347.5,SBD
4,Evelyn Estefania Campos Magaña,F,,Raw,Open,56.8,57,125,132.5,-137.5,132.5,52.5,57.5,-60,57.5,142.5,147.5,-155,147.5,337.5,SBD
5,Noemi Solis Ponce,F,,Raw,Open,54.4,57,-95,97.5,100,100,55,-60,-60,55,95,100,105,105,260,SBD
6,Rosalía Belem Correa García,F,,Raw,Open,54.6,57,60,75,82.5,82.5,30,32.5,37.5,37.5,60,75,90,90,210,SBD
DQ,Mayra Judith Córdova Ávila,F,,Raw,Open,54.8,57,60,75,85,85,-35,-45,-45,,70,77.5,87.5,87.5,,SBD
DQ,Andrea Nataly Romero Vega,F,,Raw,Open,55.3,57,-125,-130,-130,,-67.5,-67.5,-67.5,,-135,,,,,SBD
1,Andrea Montserrat Mendez Cruz,F,,Raw,Open,62.4,63,127.5,137.5,140,140,80,86,88,88,132.5,145,155,155,383,SBD
2,Gabriela T Franco,F,,Raw,Open,59.5,63,130,-137.5,-137.5,130,62.5,65,-67.5,65,130,137.5,-142.5,137.5,332.5,SBD
3,Karina Montiel Rosete,F,,Raw,Open,62,63,112.5,120,-125,120,70,-75,75,75,125,135,-145,135,330,SBD
4,María Guadalupe González Hernández,F,,Raw,Open,62.2,63,95,102.5,105,105,60,65,-67.5,65,132.5,142.5,150,150,320,SBD
5,Alondra Cuevas Alcocer,F,,Raw,Open,62.1,63,110,117.5,125,125,60,-65,-65,60,120,130,-140,130,315,SBD
6,Katia Paola Crespo Hernandez,F,,Raw,Open,61.8,63,100,105,-107.5,105,65,-70,-70,65,125,140,-145,140,310,SBD
7,Abigail Bañuelos Sanchez,F,,Raw,Open,60.3,63,105,112.5,-120,112.5,-45,45,-50,45,130,140,147.5,147.5,305,SBD
8,Daniela Assenet Moctezuma Sandoval,F,,Raw,Open,60.2,63,105,-110,-112.5,105,-45,55,-60,55,125,135,140,140,300,SBD
9,Andrea Romero Chávez,F,,Raw,Open,58.9,63,90,100,-107.5,100,55,-60,-60,55,125,135,142.5,142.5,297.5,SBD
10,Lizeth Canche Alvarez,F,,Raw,Open,62.7,63,85,95,102.5,102.5,52.5,-57.5,57.5,57.5,105,115,125,125,285,SBD
11,Mariana Castro Muñoz,F,,Raw,Open,60.1,63,75,85,90,90,45,52.5,-55,52.5,105,115,120,120,262.5,SBD
12,Diana Mireya Lopez Ortiz,F,,Raw,Open,63,63,60,-70,-80,60,25,30,-35,30,65,90,102.5,102.5,192.5,SBD
DQ,Merari Elisama Hernández Camacho,F,,Raw,Open,59.9,63,95,97.5,100,100,-50,-50,-50,,95,-100,-100,95,,SBD
DQ,María De Lourdes González Cervantes,F,,Raw,Open,62,63,-125,-127.5,-130,,55,60,-65,60,125,130,135,135,,SBD
1,Aurora Perez Lopez,F,,Raw,Open,67.1,69,180,190,-200,190,102.5,-107.5,-110,102.5,185,195,203,203,495,SBD
2,Larissa Alejandra Martínez Velázquez,F,,Raw,Open,68.5,69,147.5,160,165,165,85,-90,90,90,167.5,180,187.5,187.5,442.5,SBD
3,Arilí García García,F,,Raw,Open,69,69,127.5,137.5,142.5,142.5,72.5,-77.5,-77.5,72.5,145,155,-160,155,370,SBD
4,Yulissa Nuñez Gutierrez,F,,Raw,Open,66,69,132.5,137.5,-142.5,137.5,77.5,-80,-85,77.5,142.5,150,-162.5,150,365,SBD
5,Antonieta Betancourt Orozco,F,,Raw,Open,68,69,95,105,112.5,112.5,55,62.5,65,65,120,130,140,140,317.5,SBD
6,Karen Alondra Soriano Luna,F,,Raw,Open,67.5,69,110,120,-125,120,47.5,55,-57.5,55,112.5,122.5,130,130,305,SBD
7,Virginia Martínez Obregón,F,,Raw,Open,67.2,69,-105,105,125,125,42.5,50,-52.5,50,100,-120,-120,100,275,SBD
8,Adriana Abigail González Garza,F,,Raw,Open,67,69,90,100,-105,100,37.5,-45,-45,37.5,105,115,120,120,257.5,SBD
9,Ada Leticia Lovera Sotelo,F,,Raw,Open,68.3,69,85,90,95,95,45,-50,-50,45,100,-110,-110,100,240,SBD
1,Ileana Mesta Rodríguez,F,,Raw,Open,72.8,76,155,-162.5,162.5,162.5,-90,92.5,-100,92.5,180,-190,-190,180,435,SBD
2,Karen Toral Vega,F,,Raw,Open,74.1,76,145,155,162.5,162.5,80,85,87.5,87.5,155,165,172.5,172.5,422.5,SBD
3,Sandra Georgina Pereyra Rivera,F,,Raw,Open,72.8,76,120,132.5,-137.5,132.5,57.5,-62.5,-62.5,57.5,135,142.5,147.5,147.5,337.5,SBD
4,Ana María Seseña Ortiz,F,,Raw,Open,72.6,76,82.5,100,105,105,40.5,45.5,-50,45.5,102.5,110,122.5,122.5,273,SBD
1,Daniela Victoria Pacheco Covarrubias,F,,Raw,Open,83.1,84,150,-160,165,165,80,85,-90,85,170,177.5,182.5,182.5,432.5,SBD
2,Jazmin Lizeth Ramírez Hernández,F,,Raw,Open,81.8,84,155,162.5,167.5,167.5,65,70,-75,70,160,167.5,-172.5,167.5,405,SBD
3,Fernanda Catalina Castro Canpoos,F,,Raw,Open,82.2,84,125,135,-140,135,50,55,-57.5,55,145,155,160,160,350,SBD
4,Lesli Teresita Carrizoza Mungaray,F,,Raw,Open,80.2,84,-110,-110,110,110,-37.5,-37.5,37.5,37.5,125,140,-150,140,287.5,SBD
1,Maytia Adoración De Jesús Millán López,F,,Raw,Open,93.8,84+,175,185,190,190,100,105,110,110,175,185,190,190,490,SBD
2,Astrid Alfonsina Martinez Lomas,F,,Raw,Open,95.1,84+,147.5,155,160,160,85,87.5,90,90,185,195,202.5,202.5,452.5,SBD
3,Eliza Prado Campos,F,,Raw,Open,95.5,84+,125,137.5,145,145,67.5,-70,70,70,162.5,177.5,187.5,187.5,402.5,SBD
4,Lizbeth Torres Saucedo,F,,Raw,Open,90,84+,90,100,110,110,-50,50,-55,50,105,115,125,125,285,SBD
1,Lilia Beatriz Fernández Mata,F,,Raw,Masters 1,49.8,52,85,87.5,90,90,45,50,55,55,130,140,-147.5,140,285,SBD
1,María Isabel Romero Ojeda,F,,Raw,Masters 1,56.6,57,100,107.5,110,110,-55,60,62.5,62.5,100,105,110,110,282.5,SBD
2,Vazquez Cortés Ivon,F,,Raw,Masters 1,57,57,70,-75,75,75,55,57.5,-60,57.5,70,75,80,80,212.5,SBD
1,Martha María Rodriguez Ruelas,F,,Raw,Masters 1,61.9,63,92.5,100,107.5,107.5,50,57.5,60,60,120,130,135,135,302.5,SBD
1,Laura Graciela Rosales Vasquez,F,,Raw,Masters 1,69.5,76,135,140,150,150,72.5,77.5,-80,77.5,155,162.5,-165,162.5,390,SBD
2,Maria Elena Velasco Rojas,F,,Raw,Masters 1,74.3,76,102.5,110,117.5,117.5,40,45,-50,45,110,120,125,125,287.5,SBD
1,Yisa Maria Ochoa Fuentes,F,,Raw,Masters 1,96.5,84+,-110,-110,110,110,70,72.5,-75,72.5,105,115,122.5,122.5,305,SBD
1,Brandy Lee Cook,F,,Raw,Masters 2,73.6,76,100,110,115,115,37.5,42.5,-47.5,42.5,112.5,120,125,125,282.5,SBD
DQ,Juan Giovany Ferreyra Fragoso,M,,Single-ply,Juniors,71.3,74,180,190,200,200,-125,-135,-135,,-180,,,,,SBD
1,Oscar Enrique Barrera Aguirre,M,,Single-ply,Open,72.7,74,220,235,240,240,140,145,150,150,215,225,-230,225,615,SBD
2,José Adán Escobar Villagómez,M,,Single-ply,Open,74,74,-170,-172.5,190,190,120,-122.5,-137.5,120,180,210,230,230,540,SBD
1,Agustin Sanchez Contreras,M,,Single-ply,Open,78.2,83,190,200,-215,200,95,-105,-105,95,210,230,-240,230,525,SBD
1,Juan Jose Tamayo Fuentes,M,,Single-ply,Open,92.1,93,250,275,-300,275,150,165,175,175,230,-240,-240,230,680,SBD
2,Jose Manuel Loaiza Flores,M,,Single-ply,Open,86.2,93,-180,200,210,210,140,150,152.5,152.5,200,220,230,230,592.5,SBD
3,Jonathan Alvarez Arrocena,M,,Single-ply,Open,86.3,93,162.5,172.5,180,180,125,135,-145,135,160,170,180,180,495,SBD
1,David Salgado Hernandez,M,,Single-ply,Masters 1,73.8,74,240,255,-266,255,162.5,-170,175,175,255,-262.5,-262.5,255,685,SBD
1,Marco Manuel Reyes Arano,M,,Single-ply,Masters 1,87.9,93,-235,-235,235,235,145,150,155,155,200,210,215,215,605,SBD
1,Ángel Cruz Figueroa,M,,Raw,Sub-Juniors,57.7,59,137.5,-147.5,150,150,75,-85,-85,75,170,180,-185,180,405,SBD
2,Jesus Manuel Rojo Valenzuela,M,,Raw,Sub-Juniors,56.5,59,130,140,145,145,70,75,77.5,77.5,125,135,-145,135,357.5,SBD
3,Jose Alfredo Ramos Meraz,M,,Raw,Sub-Juniors,56.45,59,-115,122.5,-127.5,122.5,-65,70,-77.5,70,125,135,140,140,332.5,SBD
1,Josué Ledezma Rodríguez,M,,Raw,Sub-Juniors,63.6,66,115,127.5,135,135,75,85,-90,85,160,170,-185,170,390,SBD
2,Axel Saul Hernández Meraz,M,,Raw,Sub-Juniors,66,66,130,-140,140,140,-70,75,-80,75,150,162.5,165,165,380,SBD
3,Sergio Ignacio Sedano López,M,,Raw,Sub-Juniors,61,66,130,140,-147.5,140,75,-80,-80,75,150,162.5,-165,162.5,377.5,SBD
4,Cristian Israel Galván Landeros,M,,Raw,Sub-Juniors,63,66,92.5,110,130,130,60,75,-85,75,120,140,-160,140,345,SBD
1,Emiliano Rosas Velasco,M,,Raw,Sub-Juniors,72.1,74,165,172.5,177.5,177.5,100,105,-107.5,105,185,195,205,205,487.5,SBD
2,José Luis Hernández Cosio,M,,Raw,Sub-Juniors,72.2,74,-160,-160,160,160,-95,-95,95,95,180,185,197.5,197.5,452.5,SBD
3,Guadalupe Alejandro Mercado Anaya,M,,Raw,Sub-Juniors,72.5,74,155,-162.5,162.5,162.5,105,110,-115,110,-180,180,-185,180,452.5,SBD
4,Santiago Armando Mondragón Vega,M,,Raw,Sub-Juniors,72.4,74,140,150,160,160,-87.5,90,-97.5,90,180,192.5,200,200,450,SBD
5,Luis Mario Muñoz Velazquez,M,,Raw,Sub-Juniors,73.8,74,135,150,157.5,157.5,87.5,92.5,97.5,97.5,165,180,-185,180,435,SBD
6,Juan Manuel Basurto Hernández,M,,Raw,Sub-Juniors,71.3,74,120,130,137.5,137.5,102.5,107.5,115,115,150,160,-170,160,412.5,SBD
7,Isaacrogeth Ojendiz Benitez,M,,Raw,Sub-Juniors,72.1,74,135,142.5,-150,142.5,65,77.5,80,80,150,167.5,182.5,182.5,405,SBD
8,Bryan Gomez González,M,,Raw,Sub-Juniors,69.4,74,145,152.5,157.5,157.5,70,77.5,85,85,145,155,-162.5,155,397.5,SBD
9,Amairo Esteban Sanchez Perez,M,,Raw,Sub-Juniors,73.1,74,122.5,-132.5,-132.5,122.5,55,60,65,65,152.5,162.5,172.5,172.5,360,SBD
1,Carlos Andrés Paz Gonzalez,M,,Raw,Sub-Juniors,82,83,165,175,185,185,100,110,-120,110,215,230,-232.5,230,525,SBD
2,Jonathan Emanuel Rios Barajas,M,,Raw,Sub-Juniors,81.7,83,150,165,-175,165,110,117.5,-122.5,117.5,165,185,-195,185,467.5,SBD
3,Joaquín Otoniel Osorio Cerna,M,,Raw,Sub-Juniors,81.4,83,140,152.5,162.5,162.5,75,82.5,85,85,180,-195,-205,180,427.5,SBD
1,Axel David Ibarra Astorga,M,,Raw,Sub-Juniors,90.8,93,180,190,-195,190,110,112.5,115,115,215,222.5,230,230,535,SBD
2,Jorge Alejandro Flores Abaroa,M,,Raw,Sub-Juniors,90.7,93,185,197.5,-210,197.5,105,112.5,120,120,190,205,-217.5,205,522.5,SBD
1,Romeo Fernandez Romero,M,,Raw,Sub-Juniors,103.5,105,-195,195,210,210,95,-100,100,100,200,215,-230,215,525,SBD
1,Jose Arturo Adan Rodriguez,M,,Raw,Juniors,56.4,59,165,175,185,185,117.5,125,-130,125,165,175,-185,175,485,SBD
2,Jaime Martínez Alejos,M,,Raw,Juniors,57,59,155,160,167.5,167.5,115,-117.5,-117.5,115,187.5,190,-195,190,472.5,SBD
3,Kevin Efrain Jiménez Cardozo,M,,Raw,Juniors,58.9,59,150,160,170,170,100,-107.5,107.5,107.5,170,180,-185,180,457.5,SBD
4,Jose Francisco Martinez Ramirez,M,,Raw,Juniors,58.7,59,130,-140,140,140,110,-115,-115,110,140,150,-160,150,400,SBD
DQ,Pablo Antonio Castillo Bravo,M,,Raw,Juniors,55.5,59,125,137.5,145,145,-85,-92.5,-92.5,,155,170,-180,170,,SBD
1,Jesus Israel Cruz Encinas,M,,Raw,Juniors,65.3,66,220,230,235,235,150,-155,-155,150,220,230,235,235,620,SBD
2,Julio Saucedo Marquez,M,,Raw,Juniors,64.1,66,202.5,217.5,222.5,222.5,132.5,-137.5,-137.5,132.5,235,250,-265,250,605,SBD
3,Alejandro Cubillas Arteaga,M,,Raw,Juniors,65,66,185,200,210,210,135,-140,-140,135,225,-240,-250.5,225,570,SBD
4,Edgar Ivan Zampini Ruiz,M,,Raw,Juniors,65.8,66,180,-185,190,190,100,110,115,115,215,232.5,-240,232.5,537.5,SBD
5,Víctor Ramos Alamilla,M,,Raw,Juniors,65,66,-175,175,187.5,187.5,97.5,105,-110,105,205,220,232.5,232.5,525,SBD
6,César Emiliano Jiménez Ortíz,M,,Raw,Juniors,64.5,66,170,177.5,182.5,182.5,115,120,122.5,122.5,187.5,197.5,207.5,207.5,512.5,SBD
7,Erick David Morales Montoya,M,,Raw,Juniors,64.4,66,150,162.5,170,170,100,105,-107.5,105,170,185,-195,185,460,SBD
8,Luis Antonio Moctezuma Espinosa,M,,Raw,Juniors,65.3,66,-115,115,-127.5,115,80,90,97.5,97.5,160,180,190,190,402.5,SBD
1,Jesús Abraham Amado Guillen,M,,Raw,Juniors,73.6,74,187.5,202.5,212.5,212.5,135,140,145,145,230,250,261,261,618.5,SBD
2,José Manuel Peniche Góngora,M,,Raw,Juniors,72.7,74,195,205,-210,205,-127.5,135,-137.5,135,205,-215,215,215,555,SBD
3,Carlos Eduardo Martínez Romero,M,,Raw,Juniors,72.1,74,170,180,187.5,187.5,132.5,140,-145,140,-215,-215,215,215,542.5,SBD
4,Leonel Arreola Ramirez,M,,Raw,Juniors,72.9,74,180,190,197.5,197.5,102.5,112.5,-115,112.5,215,222.5,232.5,232.5,542.5,SBD
5,Leonel Alejandro Soriano Valencia,M,,Raw,Juniors,74,74,175,187.5,200,200,105,-110,-110,105,210,217.5,-220,217.5,522.5,SBD
6,Julio César Hinojosa Ramírez,M,,Raw,Juniors,73.4,74,160,167.5,172.5,172.5,-110,110,-115,110,220,230,-237.5,230,512.5,SBD
7,Cristobal López Miranda,M,,Raw,Juniors,74,74,-170,170,175,175,110,-117.5,-117.5,110,205,217.5,-227.5,217.5,502.5,SBD
8,Luis Fernando Guzmán López,M,,Raw,Juniors,73,74,165,175,182.5,182.5,117.5,122.5,-125,122.5,180,195,-205,195,500,SBD
9,Saúl Mendoza Ibañez,M,,Raw,Juniors,72.2,74,170,-180,180,180,-110,-115,115,115,170,185,197.5,197.5,492.5,SBD
10,César Iván Sedano López,M,,Raw,Juniors,69.8,74,180,-195,-195,180,85,90,-97.5,90,190,200,207.5,207.5,477.5,SBD
11,Roberto Raamses Uribe Nuñez,M,,Raw,Juniors,72.9,74,165,172.5,180,180,90,95,-100,95,195,202.5,-207.5,202.5,477.5,SBD
12,Víctor Javier Mendoza Gómez,M,,Raw,Juniors,73.1,74,165,-170,-170,165,92.5,95,-100,95,190,202.5,207.5,207.5,467.5,SBD
DQ,Luis Leonardo Lozano Valenzuela,M,,Raw,Juniors,74,74,-175,,,,-105,,,,-210,,,,,SBD
1,Alan Francisco Vivanco Estrada,M,,Raw,Juniors,80.9,83,230,240,-245,240,157.5,165,-172.5,165,250,-260,-275,250,655,SBD
2,Irving de Jesús Méndez Castro,M,,Raw,Juniors,82.5,83,212.5,-217.5,217.5,217.5,145,152.5,-157.5,152.5,-232.5,240,247.5,247.5,617.5,SBD
3,Juan Antonio García Martínez,M,,Raw,Juniors,81,83,200,210,220,220,112.5,122.5,127.5,127.5,212.5,222.5,232.5,232.5,580,SBD
4,Emmanuel Peña Beltran,M,,Raw,Juniors,81.1,83,190,205,-215,205,110,-115,115,115,220,230,240,240,560,SBD
5,Aldo Jose Bonetta Fernandez,M,,Raw,Juniors,78.2,83,187.5,195,-200,195,110,-115,-115,110,230,242.5,-250,242.5,547.5,SBD
6,Andrés Eduardo Mendoza Sandoval,M,,Raw,Juniors,81.5,83,180,185,187.5,187.5,120,-122.5,-122.5,120,230,235,240,240,547.5,SBD
7,Carlos Armando Lara Segovia,M,,Raw,Juniors,79.8,83,155,165,175,175,120,-122.5,125,125,200,210,-220,210,510,SBD
8,Brandon Rios Alvarez,M,,Raw,Juniors,82.6,83,170,185,192.5,192.5,-95,100,105,105,185,200,210,210,507.5,SBD
9,Kevin Elizalde Partida,M,,Raw,Juniors,81.7,83,180,190,192.5,192.5,95,-100,-100,95,-190,200,210,210,497.5,SBD
10,Miguel Mario Burton Dueñas,M,,Raw,Juniors,80.2,83,162.5,167.5,172.5,172.5,92.5,97.5,105,105,-185,195,-205,195,472.5,SBD
11,Josue Malaquias Liceaga Lepe,M,,Raw,Juniors,74.8,83,140,150,-165,150,90,100,-110,100,185,200,-210,200,450,SBD
12,Daniel Cruz Rivas,M,,Raw,Juniors,79.2,83,140,150,-155,150,85,90,-92.5,90,185,190,-195,190,430,SBD
1,Jovanny Raúl Hernández Ramírez,M,,Raw,Juniors,91.9,93,-245,252.5,260,260,120,130,-135,130,260,-277.5,282.5,282.5,672.5,SBD
2,Ivis Mauricio Álvarado Martínez,M,,Raw,Juniors,88.4,93,225,230,242.5,242.5,120,140,-147.5,140,230,250,260,260,642.5,SBD
3,Fernando Sanchez Salas,M,,Raw,Juniors,90.3,93,212.5,217.5,222.5,222.5,140,-145,-145,140,260,272.5,277.5,277.5,640,SBD
4,Ricardo Palacios Ramírez,M,,Raw,Juniors,87.1,93,205,220,225,225,135,142.5,-145,142.5,252.5,265,-272.5,265,632.5,SBD
5,Luis Angel Olvera Carrillo,M,,Raw,Juniors,86,93,200,220,227.5,227.5,117.5,125,-130,125,250,-270,-270,250,602.5,SBD
6,Alexis Daniel Alvarado Valadez,M,,Raw,Juniors,88.7,93,210,-225,-225,210,130,-145,-145,130,235,245,-260,245,585,SBD
7,Carlos Antonio Alvarado Macias,M,,Raw,Juniors,88.7,93,-195,-195,195,195,115,122.5,-127.5,122.5,-230,-235,235,235,552.5,SBD
8,José María Paniagua Aguilera,M,,Raw,Juniors,87.7,93,-187.5,-187.5,187.5,187.5,120,125,-130,125,-210,220,230,230,542.5,SBD
9,Emilio Gómez De La Garza,M,,Raw,Juniors,91.9,93,160,170,-180,170,100,107.5,-110,107.5,180,190,200,200,477.5,SBD
10,Sergio Isaac Lozano Lopez,M,,Raw,Juniors,87.8,93,125,-135,-135,125,80,87.5,-90,87.5,125,135,145,145,357.5,SBD
NS,Isaac Daniel Marín Pineda,M,,Raw,Juniors,,93,,,,,,,,,,,,,,SBD
NS,Jorge Luis Niebla,M,,Raw,Juniors,,93,,,,,,,,,,,,,,SBD
1,Diego Octavio Salgado Saldaña,M,,Raw,Juniors,102.7,105,230,245,255,255,170,175,-180,175,295,305,-310,305,735,SBD
2,Dylan Alejandro Rivera Estrada,M,,Raw,Juniors,101.7,105,190,-200,205,205,132.5,142.5,150,150,230,245,255,255,610,SBD
3,Arturo Axel Arredondo Carrasco,M,,Raw,Juniors,103.2,105,210,230,-245,230,-100,120,140,140,200,220,240,240,610,SBD
4,Eldher Raygoza Peña,M,,Raw,Juniors,101.3,105,190,-220,-220,190,-90,95,102.5,102.5,180,200,210,210,502.5,SBD
1,Aarón Alexis Sandoval Vargas,M,,Raw,Juniors,132.5,120+,247.5,262.5,282.5,282.5,150,160,170,170,260,272.5,290,290,742.5,SBD
2,Mario Aguila Rubalcava,M,,Raw,Juniors,133.9,120+,-140,150,-170,150,70,80,-95,80,180,200,215,215,445,SBD
1,Sergio Solis Lima,M,,Raw,Open,58.6,59,160,-180,182.5,182.5,85,-95,-95,85,185,-202.5,-202.5,185,452.5,SBD
2,Manuel Alejandro Ordaz Velazquez,M,,Raw,Open,58.2,59,130,140,150,150,90,97.5,102.5,102.5,145,155,162.5,162.5,415,SBD
1,Gabriel Sierra Segovia,M,,Raw,Open,65.9,66,195,202.5,215,215,117.5,122.5,-125,122.5,210,230,-250,230,567.5,SBD
2,César Eduardo Rodriguez Torres,M,,Raw,Open,65.3,66,182.5,195,205,205,117.5,122.5,127.5,127.5,210,220,227.5,227.5,560,SBD
3,Aleck Maximiliano Robles Pablos,M,,Raw,Open,64.8,66,175,187.5,200,200,105,-112.5,112.5,112.5,210,230,-247.5,230,542.5,SBD
4,Erick Yair Bazan Buendia,M,,Raw,Open,64.2,66,160,170,-175,170,120,-125,-125,120,200,215,-230,215,505,SBD
5,Luis Fernando Onofre Díaz,M,,Raw,Open,65.4,66,167.5,175,182.5,182.5,-102.5,-102.5,102.5,102.5,195,205,-212.5,205,490,SBD
6,Miguel Cruz Olivares,M,,Raw,Open,64.3,66,150,-160,160,160,85,-90,90,90,215,222.5,-232.5,222.5,472.5,SBD
7,Erik Rodrigo Uh Huchim,M,,Raw,Open,60.5,66,145,-150,-155,145,85,-90,-95,85,140,150,165,165,395,SBD
8,Fabrizio De Dios Medina Avelar,M,,Raw,Open,64.6,66,110,130,140,140,90,-105,-105,90,130,140,150,150,380,SBD
1,Santos Gabriel Jiménez Quintero,M,,Raw,Open,73.2,74,212.5,225,240,240,160,170,173,173,240,-260,260,260,673,SBD
2,Kevin Acevedo Rosas,M,,Raw,Open,73.1,74,220,232.5,240.5,240.5,125,132.5,-135,132.5,255,270,-273,270,643,SBD
3,Joshua Asrael Aboytes Ruíz,M,,Raw,Open,72.4,74,215,-225,225,225,120,-127.5,,120,255,-265,272.5,272.5,617.5,SBD
4,Cesar Israel Cabrera Venegas,M,,Raw,Open,72.8,74,200,-207.5,-207.5,200,120,-125,127.5,127.5,252.5,260,-265,260,587.5,SBD
5,Jorge Luis Carrasco Delgado,M,,Raw,Open,73.8,74,180,190,200,200,135,145,152.5,152.5,215,225,232.5,232.5,585,SBD
6,Jonathan Peña Muñoz,M,,Raw,Open,73.9,74,177.5,190,195,195,140,147.5,150,150,200,215,225,225,570,SBD
7,Alfredo Leonardo Carreón Corona,M,,Raw,Open,73,74,180,190,-195,190,120,-125,-125,120,230,240,-242.5,240,550,SBD
8,Omar Alexandro Villarreal Martell,M,,Raw,Open,73.7,74,175,185,190,190,117.5,120,122.5,122.5,205,217.5,220,220,532.5,SBD
9,Robinson Martinez Gutierrez,M,,Raw,Open,69.4,74,172.5,182.5,190,190,100,110,-120,110,200,210,-215,210,510,SBD
10,Francisco Cruz Jauregui,M,,Raw,Open,71.6,74,157.5,167.5,175,175,100,-107.5,-107.5,100,220,232.5,-235,232.5,507.5,SBD
11,Marcos Donaldo Martínez Miranda,M,,Raw,Open,73.2,74,165,-175,-175,165,120,127.5,-130,127.5,170,180,190,190,482.5,SBD
12,Irving Jesús Suárez Segura,M,,Raw,Open,70.9,74,140,150,155,155,105,110,-112.5,110,190,200,210,210,475,SBD
13,Jair De Lucio Mendoza,M,,Raw,Open,73.2,74,160,-170,-170,160,120,-122.5,122.5,122.5,170,180,190,190,472.5,SBD
14,Victor Alejandro Leal Garcia,M,,Raw,Open,72.5,74,140,155,-165,155,90,100,-110,100,170,190,205,205,460,SBD
15,Alejandro Martinez Hernandez,M,,Raw,Open,72.5,74,-160,165,-170,165,80,90,-105,90,180,-200,200,200,455,SBD
16,Carlos García Gutiérrez,M,,Raw,Open,73,74,155,162.5,-170,162.5,87.5,90,-100,90,175,192.5,202.5,202.5,455,SBD
17,José Andrés Ferrer Vera,M,,Raw,Open,73.1,74,125,135,140,140,100,-105,105,105,165,182.5,-202.5,182.5,427.5,SBD
18,Jovani Vázquez García,M,,Raw,Open,74,74,140,150,-152.5,150,80,90,-100,90,170,180,182.5,182.5,422.5,SBD
19,Neri Vázquez García,M,,Raw,Open,72.8,74,-100,-102.5,105,105,60,-65,65,65,120,130,142.5,142.5,312.5,SBD
DQ,Anthony Alexander Ramirez Abrego,M,,Raw,Open,73.6,74,217.5,230,240,240,132.5,142.5,-147.5,142.5,,,,,,SBD
1,Rodrigo Aguilar Velázquez,M,,Raw,Open,82.2,83,235,245,-251,245,140,145,150,150,270,277.5,285,285,680,SBD
2,Diego Fernando Ramírez Cruz,M,,Raw,Open,82,83,210,222.5,230,230,145,152.5,157.5,157.5,260,277.5,285,285,672.5,SBD
3,Sonni António García Íñigo,M,,Raw,Open,81.1,83,230,240,-242.5,240,150,155,160,160,215,230,237.5,237.5,637.5,SBD
4,Elber Montes Puc,M,,Raw,Open,82.1,83,217.5,-230,235,235,125,-132.5,132.5,132.5,250,-265,-265,250,617.5,SBD
5,Jesus Leopoldo Montijo Durán,M,,Raw,Open,82.9,83,210,225,-232.5,225,145,150,-157.5,150,210,225,235,235,610,SBD
6,Manuel Alejandro Jiménez Pérez,M,,Raw,Open,77.6,83,185,195,200,200,135,140,142.5,142.5,235,250,257.5,257.5,600,SBD
7,José Juan Navarro Tenorio,M,,Raw,Open,81.9,83,190,210,215,215,115,130,140,140,210,230,240,240,595,SBD
8,Raul Vazquez Rascon,M,,Raw,Open,80.5,83,-205,205,217.5,217.5,60,80,,80,260,280.5,293,293,590.5,SBD
9,Gerardo García Vélez,M,,Raw,Open,80.7,83,190,-210,215,215,125,140,147.5,147.5,190,210,-220,210,572.5,SBD
10,Jorge Luis Coronado Díaz,M,,Raw,Open,82.3,83,165,172.5,182.5,182.5,122.5,125,,125,240,255,260,260,567.5,SBD
11,Jorge Enrique Rodríguez Rascon,M,,Raw,Open,82.8,83,190,200,-205,200,130,-140,-140,130,220,230,,230,560,SBD
12,Luis Ocampo Romero,M,,Raw,Open,82.6,83,172.5,182.5,187.5,187.5,127.5,132.5,137.5,137.5,210,222.5,232.5,232.5,557.5,SBD
13,David Alexander Jimenez Euan,M,,Raw,Open,81.6,83,180,190,-200,190,120,-125,-125,120,227.5,237.5,245,245,555,SBD
14,Mario Adolfo Obeso Mireles,M,,Raw,Open,81.1,83,-180,190,-202.5,190,115,125,-130,125,220,235,-250,235,550,SBD
15,Eduardo Figueroa Cárdenas,M,,Raw,Open,79.4,83,182.5,192.5,202.5,202.5,100,105,110,110,205,220,-235,220,532.5,SBD
16,Luis Eduardo Piña Hermosillo,M,,Raw,Open,79.6,83,170,180,185,185,90,100,-107.5,100,217.5,230,242.5,242.5,527.5,SBD
17,Omar Orlando Ortega Moreno,M,,Raw,Open,82.3,83,167.5,177.5,185,185,127.5,-135,135,135,192.5,202.5,-207.5,202.5,522.5,SBD
18,German Gustavo Huizar González,M,,Raw,Open,78.5,83,165,177.5,190,190,100,-110,110,110,205,215,220,220,520,SBD
19,Luis Manuel Martínez Dámaso,M,,Raw,Open,82.2,83,170,180,185,185,120,-125,125,125,190,200,-210,200,510,SBD
20,Luis Carlos Castro Ortega,M,,Raw,Open,77.9,83,-175,175,177.5,177.5,-115,120,125,125,180,192.5,205,205,507.5,SBD
21,Pedro Vidal Sanguino,M,,Raw,Open,80,83,167.5,175,-180,175,-97.5,105,-112.5,105,190,210,225,225,505,SBD
22,José Fernando Blanco Aragón,M,,Raw,Open,80.1,83,130,140,150,150,130,-135,135,135,200,210,220,220,505,SBD
23,Eduardo Alejandro Caballero Reynoso,M,,Raw,Open,81,83,170,177.5,180,180,117.5,-122.5,-122.5,117.5,187.5,200,-210,200,497.5,SBD
24,Luis Omar García Hernández,M,,Raw,Open,81.2,83,180,-190,-190,180,100,107.5,112.5,112.5,180,190,195,195,487.5,SBD
25,Rogelio Ortega Pantoja,M,,Raw,Open,81.4,83,170,180,192.5,192.5,90,-95,-95,90,180,195,200,200,482.5,SBD
26,Eduardo Garza Vazquez,M,,Raw,Open,82.6,83,205,-215,-215,205,150,157.5,162.5,162.5,75,,,75,442.5,SBD
NS,Bastian Cortés Aguirre,M,,Raw,Open,,83,,,,,,,,,,,,,,SBD
NS,Benito Israel Cruz Cárdenas,M,,Raw,Open,,83,,,,,,,,,,,,,,SBD
1,Gabriel García Corona,M,,Raw,Open,92,93,275,285,295,295,165,170,-172.5,170,277.5,290,-308,290,755,SBD
2,Eduardo Rodríguez Muñoz,M,,Raw,Open,92.6,93,232.5,247.5,257.5,257.5,140,147.5,-152.5,147.5,255,270,275,275,680,SBD
3,Ivan Alexis Serrano Solorio,M,,Raw,Open,92,93,240,255,-260,255,160,167.5,170,170,240,252.5,-255,252.5,677.5,SBD
4,Daniel Noris Hoyos,M,,Raw,Open,92.2,93,205,215,225,225,145,155,165,165,250,262.5,280,280,670,SBD
5,Jaime David Figueroa Moreno,M,,Raw,Open,91.4,93,230,240,250,250,150,155,160,160,230,245,255,255,665,SBD
6,Omar Adolfo Carrillo Castro,M,,Raw,Open,90.8,93,205,220,225,225,130,140,145,145,235,252.5,260,260,630,SBD
7,William Trujillo Moreno,M,,Raw,Open,91.8,93,220,230,235,235,145,150,152.5,152.5,230,242.5,-255,242.5,630,SBD
8,René Alberto Muñoz Olvera,M,,Raw,Open,91.6,93,192.5,207.5,217.5,217.5,147.5,155,-162.5,155,225,240,250,250,622.5,SBD
9,Gibran Jalil Garcia Ohran,M,,Raw,Open,84,93,220,230,-240,230,135,-145,-145,135,235,245,-250,245,610,SBD
10,Raul David Meza Berrellezsa,M,,Raw,Open,90.7,93,190,202.5,210,210,150,155,-160,155,220,230,245,245,610,SBD
11,Loth García Clemente,M,,Raw,Open,90.3,93,-210,210,217.5,217.5,125,132.5,-135,132.5,220,235,250,250,600,SBD
12,Carlos Alberto Gutierrez Castillo,M,,Raw,Open,90.3,93,200,215,227.5,227.5,120,130,140,140,210,-225,225,225,592.5,SBD
13,Christian Ramirez Diaz,M,,Raw,Open,89.2,93,185,195,200,200,130,137.5,140,140,230,245,250,250,590,SBD
14,Jorge Enrique Villarreal Ramos,M,,Raw,Open,91.8,93,210,220,227.5,227.5,120,125,127.5,127.5,212.5,225,-237.5,225,580,SBD
15,Migue Angel Rafael Bautista,M,,Raw,Open,85.7,93,210,-222.5,-225,210,145,152.5,-155,152.5,180,195,-210,195,557.5,SBD
16,José Antonio Domínguez Cornejo,M,,Raw,Open,93,93,190,200,210,210,125,-130,130,130,205,215,-227.5,215,555,SBD
17,Carlo Mauricio Matamoros Cabrera,M,,Raw,Open,84.5,93,180,190,200,200,125,-132.5,-132.5,125,200,210,-215,210,535,SBD
18,Celestino Hernandez Alvarado,M,,Raw,Open,86.1,93,180,190,200,200,100,120,-127.5,120,-200,200,210,210,530,SBD
19,Brandom Eden Portillo Ayón,M,,Raw,Open,90.8,93,-162.5,162.5,-177.5,162.5,110,115,-117.5,115,195,205,220,220,497.5,SBD
20,Oscar David López Silva,M,,Raw,Open,91.7,93,175,-185,185,185,120,-122.5,-122.5,120,175,185,-195,185,490,SBD
21,Cristóbal González Amezcua,M,,Raw,Open,85.7,93,165,175,-185,175,105,110,-112.5,110,200,-210,-210,200,485,SBD
22,Gerardo Perrusquia Aguilar,M,,Raw,Open,90.8,93,150,-160,160,160,110,120,-130,120,180,190,205,205,485,SBD
23,Martin Daniel Banda Talavera,M,,Raw,Open,87.5,93,142.5,162.5,182.5,182.5,115,-125,130,130,142.5,162.5,-172.5,162.5,475,SBD
DQ,Alam Uriel Fuentes Cordoba,M,,Raw,Open,89.1,93,-180,-180,180,180,-130,-130,-130,,200,220,-240,220,,SBD
DQ,Jose Luis Mendoza Zuany,M,,Raw,Open,91.2,93,240,250,-257.5,250,-170,-170,-170,,-250,252.5,255,255,,SBD
DQ,Bernardo Cazárez Durán,M,,Raw,Open,92.1,93,205,217.5,220,220,-155,-155,-155,,270,287.5,300,300,,SBD
1,Milton Aleman Barreto,M,,Raw,Open,103.5,105,-270,270,285,285,180,187.5,-190,187.5,295,307.5,312.5,312.5,785,SBD
2,Maximiliano Barcenas Corona,M,,Raw,Open,103,105,265,275,282.5,282.5,155,160,162.5,162.5,295,305,-307.5,305,750,SBD
3,Roberto Peltier Castillo,M,,Raw,Open,104.1,105,257.5,275,282.5,282.5,157.5,165,-167.5,165,270,290,-307.5,290,737.5,SBD
4,Mauricio Rodríguez Velazquez,M,,Raw,Open,103.8,105,220,240,245,245,155,170,-175,170,275,306,-313,306,721,SBD
5,Adonai Argenis De Gante González,M,,Raw,Open,103,105,-260,-260,260,260,-185,185,192.5,192.5,250,260,-270,260,712.5,SBD
6,Victor Cuauhtémoc Corona Aranzubia,M,,Raw,Open,103.2,105,-230,230,245,245,175,180,-187.5,180,270,280,-285,280,705,SBD
7,Daniel González Colín,M,,Raw,Open,99.1,105,252.5,262.5,-270,262.5,175,182.5,187.5,187.5,220,237.5,250,250,700,SBD
8,José Alfredo Mata Valdés,M,,Raw,Open,94.8,105,210,222.5,235,235,-140,145,150,150,250,265,275,275,660,SBD
9,Erik Pérez Fernández,M,,Raw,Open,102.3,105,240,247.5,-255,247.5,145,150,-152.5,150,240,247.5,260,260,657.5,SBD
10,Maximilian Alexander Isa Del Rio,M,,Raw,Open,104.1,105,235,245,-250,245,145,-147.5,-147.5,145,-265,-265,265,265,655,SBD
11,Heimdall Ceja Pliego,M,,Raw,Open,101.4,105,235,250,-270,250,125,130,135,135,240,255,-270,255,640,SBD
12,Miguel Campo Palomo,M,,Raw,Open,100.6,105,210,225,-232.5,225,130,135,140,140,225,245,260,260,625,SBD
13,Luis Carlos Linares Iracheta,M,,Raw,Open,97.8,105,200,210,222.5,222.5,145,150,-160,150,220,250,-255,250,622.5,SBD
14,Edwin Baltazar Contreras Vera,M,,Raw,Open,101.4,105,225,237.5,-250,237.5,120,130,-137.5,130,220,235,250,250,617.5,SBD
15,Dylan Casillas Gaume,M,,Raw,Open,104.1,105,205,215,225,225,120,135,142.5,142.5,220,230,240,240,607.5,SBD
16,Jesus Antonio Adaya Hernández,M,,Raw,Open,93.1,105,165,175,-180,175,115,120,125,125,210,220,230,230,530,SBD
17,Pedro Ismael Avila López,M,,Raw,Open,103,105,252.5,-260,-260,252.5,155,162.5,-165,162.5,75,,,75,490,SBD
DQ,Jesús Andrés Ramírez Ortiz,M,,Raw,Open,95.5,105,220,230,235,235,155,165,-170,165,-270,-275,-275,,,SBD
DQ,Ivan Gomez Blass,M,,Raw,Open,103.3,105,235,250,260,260,-127.5,127.5,-132.5,127.5,-240,-260,-260,,,SBD
DQ,Agustin Luna Muñoz Ledo,M,,Raw,Open,103.8,105,-250,250,-260,250,-155,-155,-155,,-260,,,,,SBD
DQ,Roger Devanny Loza Zamudio,M,,Raw,Open,104.5,105,210,-220,,210,-190,-190,-190,,-300,,,,,SBD
1,José Luis Rodríguez Vargas,M,,Raw,Open,119,120,290,310,,310,175,190,200,200,245,265,277.5,277.5,787.5,SBD
2,Luis González González,M,,Raw,Open,112,120,270,280,290,290,170,185,-195,185,270,-290,-300,270,745,SBD
3,Aniano Núñez Estrada,M,,Raw,Open,113.1,120,220,235,245,245,135,145,150,150,275,295,-305.5,295,690,SBD
4,Cesar Mayoral Contreras,M,,Raw,Open,111.7,120,245,255,,255,175,-182.5,-182.5,175,242.5,252.5,-255,252.5,682.5,SBD
5,Eduardo Castillo Bernal,M,,Raw,Open,113.5,120,215,230,245,245,-170,170,-182.5,170,232.5,250,265,265,680,SBD
6,Sergio Adrián Bernal Báez,M,,Raw,Open,118.4,120,210,230,237.5,237.5,140,160,-162.5,160,225,250,-260,250,647.5,SBD
7,Roberto Martinez Davalos,M,,Raw,Open,118.7,120,210,222.5,232.5,232.5,145,155,162.5,162.5,225,240,252.5,252.5,647.5,SBD
8,Rafael Valadez González,M,,Raw,Open,110.8,120,215,230,240,240,150,-160,-160,150,215,235,250,250,640,SBD
9,Marcelino Noe Euan Medina,M,,Raw,Open,107.7,120,225,230,-240,230,155,160,165,165,-235,235,240,240,635,SBD
10,Francisco Ruiz Rocha,M,,Raw,Open,108.3,120,182.5,-192.5,-192.5,182.5,135,-140,,135,205,220,230,230,547.5,SBD
1,Juan Rodrigo Ramos Ayala,M,,Raw,Open,136.4,120+,285,300,307.5,307.5,175,185,-190,185,300,315,325,325,817.5,SBD
2,Javier Alberto Salazar Pasten,M,,Raw,Open,260,120+,290,-311,-314,290,-165,165,-187.5,165,240,-245,-245,240,695,SBD
3,Alejandro Cedillo Islas,M,,Raw,Open,125.1,120+,180,200,-210,200,180,190,-200,190,220,230,245,245,635,SBD
4,Carlos Eduardo Hernandez Aviles,M,,Raw,Open,122.5,120+,-90,-90,90,90,60,75,-85,75,90,110,125,125,290,SBD
G,Alejandro Cedillo Islas,M,,Raw,Open,125.1,120+,180,,,180,180,,,180,220,,,220,580,SBD
1,Israel Torres Villanueva,M,,Raw,Masters 1,64.1,66,185,190,192.5,192.5,125,130,-135,130,220,227.5,230,230,552.5,SBD
2,Wilhem Leibnitz Guido Vilalta,M,,Raw,Masters 1,62.3,66,145,155,162.5,162.5,100,107.5,110,110,180,190,195,195,467.5,SBD
1,Andrés Fernández Gamboa,M,,Raw,Masters 1,72.8,74,190,200,210,210,115,125,127.5,127.5,200,215,222.5,222.5,560,SBD
2,Jorge Garzafox Margain,M,,Raw,Masters 1,73.3,74,175,185,-190,185,90,95,-100,95,200,215,-225,215,495,SBD
3,Roberto Eugenio Rocha González,M,,Raw,Masters 1,72.3,74,160,170,175,175,92.5,95,-100,95,185,195,205,205,475,SBD
4,Jonathan Antelmo Granados Martinez,M,,Raw,Masters 1,68.4,74,85,-95,-95,85,50,52.5,55,55,90,95,100,100,240,SBD
1,Alejandro Moran Nieto,M,,Raw,Masters 1,81.9,83,177.5,187.5,195,195,115,122.5,127.5,127.5,185,200,215,215,537.5,SBD
2,Sayn Hernandez Vargas,M,,Raw,Masters 1,81,83,50,-60,60,60,-70,80,-90,80,100,110,120,120,260,SBD
DQ,Armando Sanchez Nava,M,,Raw,Masters 1,81.3,83,-80,-80,-80,,80,,,80,80,,,80,,SBD
1,Luis Enrique Guzman Solis,M,,Raw,Masters 1,89.5,93,155,170,-180,170,85,95,-110,95,170,195,-205,195,460,SBD
2,Daniel Velázquez Rocha,M,,Raw,Masters 1,86.5,93,127.5,140,145,145,82.5,90,97.5,97.5,150,160,165,165,407.5,SBD
1,Omar Valentín Ramos Campos,M,,Raw,Masters 1,101.9,105,160,175,182.5,182.5,120,-130,-130,120,205,225,240,240,542.5,SBD
2,Xavier Irazu Velazquez Hernandez,M,,Raw,Masters 1,101.5,105,-175,-175,175,175,135,140,142.5,142.5,-222.5,222.5,-227.5,222.5,540,SBD
3,Juventino Aguilar Mendoza,M,,Raw,Masters 1,103.2,105,135,140,145,145,80,85,90,90,145,170,175,175,410,SBD
1,Jonathan Macías Flores,M,,Raw,Masters 1,112.7,120,245,255,-260,255,152.5,160,165,165,245,252.5,257.5,257.5,677.5,SBD
2,Bernabe Cubas Vargas,M,,Raw,Masters 1,115,120,260,267.5,-270,267.5,150,155,-162.5,155,235,-240,,235,657.5,SBD
1,Jorge Mauricio Free Manjarrez,M,,Raw,Masters 1,151.9,120+,225,-235,235,235,165,-170,-170,165,305,315,-330.5,315,715,SBD
1,Jorge Sánchez Pacheco,M,,Raw,Masters 2,69.9,74,80,90,100,100,85,90,95,95,100,125,145,145,340,SBD
1,Mario Ernesto Hernandez Perez,M,,Raw,Masters 2,81.5,83,160,172.5,177.5,177.5,110,121,-125,121,195,206,215,215,513.5,SBD
1,Angel Arturo Hernandez Villegas,M,,Raw,Masters 2,93,93,180,200,205,205,120,130,-132.5,130,200,220,225,225,560,SBD
NS,Enrique Alberto Zárate Rodríguez,M,,Raw,Masters 2,,93,,,,,,,,,,,,,,SBD
1,Anibal Nava Martínez,M,,Raw,Masters 2,100.7,105,170,180,185,185,100,110,120,120,180,190,-210,190,495,SBD
1,Luis Antonio Ramírez Ochoa,M,,Raw,Masters 2,109.2,120,220,230,240,240,100,-157.5,157.5,157.5,215,220,240,240,637.5,SBD
2,Francisco Javier Castro Verdugo,M,,Raw,Masters 2,118.6,120,105,112.5,132.5,132.5,95,102.5,107.5,107.5,137.5,165,175,175,415,SBD
1,Jose Ariel Delgado Gastelum,M,,Raw,Masters 3,84.5,93,160,172.5,180,180,100,110,-112.5,110,170,180,-201,180,470,SBD
