Place,Name,State,WeightClassKg,BodyweightKg,BirthDate,Age,Squat1Kg,Squat2Kg,Squat3Kg,Best3SquatKg,Bench1Kg,Bench2Kg,Bench3Kg,Best3BenchKg,Deadlift1Kg,Deadlift2Kg,Deadlift3Kg,Best3DeadliftKg,TotalKg,Squat4Kg,Bench4Kg,Deadlift4Kg,Event,Equipment,Sex,Division
1,Madeline Aigner,CA,48,47.9,,15,55,62.5,-72.5,62.5,40,-45,-45,40,80,87.5,95,95,197.5,,,,SBD,Raw,F,Juniors 13-15
1,Briana Negron,FL,52,51.4,,23,115,122.5,125,125,77.5,-82.5,82.5,82.5,150,165,-175.5,165,372.5,,,,SBD,Raw,F,Juniors 20-23
2,Emily Ung,FL,52,51.4,,23,-107.5,107.5,-115,107.5,52.5,57.5,-60,57.5,120,130,137.5,137.5,302.5,,,,SBD,Raw,F,Juniors 20-23
1,Esmeralda Contreras,CA,56,55.5,,20,-110,110,-115,110,60,-62.5,62.5,62.5,147.5,152.5,-157.5,152.5,325,,,,SBD,Raw,F,Juniors 20-23
1,Ashlyn Cooper,WA,60,58.3,,18,107.5,115,-117.5,115,52.5,60,-65,60,110,117.5,120,120,295,,,,SBD,Raw,F,Juniors 18-19
1,Madison Rounds,MD,60,58.5,,21,87.5,97.5,107.5,107.5,57.5,-62.5,-62.5,57.5,127.5,137.5,142.5,142.5,307.5,,,,SBD,Raw,F,Juniors 20-23
1,Danielle Garrod,WA,67.5,64.5,,23,-145,150,155,155,77.5,82.5,-85,82.5,157.5,167.5,-175,167.5,405,,,,SBD,Raw,F,Juniors 20-23
2,Taleigh Pullen,MD,67.5,66.7,,22,147.5,155,160,160,70,-80,-80,70,165,175,-182.5,175,405,,,,SBD,Raw,F,Juniors 20-23
3,Leyla De Paz,CA,67.5,66.3,,23,120,127.5,130,130,55,-57.5,57.5,57.5,137.5,145,-150,145,332.5,,,,SBD,Raw,F,Juniors 20-23
4,Amity Lozada,CA,67.5,66.9,,20,100,-110,-110,100,60,-65,-65,60,125,-137.5,137.5,137.5,297.5,,,,SBD,Raw,F,Juniors 20-23
1,Madison Schulz,AZ,75,71.5,,20,112.5,120,127.5,127.5,67.5,72.5,-77.5,72.5,132.5,142.5,147.5,147.5,347.5,,,,SBD,Raw,F,Juniors 20-23
2,Melissa Favorite,CA,75,74.6,,22,87.5,97.5,102.5,102.5,62.5,67.5,-70,67.5,150,160,172.5,172.5,342.5,,,,SBD,Raw,F,Juniors 20-23
1,Leslie Albert,IL,110+,113.3,,15,165,175,-182.5,175,75,82.5,-85,82.5,142.5,152.5,-162.5,152.5,410,,,,SBD,Raw,F,Juniors 13-15
1,Kylie White,MO,110+,111.9,,23,135,145,-160,145,62.5,67.5,-75,67.5,-175,175,-185,175,387.5,,,,SBD,Raw,F,Juniors 20-23
1,Amy Garrido,CA,48,47.8,,26,105,-112.5,112.5,112.5,72.5,75,80,80,115,120,125,125,317.5,,,,SBD,Raw,F,Open
2,Madeline Aigner,CA,48,47.9,,15,55,62.5,-72.5,62.5,40,-45,-45,40,80,87.5,95,95,197.5,,,,SBD,Raw,F,Open
1,Briana Negron,FL,52,51.4,,23,115,122.5,125,125,77.5,-82.5,82.5,82.5,150,165,-175.5,165,372.5,,,,SBD,Raw,F,Open
2,Ashley Wisner,MD,52,52,,24,95,-100,-100,95,67.5,72.5,-77.5,72.5,175,177.5,-182.5,177.5,345,,,,SBD,Raw,F,Open
3,Emily Ung,FL,52,51.4,,23,-107.5,107.5,-115,107.5,52.5,57.5,-60,57.5,120,130,137.5,137.5,302.5,,,,SBD,Raw,F,Open
4,Margie Haddon,TX,52,50.8,,60,-85,85,90,90,45,47.5,-50,47.5,110,113.5,116,116,253.5,93,,117.0,SBD,Raw,F,Open
1,Jenn Rotsinger,FL,56,53.9,,44,147.5,-160,160,160,85,90,92.5,92.5,182.5,192.5,200.5,200.5,453,,,,SBD,Raw,F,Open
2,Leona Hildreth,CO,56,54.4,,48,137.5,-145,-145,137.5,65,-70,70,70,135,145,-155,145,352.5,,,,SBD,Raw,F,Open
3,Jennifer Nguyen,CA,56,55.5,,24,120,127.5,135,135,57.5,62.5,65,65,127.5,137.5,145,145,345,,,,SBD,Raw,F,Open
4,Kayla Riggs,MD,56,54.6,,31,110,115,117.5,117.5,70,72.5,75,75,130,137.5,-142.5,137.5,330,,,,SBD,Raw,F,Open
5,Rhonda Freeman,KS,56,56,,42,102.5,-107.5,107.5,107.5,70,75,77.5,77.5,117.5,127.5,137.5,137.5,322.5,,,,SBD,Raw,F,Open
DQ,Alyssa Paris,CA,56,54.9,,25,-102.5,107.5,-110,107.5,-47.5,-52.5,-52.5,,,,,,,,,,SBD,Raw,F,Open
1,Paige Kimball,LA,60,59.9,,32,125,127.5,,127.5,80,85,90,90,172.5,177.5,182.5,182.5,400,,,,SBD,Raw,F,Open
2,Laurie Maranian,MA,60,59.5,,36,130,135,140,140,70,72.5,-75,72.5,157.5,165,-170,165,377.5,,,,SBD,Raw,F,Open
1,Susan Graham,WA,67.5,66.3,,42,142.5,152.5,162.5,162.5,95,102.5,110,110,175,190,205,205,477.5,,,,SBD,Raw,F,Open
2,Michelle Mazulis,NM,67.5,65.9,,53,145,157.5,-160,157.5,90,96,-97.5,96,150,160,170,170,423.5,,,,SBD,Raw,F,Open
3,Kristen Smith #1,UT,67.5,63.8,,45,120,-130,,120,87.5,92.5,-95,92.5,175,182.5,192.5,192.5,405,,,,SBD,Raw,F,Open
4,Danielle Garrod,WA,67.5,64.5,,23,-145,150,155,155,77.5,82.5,-85,82.5,157.5,167.5,-175,167.5,405,,,,SBD,Raw,F,Open
5,Hannah Johnson #1,LA,67.5,65,,29,140,145,-152.5,145,75,80,-82.5,80,165,172.5,180,180,405,,,,SBD,Raw,F,Open
6,Marshelle Johnston,CO,67.5,66.2,,28,130,140,145,145,77.5,82.5,85,85,160,167.5,-175,167.5,397.5,,,,SBD,Raw,F,Open
7,Kailee McCoy,AZ,67.5,67.3,,26,125,132.5,-140,132.5,62.5,67.5,-70,67.5,170,180,-182.5,180,380,,,,SBD,Raw,F,Open
8,Arenia Zarate,CA,67.5,66.4,,27,112.5,120,127.5,127.5,60,67.5,72.5,72.5,135,147.5,-152.5,147.5,347.5,,,,SBD,Raw,F,Open
9,Ingrid Mazziotta,MD,67.5,63,,27,112.5,125,137.5,137.5,65,70,75,75,110,125,-137.5,125,337.5,,,,SBD,Raw,F,Open
10,Mackenzie Rideout,GA,67.5,66.5,,30,115,122.5,127.5,127.5,60,65,-67.5,65,145,-152.5,-152.5,145,337.5,,,,SBD,Raw,F,Open
11,Leyla De Paz,CA,67.5,66.3,,23,120,127.5,130,130,55,-57.5,57.5,57.5,137.5,145,-150,145,332.5,,,,SBD,Raw,F,Open
12,Shaela Westover,OR,67.5,67,,30,105,110,115,115,52.5,55,57.5,57.5,142.5,152.5,157.5,157.5,330,,,,SBD,Raw,F,Open
13,Jamila Meccariello,GA,67.5,65.5,,32,107.5,115,122.5,122.5,50,55,-60,55,137.5,150,-162.5,150,327.5,,,,SBD,Raw,F,Open
14,Kelsey Mcarthur,TN,67.5,66.2,,31,92.5,105,-110,105,60,65,-70,65,115,130,-142.5,130,300,,,,SBD,Raw,F,Open
DQ,Tori Riegler,CA,67.5,65.1,,29,-127.5,-127.5,-127.5,,55,57.5,-60,57.5,132.5,140,-147.5,140,,,,,SBD,Raw,F,Open
1,Kristine Kobza,AZ,75,73.1,,55,147.5,157.5,165,165,95,102.5,-105,102.5,185,197.5,-205,197.5,465,,,,SBD,Raw,F,Open
2,Clare Michalak,CT,75,73.5,,28,155,-165,165,165,80,-85,85,85,182.5,195,205,205,455,,,,SBD,Raw,F,Open
3,Gina Caiafa,CT,75,73.9,,25,162.5,-172.5,172.5,172.5,80,85,-90,85,162.5,172.5,182.5,182.5,440,,,,SBD,Raw,F,Open
4,Ashley Butler #2,KS,75,74.8,,31,160,170,-175,170,82.5,87.5,-90,87.5,172.5,180,-192.5,180,437.5,,,,SBD,Raw,F,Open
5,Moriah Hunstiger,AK,75,71.8,,30,130,-137.5,-137.5,130,72.5,77.5,-80,77.5,190,202.5,207.5,207.5,415,,,,SBD,Raw,F,Open
6,Barbara Taylor,CA,75,70.9,,64,-120,120,-125,120,105,-110,-111,105,165,175,185,185,410,,,,SBD,Raw,F,Open
7,April Huynh,TX,75,74.5,,31,132.5,140,145,145,75,80,85,85,160,170,180,180,410,,,,SBD,Raw,F,Open
8,Monica Cahalan,WA,75,71.2,,40,147.5,-157.5,-157.5,147.5,82.5,-90,-90,82.5,165,175,-182.5,175,405,,,,SBD,Raw,F,Open
9,Mollie Filipe,OR,75,74.3,,37,125,-132.5,132.5,132.5,72.5,-77.5,-77.5,72.5,155,165,-172.5,165,370,,,,SBD,Raw,F,Open
10,Christina Villanueva,TX,75,73.8,,27,127.5,-137.5,-145,127.5,67.5,-70,-70,67.5,155,165,-170,165,360,,,,SBD,Raw,F,Open
11,Shawna Alexander,MT,75,74.6,,33,117.5,120,-130,120,77.5,80,82.5,82.5,132.5,145,155,155,357.5,,,,SBD,Raw,F,Open
12,Lindsey Pierce,CA,75,72.6,,33,112.5,120,125,125,60,65,-70,65,140,147.5,155,155,345,,,,SBD,Raw,F,Open
1,Rebecca Gigliotti,CA,82.5,81.4,,28,150,162.5,172.5,172.5,90,97.5,-102.5,97.5,180,192.5,200,200,470,,,,SBD,Raw,F,Open
2,Suzette Aranda,CA,82.5,80.5,,47,130,142.5,147.5,147.5,82.5,85,-87.5,85,160,-175,177.5,177.5,410,,,,SBD,Raw,F,Open
3,Tina Collins #1,TX,82.5,80.5,,53,122.5,140,-152.5,140,75,85,-90,85,152.5,170,182.5,182.5,407.5,,,,SBD,Raw,F,Open
4,Kayla Robinson,NY,82.5,81.4,,32,137.5,-145,150,150,72.5,77.5,82.5,82.5,152.5,165,170,170,402.5,,,,SBD,Raw,F,Open
5,Lauren Plooster,WA,82.5,81.6,,38,130,137.5,-145,137.5,70,72.5,-75,72.5,160,170,175,175,385,,,,SBD,Raw,F,Open
6,Savannah O'Meara,CA,82.5,77.7,,26,120,130,-137.5,130,72.5,80,82.5,82.5,-162.5,162.5,170,170,382.5,,,,SBD,Raw,F,Open
7,Hayley Nuval,WA,82.5,80.5,,28,140,-150,-155,140,65,-70,-70,65,170,177.5,-182.5,177.5,382.5,,,,SBD,Raw,F,Open
1,Alisa Snyder,NY,90,83.5,,47,142.5,152.5,-160,152.5,102.5,110,115,115,177.5,190,200,200,467.5,,,207.5,SBD,Raw,F,Open
2,Sonja Noriega,CA,90,87.4,,39,132.5,152.5,162.5,162.5,82.5,90,-92.5,90,175,187.5,-195,187.5,440,,,,SBD,Raw,F,Open
3,Ana Benitez,CA,90,88.5,,48,-147.5,-152.5,152.5,152.5,75,80,85,85,150,160,170,170,407.5,,,,SBD,Raw,F,Open
4,Jacquelyne Stieber,CA,90,82.6,,29,107.5,115,122.5,122.5,-70,75,77.5,77.5,150,157.5,-165,157.5,357.5,,,,SBD,Raw,F,Open
1,Brie Levy,TN,100,95.5,,25,195,210,220,220,117.5,125.5,-130,125.5,190,207.5,-220,207.5,553,,,,SBD,Raw,F,Open
2,Lauren Calloway,GA,100,93.2,,35,142.5,155,165,165,82.5,90,-100,90,165,180,185,185,440,,,,SBD,Raw,F,Open
1,Kristine McMahon,WA,110,100.5,,36,155,165,175,175,87.5,92.5,97.5,97.5,192.5,202.5,212.5,212.5,485,,,,SBD,Raw,F,Open
DQ,Hailey Tucker,CT,110,102.6,,24,-205,-205,-205,,,,,,,,,,,,,,SBD,Raw,F,Open
1,Leslie Albert,IL,110+,113.3,,15,165,175,-182.5,175,75,82.5,-85,82.5,142.5,152.5,-162.5,152.5,410,,,,SBD,Raw,F,Open
1,Laurie Maranian,MA,60,59.5,,36,130,135,140,140,70,72.5,-75,72.5,157.5,165,-170,165,377.5,,,,SBD,Raw,F,Submasters 35-39
2,Alaina McGrath,CA,60,59.5,,36,97.5,102.5,107.5,107.5,57.5,-60,-60,57.5,125,130,135,135,300,,,,SBD,Raw,F,Submasters 35-39
3,Rita Sanchez,CA,60,59.8,,37,85,92.5,-95,92.5,52.5,-57.5,-57.5,52.5,120,132.5,-137.5,132.5,277.5,,,,SBD,Raw,F,Submasters 35-39
1,Mollie Filipe,OR,75,74.3,,37,125,-132.5,132.5,132.5,72.5,-77.5,-77.5,72.5,155,165,-172.5,165,370,,,,SBD,Raw,F,Submasters 35-39
1,Lauren Plooster,WA,82.5,81.6,,38,130,137.5,-145,137.5,70,72.5,-75,72.5,160,170,175,175,385,,,,SBD,Raw,F,Submasters 35-39
1,Sonja Noriega,CA,90,87.4,,39,132.5,152.5,162.5,162.5,82.5,90,-92.5,90,175,187.5,-195,187.5,440,,,,SBD,Raw,F,Submasters 35-39
1,Kristine McMahon,WA,110,100.5,,36,155,165,175,175,87.5,92.5,97.5,97.5,192.5,202.5,212.5,212.5,485,,,,SBD,Raw,F,Submasters 35-39
DQ,Melissa Watkins #1,MO,110,100.3,,37,150,-165,-165,150,85,-92.5,-92.5,85,,,,,,,,,SBD,Raw,F,Submasters 35-39
1,Sarah Wade,CA,110+,137,,35,-167.5,167.5,172.5,172.5,85,90,95,95,190,202.5,-210,202.5,470,,,,SBD,Raw,F,Submasters 35-39
1,Leslie Cook,AZ,52,51.4,,52,85,87.5,90,90,57.5,-60,-60,57.5,125,137.5,-140,137.5,285,,,,SBD,Raw,F,Masters 50-54
1,Margie Haddon,TX,52,50.8,,60,-85,85,90,90,45,47.5,-50,47.5,110,113.5,116,116,253.5,93,,117.0,SBD,Raw,F,Masters 60-64
1,Jenn Rotsinger,FL,56,53.9,,44,147.5,-160,160,160,85,90,92.5,92.5,182.5,192.5,200.5,200.5,453,,,,SBD,Raw,F,Masters 40-44
2,Rhonda Freeman,KS,56,56,,42,102.5,-107.5,107.5,107.5,70,75,77.5,77.5,117.5,127.5,137.5,137.5,322.5,,,,SBD,Raw,F,Masters 40-44
1,Leona Hildreth,CO,56,54.4,,48,137.5,-145,-145,137.5,65,-70,70,70,135,145,-155,145,352.5,,,,SBD,Raw,F,Masters 45-49
DQ,Bridgette Peterson,GA,56,52.9,,58,-82.5,-82.5,-82.5,,,,,,,,,,,,,,SBD,Raw,F,Masters 55-59
1,Charlene Mizner,AZ,56,53.5,,67,55,-60,-60,55,30,35,-37.5,35,97.5,105,-112.5,105,195,,,,SBD,Raw,F,Masters 65-69
1,Susan Graham,WA,67.5,66.3,,42,142.5,152.5,162.5,162.5,95,102.5,110,110,175,190,205,205,477.5,,,,SBD,Raw,F,Masters 40-44
1,Kristen Smith #1,UT,67.5,63.8,,45,120,-130,,120,87.5,92.5,-95,92.5,175,182.5,192.5,192.5,405,,,,SBD,Raw,F,Masters 45-49
2,Aaron Lorenzen,CO,67.5,66.8,,46,-92.5,92.5,100,100,-57.5,57.5,60,60,120,130,137.5,137.5,297.5,,,,SBD,Raw,F,Masters 45-49
1,Michelle Mazulis,NM,67.5,65.9,,53,145,157.5,-160,157.5,90,96,-97.5,96,150,160,170,170,423.5,,,,SBD,Raw,F,Masters 50-54
1,KC Inlow,FL,67.5,64.9,,65,85,87.5,92.5,92.5,65,70,75,75,122.5,132.5,140,140,307.5,,,,SBD,Raw,F,Masters 65-69
1,Monica Cahalan,WA,75,71.2,,40,147.5,-157.5,-157.5,147.5,82.5,-90,-90,82.5,165,175,-182.5,175,405,,,,SBD,Raw,F,Masters 40-44
2,Jessica Skarin,LA,75,73.5,,40,130,135,-140,135,82.5,-87.5,-87.5,82.5,132.5,140,147.5,147.5,365,,,,SBD,Raw,F,Masters 40-44
1,Diane Anderson,CA,75,72.4,,45,97.5,102.5,-107.5,102.5,50,-55,-55,50,125,-140,-140,125,277.5,,,,SBD,Raw,F,Masters 45-49
1,Kelly Walters,NV,75,74.5,,51,120,122.5,137.5,137.5,55,60,-65,60,147.5,162.5,170,170,367.5,,,,SBD,Raw,F,Masters 50-54
DQ,Stacey Rohrer,CA,75,73.9,,50,100,110,-117.5,110,-75,75,-80,75,-155,,,,,,,,SBD,Raw,F,Masters 50-54
1,Kristine Kobza,AZ,75,73.1,,55,147.5,157.5,165,165,95,102.5,-105,102.5,185,197.5,-205,197.5,465,,,,SBD,Raw,F,Masters 55-59
1,Barbara Taylor,CA,75,70.9,,64,-120,120,-125,120,105,-110,-111,105,165,175,185,185,410,,,,SBD,Raw,F,Masters 60-64
1,Cindy Slone-Martin,OR,82.5,81.5,,42,185,-200.5,,185,122.5,125.5,-127.5,125.5,-185,185,-200,185,495.5,,,,SBD,Raw,F,Masters 40-44
1,Suzette Aranda,CA,82.5,80.5,,47,130,142.5,147.5,147.5,82.5,85,-87.5,85,160,-175,177.5,177.5,410,,,,SBD,Raw,F,Masters 45-49
2,Michelle Lawing,CA,82.5,80.8,,47,127.5,142.5,-145,142.5,72.5,80,-82.5,80,175,182.5,-185,182.5,405,,,,SBD,Raw,F,Masters 45-49
1,Tina Collins #1,TX,82.5,80.5,,53,122.5,140,-152.5,140,75,85,-90,85,152.5,170,182.5,182.5,407.5,,,,SBD,Raw,F,Masters 50-54
1,Alisa Snyder,NY,90,83.5,,47,142.5,152.5,-160,152.5,102.5,110,115,115,177.5,190,200,200,467.5,,,207.5,SBD,Raw,F,Masters 45-49
2,Ana Benitez,CA,90,88.5,,48,-147.5,-152.5,152.5,152.5,75,80,85,85,150,160,170,170,407.5,,,,SBD,Raw,F,Masters 45-49
3,Tina Caplan,CT,90,85.5,,46,122.5,135,-142.5,135,80,85,-90,85,170,180,-190,180,400,,,,SBD,Raw,F,Masters 45-49
4,Megan Wiesner,CA,90,86.4,,47,-137.5,137.5,-142.5,137.5,-70,70,-72.5,70,185,192.5,-200,192.5,400,,,,SBD,Raw,F,Masters 45-49
1,Karen Cronian Hurley,CA,90,88.4,,69,100,105.5,110,110,57.5,-62.5,-62.5,57.5,150.5,157.5,-162.5,157.5,325,,,,SBD,Raw,F,Masters 65-69
1,Sheri Jones,TX,110+,117.2,,47,-162.5,170,-180,170,80,85,-90,85,-135,135,152.5,152.5,407.5,,,,SBD,Raw,F,Masters 45-49
DQ,Lynn Bassett,UT,110+,120.4,,56,-147.5,-150,-150,,100,102.5,-105,102.5,147.5,157.5,-165,157.5,,,,,SBD,Raw,F,Masters 55-59
DQ,Nathan Seng,IL,56,55.3,,17,-180,-180,-180,,92.5,97.5,-102.5,97.5,190,202.5,-207.5,202.5,,,,,SBD,Raw,M,Juniors 16-17
1,Deren Kamihara,WA,60,56.3,,15,145,155,-162.5,155,70,75,80,80,175,192.5,-202.5,192.5,427.5,,,,SBD,Raw,M,Juniors 13-15
1,Rick Harrington,FL,60,58.6,,17,-140,-150,150,150,77.5,82.5,-87.5,82.5,185,192.5,-200,192.5,425,,,,SBD,Raw,M,Juniors 16-17
1,Ethan Cruz,NV,60,58.9,,18,142.5,152.5,-160,152.5,107.5,112.5,115,115,172.5,180,187.5,187.5,455,,,,SBD,Raw,M,Juniors 18-19
1,Jared Mercado,NV,67.5,66.7,,16,-155,-155,165,165,92.5,95,97.5,97.5,-187.5,187.5,190,190,452.5,,,,SBD,Raw,M,Juniors 16-17
1,Seth Keas,CO,67.5,66.6,,18,162.5,170,-177.5,170,130,138.5,-143,138.5,175,192.5,-207.5,192.5,501,,,,SBD,Raw,M,Juniors 18-19
1,Randy Rivinius,NY,67.5,65.2,,23,192.5,212.5,-227.5,212.5,130,137.5,-145,137.5,195,217.5,-222.5,217.5,567.5,,,,SBD,Raw,M,Juniors 20-23
2,Hunter Richey,LA,67.5,65.6,,22,-182.5,182.5,-195,182.5,132.5,140,-145,140,225,242.5,-247.5,242.5,565,,,,SBD,Raw,M,Juniors 20-23
3,Joel Matteson,NV,67.5,66.3,,23,-172.5,172.5,-180,172.5,95,97.5,100,100,232.5,237.5,-255,237.5,510,,,,SBD,Raw,M,Juniors 20-23
DQ,Cooper Conant,TN,67.5,63.9,,21,200,210,-220,210,,,,,,,,,,,,,SBD,Raw,M,Juniors 20-23
1,William Eisenhauer,VA,75,74.2,,17,170,177.5,-187.5,177.5,105,107.5,-112.5,107.5,225,235,245,245,530,,,255,SBD,Raw,M,Juniors 16-17
1,McVay Stockwell,LA,75,74.2,,19,255,-265,275.5,275.5,142.5,150,155,155,255,272.5,297.5,297.5,728,,,,SBD,Raw,M,Juniors 18-19
1,Thomas Boswinkle,GA,75,74,,21,225,230,232.5,232.5,140,145,147.5,147.5,250,262.5,275,275,655,,,,SBD,Raw,M,Juniors 20-23
2,Michael Samai,CA,75,74.2,,23,207.5,212.5,-217.5,212.5,135,-140,140,140,252.5,267.5,-285,267.5,620,,,,SBD,Raw,M,Juniors 20-23
3,Alexander Vuong,NV,75,72.4,,22,185,195,202.5,202.5,90,105,,105,235,247.5,-260,247.5,555,,,,SBD,Raw,M,Juniors 20-23
1,Maximus Rositas,MN,82.5,80,,19,200,-207.5,-207.5,200,-130,130,-132.5,130,245,260,265,265,595,,,,SBD,Raw,M,Juniors 18-19
2,Kevin Hook,MI,82.5,79.1,,19,157.5,-175,-187.5,157.5,97.5,112.5,-120,112.5,175,-192.5,-192.5,175,445,,,,SBD,Raw,M,Juniors 18-19
1,Dawson Castro,CA,82.5,82.1,,23,230,240,-247.5,240,167.5,-175,-175,167.5,270,282.5,-290,282.5,690,,,,SBD,Raw,M,Juniors 20-23
2,Brent David,NV,82.5,81.8,,20,-207.5,220,232.5,232.5,127.5,135,-142.5,135,270,285,-290,285,652.5,,,,SBD,Raw,M,Juniors 20-23
3,Tyler Storck,KY,82.5,80.6,,22,205,220,-242.5,220,125,137.5,-152.5,137.5,260,282.5,-302.5,282.5,640,,,,SBD,Raw,M,Juniors 20-23
4,Alex Zuong,HI,82.5,81.8,,23,220,237.5,-252.5,237.5,140,150,-152.5,150,217.5,235,-242.5,235,622.5,,,,SBD,Raw,M,Juniors 20-23
5,Travis Channell,KS,82.5,79.5,,22,175,185,197.5,197.5,115,122.5,-130,122.5,230,245,-260,245,565,,,,SBD,Raw,M,Juniors 20-23
1,Seth Carroll,WA,90,88.5,,17,175,185,195,195,100,-107.5,107.5,107.5,210,222.5,-232.5,222.5,525,,,,SBD,Raw,M,Juniors 16-17
1,Bronson Jenkins,CA,90,88.8,,19,192.5,205,,205,130,-137.5,-137.5,130,235,242.5,-245,242.5,577.5,,,,SBD,Raw,M,Juniors 18-19
DQ,Joshua de Leon,CA,90,88,,18,-220,-220,-220,,-137.5,-137.5,-137.5,,,,,,,,,,SBD,Raw,M,Juniors 18-19
1,Grayson Frazier,AL,90,88.8,,21,240,250,-265,250,162.5,172.5,-185,172.5,247.5,257.5,-260,257.5,680,,,,SBD,Raw,M,Juniors 20-23
2,Bailey Bussiere,CA,90,88.4,,23,222.5,232.5,-240,232.5,125,140,-150,140,245,260,265,265,637.5,,,,SBD,Raw,M,Juniors 20-23
1,Seth Morgan,TX,100,95.6,,17,205,215,222.5,222.5,132.5,137.5,142.5,142.5,-260,270,-280,270,635,,,,SBD,Raw,M,Juniors 16-17
1,Aidan Smith #2,IL,100,93,,18,192.5,205,-210,205,132.5,-140,140,140,227.5,242.5,255,255,600,,,,SBD,Raw,M,Juniors 18-19
1,Mariano Saucedo,NV,100,99.9,,21,-225,225,230,230,142.5,145,-147.5,145,290,300,-305,300,675,,,,SBD,Raw,M,Juniors 20-23
DQ,Yousef Jammal,KS,100,99.3,,23,260,275,285,285,170,185,-192.5,185,-345,-345,-345,,,,,,SBD,Raw,M,Juniors 20-23
1,Caleb King,CA,110,105.3,,18,227.5,-247.5,-250,227.5,147.5,152.5,,152.5,255,265,277.5,277.5,657.5,,,,SBD,Raw,M,Juniors 18-19
1,Hawkin Starke,WI,110,100.3,,21,225,232.5,-242.5,232.5,167.5,-172.5,-172.5,167.5,-270,270,-275,270,670,,,,SBD,Raw,M,Juniors 20-23
DQ,Brian Carter,KY,110,106.5,,23,-267.5,-280,-280,,,,,,,,,,,,,,SBD,Raw,M,Juniors 20-23
1,Trevor Broadwater,MD,125,118.3,,18,252.5,267.5,272.5,272.5,175,185,-190,185,252.5,-272.5,272.5,272.5,730,,,,SBD,Raw,M,Juniors 18-19
1,Jacob Branum,OR,125,120.6,,23,285,300,310,310,195,212.5,-227.5,212.5,-320,320,-343.5,320,842.5,,,,SBD,Raw,M,Juniors 20-23
1,Broden Westover,NE,140,135.2,,16,185,225,-250,225,125,142.5,165,165,225,-245,-245,225,615,,,,SBD,Raw,M,Juniors 16-17
1,Miguel Gomez,CA,140+,152.8,,19,230,247.5,-267.5,247.5,137.5,-150,-160,137.5,237.5,250,-265,250,635,,,,SBD,Raw,M,Juniors 18-19
1,Cristian Carrillo,CA,140+,162.6,,20,282.5,-295,310,310,202.5,-210,210,210,275,282.5,-292.5,282.5,802.5,,,,SBD,Raw,M,Juniors 20-23
2,Brian Patterson,NY,140+,145.2,,23,237.5,247.5,-262.5,247.5,172.5,185,-197.5,185,257.5,-277.5,-277.5,257.5,690,,,,SBD,Raw,M,Juniors 20-23
DQ,Nathan Seng,IL,56,55.3,,17,-180,-180,-180,,92.5,97.5,-102.5,97.5,190,202.5,-207.5,202.5,,,,,SBD,Raw,M,Open
1,Ethan Carranza,CA,60,58.1,,26,170,185,195,195,127.5,-140,145,145,-210,225,235,235,575,,,,SBD,Raw,M,Open
1,Richard Navarra,CA,67.5,66.8,,31,202.5,215,222.5,222.5,142.5,155,-162.5,155,230,240,-250,240,617.5,,,,SBD,Raw,M,Open
2,Tevin Pham,IA,67.5,66.6,,26,195,205,210,210,137.5,145,-147.5,145,227.5,240,245,245,600,,,,SBD,Raw,M,Open
3,Raymond Damasco,WA,67.5,65.6,,38,172.5,185,190,190,115,120,125,125,215,230,235,235,550,,,,SBD,Raw,M,Open
4,Edgar Hernandez,TX,67.5,66.3,,26,180,190,-195,190,115,127.5,-142.5,127.5,215,-240,-240,215,532.5,,,,SBD,Raw,M,Open
5,Paul Remedios,LA,67.5,64.9,,36,167.5,175,177.5,177.5,120,125,127.5,127.5,205,215,-220,215,520,,,,SBD,Raw,M,Open
6,Joel Matteson,NV,67.5,66.3,,23,-172.5,172.5,-180,172.5,95,97.5,100,100,232.5,237.5,-255,237.5,510,,,,SBD,Raw,M,Open
7,Sebastian Rodriguez,FL,67.5,67.2,,33,160,172.5,177.5,177.5,105,-112.5,-112.5,105,185,-195,195,195,477.5,,,,SBD,Raw,M,Open
8,Jared Mercado,NV,67.5,66.7,,16,-155,-155,165,165,92.5,95,97.5,97.5,-187.5,187.5,190,190,452.5,,,,SBD,Raw,M,Open
DQ,Cooper Conant,TN,67.5,63.9,,21,200,210,-220,210,,,,,,,,,,,,,SBD,Raw,M,Open
DQ,Don Collins,CA,67.5,66.7,,61,-179,-179,-179,,,,,,-210,-214,214,214,,,,,SBD,Raw,M,Open
1,McVay Stockwell,LA,75,74.2,,19,255,-265,275.5,275.5,142.5,150,155,155,255,272.5,297.5,297.5,728,,,,SBD,Raw,M,Open
2,David Spitdowski,GA,75,74.1,,33,202.5,215,-220,215,167.5,-175,-175,167.5,237.5,247.5,-252.5,247.5,630,,,,SBD,Raw,M,Open
3,Steven Pham #1,GA,75,70,,30,-210,220,227.5,227.5,137.5,145,,145,242.5,252.5,-260,252.5,625,,,,SBD,Raw,M,Open
4,Michael Samai,CA,75,74.2,,23,207.5,212.5,-217.5,212.5,135,-140,140,140,252.5,267.5,-285,267.5,620,,,,SBD,Raw,M,Open
5,Ryan Hudson,OR,75,74.5,,43,210,220,230.5,230.5,125,132.5,-140,132.5,210,220,-227.5,220,583,,,,SBD,Raw,M,Open
6,Alexander Vuong,NV,75,72.4,,22,185,195,202.5,202.5,90,105,,105,235,247.5,-260,247.5,555,,,,SBD,Raw,M,Open
DQ,Eric Ramirez,NM,75,70.8,,33,-175,177.5,-182.5,177.5,-130,-130,-130,,210,220,225,225,,,,,SBD,Raw,M,Open
DQ,Richard Giglio,NY,75,73.5,,25,-215,-237.5,-237.5,,130,140,-147.5,140,215,240,-255,240,,,,,SBD,Raw,M,Open
DQ,Daniel Lentz,MI,75,73.7,,32,-185,-185,-185,,,,,,,,,,,,,,SBD,Raw,M,Open
1,Dawson Castro,CA,82.5,82.1,,23,230,240,-247.5,240,167.5,-175,-175,167.5,270,282.5,-290,282.5,690,,,,SBD,Raw,M,Open
2,Aaron Madriaga,WA,82.5,81.1,,38,205,215,222.5,222.5,155,160,-165,160,270,282.5,-287.5,282.5,665,,,,SBD,Raw,M,Open
3,Jaime Sierra,CA,82.5,78.1,,26,-195,210,-220,210,-135,142.5,147.5,147.5,-250,282.5,-307.5,282.5,640,,,,SBD,Raw,M,Open
4,Tyler Storck,KY,82.5,80.6,,22,205,220,-242.5,220,125,137.5,-152.5,137.5,260,282.5,-302.5,282.5,640,,,,SBD,Raw,M,Open
5,Chris Holcomb,TX,82.5,80.1,,41,225,232.5,-235,232.5,140,147.5,-152.5,147.5,235,245,255,255,635,,,,SBD,Raw,M,Open
6,Michael Kimura,HI,82.5,81,,54,185,-200,200,200,145,162.5,177.5,177.5,190,,-212.5,190,567.5,,,,SBD,Raw,M,Open
7,Travis Channell,KS,82.5,79.5,,22,175,185,197.5,197.5,115,122.5,-130,122.5,230,245,-260,245,565,,,,SBD,Raw,M,Open
DQ,Kamaron Martinez,CA,82.5,80.8,,30,150,-170,,150,-175,-175,,,,,,,,,,,SBD,Raw,M,Open
DQ,Hugo Baixeras,WA,82.5,81.2,,30,-202.5,-215,-217.5,,130,140,-145,140,-240,250,-260,250,,,,,SBD,Raw,M,Open
1,Xavier Romero,CA,90,88.7,,27,310,322.5,-335,322.5,155,160,167.5,167.5,290,302.5,310,310,800,,,,SBD,Raw,M,Open
2,Terry Montgomery,KS,90,88.4,,26,252.5,-260,260,260,175,-182.5,,175,307.5,322.5,332.5,332.5,767.5,,,,SBD,Raw,M,Open
3,Jared Griffin,MS,90,89.2,,31,255,-265,-265,255,-185,185,-190,185,297.5,305,310,310,750,,,,SBD,Raw,M,Open
4,Richard Rivinius,NY,90,90,,27,265,-275,-280,265,172.5,187.5,-192.5,187.5,267.5,277.5,-285,277.5,730,,,,SBD,Raw,M,Open
5,Jared Trust,GA,90,89.6,,32,247.5,-260,-260,247.5,-180,182.5,-190,182.5,290,-307.5,-310,290,720,,,,SBD,Raw,M,Open
6,Joshua Estalilla,WA,90,87.4,,28,225,242.5,255,255,140,152.5,-162.5,152.5,272.5,287.5,300,300,707.5,,,,SBD,Raw,M,Open
7,Daniel Nguyen #1,NM,90,88,,29,-230,237.5,-255,237.5,137.5,142.5,-150,142.5,-280,287.5,300,300,680,,,,SBD,Raw,M,Open
8,Adam Rubin,OH,90,88.2,,29,240,252.5,260,260,142.5,152.5,-157.5,152.5,257.5,265,-272.5,265,677.5,,,,SBD,Raw,M,Open
9,Eric Rubio,TX,90,87.2,,30,217.5,230,240,240,137.5,145,150,150,255,265,-277.5,265,655,,,,SBD,Raw,M,Open
10,Keenan Small,CA,90,89.6,,30,220,-230,-240,220,160,165,-172.5,165,250,265,-270,265,650,,,,SBD,Raw,M,Open
11,Jordan Holt,OR,90,87,,27,212.5,-222.5,-225,212.5,155,-157.5,-157.5,155,232.5,247.5,-257.5,247.5,615,,,,SBD,Raw,M,Open
12,Justin Gilzow,CA,90,89.3,,28,200,-210,215,215,-135,-140,140,140,225,240,-245,240,595,,,,SBD,Raw,M,Open
13,Jackson Clay,AZ,90,88.5,,30,-195,-195,195,195,130,132.5,135,135,250,-272.5,-272.5,250,580,,,,SBD,Raw,M,Open
DQ,Joshua de Leon,CA,90,88,,18,-220,-220,-220,,-137.5,-137.5,-137.5,,,,,,,,,,SBD,Raw,M,Open
1,Demerrius Slocum,LA,100,100,,36,305,337.5,,337.5,215,227.5,235,235,305,335,,335,907.5,,,,SBD,Raw,M,Open
2,Kalil Zaky,MD,100,96.9,,30,247.5,262.5,267.5,267.5,177.5,187.5,-197.5,187.5,352.5,370,-380,370,825,,,,SBD,Raw,M,Open
3,Matthew Sullivan #1,MA,100,98.7,,27,250,260,-270,260,180,190,-200,190,325,345,-365,345,795,,,,SBD,Raw,M,Open
4,Jonah Lewis,CA,100,98.8,,36,242.5,262.5,272.5,272.5,167.5,175,-182.5,175,285,307.5,317.5,317.5,765,,,,SBD,Raw,M,Open
5,Jonathan Casares,CA,100,96.2,,32,-280,-282.5,282.5,282.5,202.5,-210,-210,202.5,247.5,255,262.5,262.5,747.5,,,,SBD,Raw,M,Open
6,James Lima,AZ,100,99.2,,35,230,242.5,252.5,252.5,160,167.5,-175,167.5,300,317.5,-325,317.5,737.5,,,,SBD,Raw,M,Open
7,Tristan Johnson,AZ,100,98.5,,24,272.5,-300,-300,272.5,175,182.5,-187.5,182.5,275,-302.5,-302.5,275,730,,,,SBD,Raw,M,Open
8,Robert Livingston,TX,100,97.6,,39,242.5,257.5,-270,257.5,150,160,167.5,167.5,277.5,292.5,-307.5,292.5,717.5,,,,SBD,Raw,M,Open
9,Michael Cellini,NY,100,99.5,,24,-245,250,-260,250,147.5,152.5,-157.5,152.5,292.5,307.5,-317.5,307.5,710,,,,SBD,Raw,M,Open
10,Adrian Espinoza,CA,100,98.2,,27,200,220,-230,220,150,160,-172.5,160,285,305,320,320,700,,,,SBD,Raw,M,Open
11,Andrew Berardinelli,NH,100,99.5,,28,247.5,260,-262.5,260,142.5,150,-157.5,150,265,282.5,-300,282.5,692.5,,,,SBD,Raw,M,Open
12,Mariano Saucedo,NV,100,99.9,,21,-225,225,230,230,142.5,145,-147.5,145,290,300,-305,300,675,,,,SBD,Raw,M,Open
13,Rogelio Giner,CO,100,99.1,,28,-190,190,200,200,-145,-145,145,145,222.5,240,-255,240,585,,,,SBD,Raw,M,Open
DQ,Thomas Thayer,AZ,100,96.4,,36,235,-245,,235,-142.5,,,,,,,,,,,,SBD,Raw,M,Open
DQ,Phil Baker,TX,100,99.1,,30,272.5,-275,-282.5,272.5,-172.5,-175,-175,,267.5,272.5,-277.5,272.5,,,,,SBD,Raw,M,Open
DQ,Yousef Jammal,KS,100,99.3,,23,260,275,285,285,170,185,-192.5,185,-345,-345,-345,,,,,,SBD,Raw,M,Open
1,Travis Calloway,GA,110,106.7,,36,295,315,-322.5,315,220,235,245,245,287.5,317.5,-322.5,317.5,877.5,,,,SBD,Raw,M,Open
2,Daniel Hernandez,CA,110,108.3,,26,275,295,-305,295,205,220,225,225,320,-340,-340,320,840,,,,SBD,Raw,M,Open
3,Levi Del Curto,NM,110,107.9,,33,257.5,272.5,280,280,170,182.5,195,195,277.5,292.5,310,310,785,,,,SBD,Raw,M,Open
4,Paul Milano,CT,110,107.7,,31,270,290,-297.5,290,180,-195,-195,180,310,-322.5,-322.5,310,780,,,,SBD,Raw,M,Open
5,Joel Garcia,CA,110,106.7,,32,255,265,275,275,170,175,-180,175,292.5,302.5,-305,302.5,752.5,,,,SBD,Raw,M,Open
6,Jim Hunter,OH,110,105.2,,33,245,260,-272.5,260,182.5,-192.5,-192.5,182.5,287.5,302.5,-317.5,302.5,745,,,,SBD,Raw,M,Open
7,Shane Pham,NV,110,106.2,,29,260,-270,-275,260,150,155,157.5,157.5,300,307.5,310,310,727.5,,,,SBD,Raw,M,Open
8,Welly Lu,UT,110,108.1,,45,-240,-240,240,240,180,-190,190,190,272.5,-287.5,287.5,287.5,717.5,,,,SBD,Raw,M,Open
9,Ian Walsh,CA,110,106.7,,32,217.5,230,242.5,242.5,165,175,182.5,182.5,265,282.5,-290,282.5,707.5,,,,SBD,Raw,M,Open
10,Dane Bonin,MA,110,105.8,,37,232.5,245,255,255,145,155,160,160,267.5,277.5,287.5,287.5,702.5,,,,SBD,Raw,M,Open
DQ,Brian Carter,KY,110,106.5,,23,-267.5,-280,-280,,,,,,,,,,,,,,SBD,Raw,M,Open
1,Ermilo Arias,CA,125,120.4,,29,275,-305,305,305,227.5,240,-247.5,240,317.5,345,365,365,910,,,,SBD,Raw,M,Open
2,Robert Knutsson,OH,125,122.9,,34,312.5,330,-342.5,330,212.5,-225,,212.5,365,-387.5,-390.5,365,907.5,,,,SBD,Raw,M,Open
3,Jacob Branum,OR,125,120.6,,23,285,300,310,310,195,212.5,-227.5,212.5,-320,320,-343.5,320,842.5,,,,SBD,Raw,M,Open
4,Ryan Tromm,KY,125,116.5,,26,282.5,-295,305,305,195,205,-215,205,302.5,317.5,-335,317.5,827.5,,,,SBD,Raw,M,Open
5,Martin Olivera,CA,125,124.4,,32,275,282.5,295,295,210,220,227.5,227.5,282.5,-292.5,295,295,817.5,,,,SBD,Raw,M,Open
6,Phillip Clark,AZ,125,115.2,,30,270,-282.5,-282.5,270,175,187.5,-195,187.5,317.5,335,342.5,342.5,800,,,,SBD,Raw,M,Open
7,Johnathon McEntire,CA,125,117.8,,28,257.5,-265,272.5,272.5,200,205,210,210,287.5,292.5,302.5,302.5,785,,,,SBD,Raw,M,Open
8,Monty Krahn,CA,125,110.5,,23,250,272.5,-280,272.5,175,-187.5,-187.5,175,295,317.5,-327.5,317.5,765,,,,SBD,Raw,M,Open
9,Jeff Vasenda,AZ,125,114.9,,36,210,230,240,240,170,182.5,-187.5,182.5,305,325,340,340,762.5,,,,SBD,Raw,M,Open
10,Sam Deason,WA,125,124.2,,25,270,282.5,-290,282.5,182.5,190,-192.5,190,280,287.5,-292.5,287.5,760,,,,SBD,Raw,M,Open
11,Jerrid Kramer,ID,125,119.3,,33,265,275,-282.5,275,-197.5,207.5,-220,207.5,275,-287.5,-287.5,275,757.5,,,,SBD,Raw,M,Open
12,Mosses Becerra,KS,125,110.7,,30,260,-275,277.5,277.5,175,187.5,190,190,255,275,280,280,747.5,,,,SBD,Raw,M,Open
13,Jacob Markusic,OH,125,111.6,,28,252.5,262.5,-272.5,262.5,155,-162.5,162.5,162.5,300,310,-317.5,310,735,,,,SBD,Raw,M,Open
14,Robert Woodworth,CA,125,121.8,,27,245,262.5,272.5,272.5,152.5,165,172.5,172.5,260,275,287.5,287.5,732.5,,,,SBD,Raw,M,Open
15,Caleb Offer,CA,125,123.1,,40,230,242.5,-247.5,242.5,170,177.5,182.5,182.5,292.5,307.5,-317.5,307.5,732.5,,,,SBD,Raw,M,Open
16,Andy Perez,CA,125,116.4,,24,-262.5,-270,270,270,157.5,165,170,170,265,277.5,-287.5,277.5,717.5,,,,SBD,Raw,M,Open
17,Jay Santiago,AK,125,123.3,,28,-257.5,-257.5,257.5,257.5,180,-192.5,,180,252.5,265,-272.5,265,702.5,,,,SBD,Raw,M,Open
18,Anh Huynh,TX,125,122.9,,33,262.5,-272.5,-272.5,262.5,140,142.5,147.5,147.5,260,275,-282.5,275,685,,,,SBD,Raw,M,Open
DQ,Jason Cvetkovich,PA,125,122.7,,31,-272.5,-272.5,-272.5,,135,-145,-145,135,265,-280,-280,265,,,,,SBD,Raw,M,Open
1,Maurice Moody,CT,140,129.3,,33,280,-297.5,305,305,230,-245,245,245,292.5,310,330,330,880,,,,SBD,Raw,M,Open
2,Janriek Bognot,NV,140,134.6,,24,257.5,275,287.5,287.5,207.5,215,220,220,307.5,320,340,340,847.5,,,,SBD,Raw,M,Open
3,Francisco Acosta,CA,140,138.3,,32,300,312.5,-322.5,312.5,197.5,210,-215,210,305,-322.5,322.5,322.5,845,,,,SBD,Raw,M,Open
4,Kaleb Farr,TN,140,128.1,,25,-275,275,-287.5,275,180,190,-197.5,190,307.5,320,-327.5,320,785,,,,SBD,Raw,M,Open
5,Dakota Reuland,KY,140,133.5,,24,260,277.5,-285,277.5,180,190,205,205,230,245,265,265,747.5,,,,SBD,Raw,M,Open
6,Jimmy Meinking,OH,140,126.4,,33,-295,295,,295,205,227.5,,227.5,150,,,150,672.5,,,,SBD,Raw,M,Open
DQ,Eric Carter,KY,140,126.3,,24,-272.5,-272.5,-287.5,,,,,,,,,,,,,,SBD,Raw,M,Open
DQ,Edward Moore,VA,140,127.2,,51,-262.5,-262.5,-262.5,,,,,,,,,,,,,,SBD,Raw,M,Open
1,Zebulun Drake,MS,140+,140.4,,28,340,352.5,-367.5,352.5,220,235,242.5,242.5,350,375,-390,375,970,,,,SBD,Raw,M,Open
2,Douglas Van Tassell,UT,140+,179.7,,41,312.5,327.5,-342.5,327.5,147.5,157.5,165,165,342.5,-365,,342.5,835,,,,SBD,Raw,M,Open
3,Julian Escobar-Rubio,CA,140+,152.4,,24,310,-322.5,-322.5,310,175,182.5,-190,182.5,320,330,-340,330,822.5,,,,SBD,Raw,M,Open
4,Juan Perez #2,TX,140+,215.5,,29,-272.5,-287.5,287.5,287.5,172.5,182.5,190,190,232.5,250,260,260,737.5,,,,SBD,Raw,M,Open
5,Leandro Flores,TX,140+,162.1,,37,225,240,250,250,170,-177.5,177.5,177.5,255,272.5,275,275,702.5,,,,SBD,Raw,M,Open
6,Mark Boyce,PA,140+,153.4,,28,-227.5,227.5,242.5,242.5,145,152.5,-157.5,152.5,255,272.5,282.5,282.5,677.5,,,,SBD,Raw,M,Open
DQ,Robert Rasmussen,UT,140+,162,,37,-237.5,,,,-195,-195,,,-282.5,,,,,,,,SBD,Raw,M,Open
1,Raymond Damasco,WA,67.5,65.6,,38,172.5,185,190,190,115,120,125,125,215,230,235,235,550,,,,SBD,Raw,M,Submasters 35-39
2,Paul Remedios,LA,67.5,64.9,,36,167.5,175,177.5,177.5,120,125,127.5,127.5,205,215,-220,215,520,,,,SBD,Raw,M,Submasters 35-39
1,James Hatley,OR,82.5,82,,38,225,240,250,250,150,165,-175,165,250,265,272.5,272.5,687.5,,,,SBD,Raw,M,Submasters 35-39
2,Aaron Madriaga,WA,82.5,81.1,,38,205,215,222.5,222.5,155,160,-165,160,270,282.5,-287.5,282.5,665,,,,SBD,Raw,M,Submasters 35-39
1,Casey Szink,IN,90,89.7,,36,175,182.5,-192.5,182.5,135,-142.5,-142.5,135,265,-272.5,-272.5,265,582.5,,,,SBD,Raw,M,Submasters 35-39
1,Jonah Lewis,CA,100,98.8,,36,242.5,262.5,272.5,272.5,167.5,175,-182.5,175,285,307.5,317.5,317.5,765,,,,SBD,Raw,M,Submasters 35-39
2,James Lima,AZ,100,99.2,,35,230,242.5,252.5,252.5,160,167.5,-175,167.5,300,317.5,-325,317.5,737.5,,,,SBD,Raw,M,Submasters 35-39
3,Robert Livingston,TX,100,97.6,,39,242.5,257.5,-270,257.5,150,160,167.5,167.5,277.5,292.5,-307.5,292.5,717.5,,,,SBD,Raw,M,Submasters 35-39
DQ,Thomas Thayer,AZ,100,96.4,,36,235,-245,,235,-142.5,,,,,,,,,,,,SBD,Raw,M,Submasters 35-39
1,Dane Bonin,MA,110,105.8,,37,232.5,245,255,255,145,155,160,160,267.5,277.5,287.5,287.5,702.5,,,,SBD,Raw,M,Submasters 35-39
2,Robert Aigner,CA,110,107.9,,38,210,222.5,-232.5,222.5,170,177.5,-182.5,177.5,225,240,252.5,252.5,652.5,,,,SBD,Raw,M,Submasters 35-39
1,Peter Kim #1,CA,125,120.4,,38,205,227.5,-242.5,227.5,170,182.5,-192.5,182.5,227.5,240,250,250,660,,,,SBD,Raw,M,Submasters 35-39
DQ,Robert Rasmussen,UT,140+,162,,37,-237.5,,,,-195,-195,,,-282.5,,,,,,,,SBD,Raw,M,Submasters 35-39
1,Josiah Price,OR,60,59,,58,97.5,102.5,110,110,112.5,115,117.5,117.5,147.5,152.5,157.5,157.5,385,,,,SBD,Raw,M,Masters 55-59
2,James Seifert,CA,60,59.6,,58,117.5,125,130,130,80,87.5,92.5,92.5,142.5,152.5,-155,152.5,375,,,,SBD,Raw,M,Masters 55-59
DQ,Don Collins,CA,67.5,66.7,,61,-179,-179,-179,,,,,,-210,-214,214,214,,,,,SBD,Raw,M,Masters 60-64
1,Ryan Hudson,OR,75,74.5,,43,210,220,230.5,230.5,125,132.5,-140,132.5,210,220,-227.5,220,583,,,,SBD,Raw,M,Masters 40-44
2,Sophy Teng,MI,75,73.5,,41,195,210,215,215,110,120,-132.5,120,205,220,225,225,560,,,,SBD,Raw,M,Masters 40-44
3,Joseph Rodrigues,TX,75,74.3,,43,160,170,177.5,177.5,135,142.5,-152.5,142.5,182.5,200,,200,520,,,,SBD,Raw,M,Masters 40-44
1,Richard Carni,CO,75,73.8,,58,-120,120,130,130,90,-95,-97.5,90,142.5,-167.5,-167.5,142.5,362.5,,,,SBD,Raw,M,Masters 55-59
1,David Hinojosa,CA,75,74.2,,63,140,160,-170,160,-120,127.5,130,130,170,187.5,190,190,480,,,,SBD,Raw,M,Masters 60-64
2,Joseph McMahan,OR,75,72.3,,62,120,-135,-135,120,120,-125,-125,120,155,160,-167.5,160,400,,,,SBD,Raw,M,Masters 60-64
1,Ron Scott,CA,75,69.7,,76,115.5,125,138,138,55,60,,60,150,163,175,175,373,,,184.5,SBD,Raw,M,Masters 75-79
1,Michael Harrington,AZ,75,74.8,,83,75,-90,-90,75,60,62.5,-67.5,62.5,125,-132.5,-132.5,125,262.5,,,,SBD,Raw,M,Masters 80+
2,Jim Gallagher #1,CA,75,71.1,,86,-55,-55,55,55,40,45,-55,45,140,150,157.5,157.5,257.5,,,160,SBD,Raw,M,Masters 80+
1,Chris Holcomb,TX,82.5,80.1,,41,225,232.5,-235,232.5,140,147.5,-152.5,147.5,235,245,255,255,635,,,,SBD,Raw,M,Masters 40-44
1,Michael Kimura,HI,82.5,81,,54,185,-200,200,200,145,162.5,177.5,177.5,190,,-212.5,190,567.5,,,,SBD,Raw,M,Masters 50-54
1,Fredrick Zeiba Sr,MA,82.5,80.9,,56,195,-210,-210,195,105,-115,-115,105,205,220,-230,220,520,,,,SBD,Raw,M,Masters 55-59
1,Paul Hansen,KS,82.5,80.9,,72,90,100,-105,100,-105,105,-110,105,145,150,160,160,365,,,,SBD,Raw,M,Masters 70-74
1,Tim Lease,WA,90,86.5,,40,195,210,220,220,140,150,160,160,-235,240,-265,240,620,,,,SBD,Raw,M,Masters 40-44
1,Christopher Rountree,TX,90,89.7,,46,192.5,202.5,210,210,135,140,-142.5,140,247.5,260,270.5,270.5,620.5,,,,SBD,Raw,M,Masters 45-49
1,John Rowland,GA,90,88.2,,50,237.5,-252.5,,237.5,147.5,160,-165,160,280,-290,-290,280,677.5,,,,SBD,Raw,M,Masters 50-54
2,Trey Mcguire,WA,90,87.3,,52,217.5,222.5,-225,222.5,120,-127.5,130,130,-215,-215,215,215,567.5,,,,SBD,Raw,M,Masters 50-54
1,Randy Chandler,TN,90,89.7,,58,182.5,-192.5,192.5,192.5,125,135,140,140,200,210,-220,210,542.5,,,,SBD,Raw,M,Masters 55-59
1,Byron Mccowen,NV,100,94.8,,41,230,240,250,250,165,172.5,-177.5,172.5,275,285,-287.5,285,707.5,,,,SBD,Raw,M,Masters 40-44
1,August Schmidt,AZ,100,97.9,,48,210,225,-240,225,150,160,-165,160,250,-275,-282.5,250,635,,,,SBD,Raw,M,Masters 45-49
2,Jose Andrade,CA,100,97.3,,46,210,212.5,215,215,125,132.5,135,135,225,227.5,235,235,585,,,,SBD,Raw,M,Masters 45-49
1,Scott Ukeiley,NM,100,97.9,,54,170,177.5,185,185,135,142.5,-147.5,142.5,222.5,232.5,240,240,567.5,,,,SBD,Raw,M,Masters 50-54
1,DL Diltz,MN,100,94.6,,74,130,-137.5,-137.5,130,107.5,115,-125,115,177.5,195,200,200,445,,,,SBD,Raw,M,Masters 70-74
2,Bobby Whitten,SC,100,99.6,,72,-130,130,142.5,142.5,100,105,107.5,107.5,175,185,190,190,440,,,,SBD,Raw,M,Masters 70-74
1,Welly Lu,UT,110,108.1,,45,-240,-240,240,240,180,-190,190,190,272.5,-287.5,287.5,287.5,717.5,,,,SBD,Raw,M,Masters 45-49
2,Jeff Cauble,CA,110,106.9,,49,200,207.5,212.5,212.5,132.5,140,142.5,142.5,255,270,-282.5,270,625,,,,SBD,Raw,M,Masters 45-49
1,Michael Moon,WA,110,100.2,,50,160,182.5,200,200,132.5,145,160,160,175,192.5,-205,192.5,552.5,,,,SBD,Raw,M,Masters 50-54
1,George Pessell,CA,110,102.3,,63,-200,200,212.5,212.5,120,130,135,135,220,232.5,245,245,592.5,,,,SBD,Raw,M,Masters 60-64
1,Steve Busch,CA,110,104,,69,-185,-185,185,185,85,-92.5,-92.5,85,207.5,-222.5,-232.5,207.5,477.5,,,,SBD,Raw,M,Masters 65-69
1,Caleb Offer,CA,125,123.1,,40,230,242.5,-247.5,242.5,170,177.5,182.5,182.5,292.5,307.5,-317.5,307.5,732.5,,,,SBD,Raw,M,Masters 40-44
1,Ray Audelo,CA,125,115.6,,45,272.5,282.5,287.5,287.5,192.5,-205,205,205,257.5,265,272.5,272.5,765,,,,SBD,Raw,M,Masters 45-49
2,Reginald Walker,TN,125,120.5,,46,212.5,227.5,232.5,232.5,-172.5,172.5,-180,172.5,275,290,295,295,700,,,,SBD,Raw,M,Masters 45-49
3,Scott Haddaway,MD,125,116.1,,48,-220,220,-227.5,220,142.5,147.5,152.5,152.5,240,247.5,252.5,252.5,625,,,,SBD,Raw,M,Masters 45-49
DQ,George Gonzalez,CA,125,119.4,,53,-185,-185,-185,,-155,155,,155,220,225,230,230,,,,,SBD,Raw,M,Masters 50-54
1,Brendan Burke,FL,125,114.8,,58,175,182.5,190,190,-155,155,165,165,207.5,222.5,235,235,590,,,,SBD,Raw,M,Masters 55-59
1,Gregory Cotterell,CA,125,118.3,,62,190,200,207.5,207.5,142.5,150,-155,150,227.5,-250,250,250,607.5,,,,SBD,Raw,M,Masters 60-64
2,Robert Thomas,GA,125,117,,60,172.5,177.5,195,195,122.5,130,137.5,137.5,182.5,-197.5,197.5,197.5,530,,,,SBD,Raw,M,Masters 60-64
3,James Ewing,NH,125,120,,60,-152.5,152.5,165,165,95,-102.5,-102.5,95,192.5,212.5,-225,212.5,472.5,,,,SBD,Raw,M,Masters 60-64
1,Brian Byers,KS,125,117,,66,182.5,195,195.5,195.5,150,-157.5,157.5,157.5,227.5,237.5,242.5,242.5,595.5,,,,SBD,Raw,M,Masters 65-69
1,James Shifflett,MD,140,129.7,,52,247.5,-265,265,265,220,232.5,240,240,260,275,277.5,277.5,782.5,,,,SBD,Raw,M,Masters 50-54
DQ,Edward Moore,VA,140,127.2,,51,-262.5,-262.5,-262.5,,,,,,,,,,,,,,SBD,Raw,M,Masters 50-54
1,Fredrick Martinez,CA,140,129.9,,56,205,-215,215,215,175,182.5,,182.5,-295,295,-321.5,295,692.5,,,,SBD,Raw,M,Masters 55-59
DQ,Robert Huizar,CA,140,131.8,,60,,-227.5,-227.5,,140,150,162.5,162.5,227.5,235,-240,235,,,,,SBD,Raw,M,Masters 60-64
1,Mark Branham,IN,140,125.4,,68,120,140,152.5,152.5,125,135,-142.5,135,145,170,-197.5,170,457.5,,,,SBD,Raw,M,Masters 65-69
1,Douglas Van Tassell,UT,140+,179.7,,41,312.5,327.5,-342.5,327.5,147.5,157.5,165,165,342.5,-365,,342.5,835,,,,SBD,Raw,M,Masters 40-44
1,Brianna Reed,TX,56,55.5,,23,-117.5,125,130,130,77.5,82.5,-85,82.5,150,162.5,168,168,380.5,,,,SBD,Wraps,F,Juniors 20-23
1,Tayara Manchem,PA,75,74.5,,17,-127.5,137.5,-142.5,137.5,60,62.5,-67.5,62.5,125,-130,130,130,330,,,,SBD,Wraps,F,Juniors 16-17
1,Madeline Sanchez,TX,75,73.9,,23,170,185,190,190,95,105,107.5,107.5,185,-197.5,-197.5,185,482.5,,,,SBD,Wraps,F,Juniors 20-23
1,Brianna Reed,TX,56,55.5,,23,-117.5,125,130,130,77.5,82.5,-85,82.5,150,162.5,168,168,380.5,,,,SBD,Wraps,F,Open
1,Madeliene Painter,CA,60,59.3,,27,137.5,-150,-150,137.5,72.5,75,77.5,77.5,155,-165,165,165,380,,,,SBD,Wraps,F,Open
1,Ellen Stein,NY,67.5,60.7,,69,150,160,170,170,85,90,93,93,175,185,195,195,458,,,,SBD,Wraps,F,Open
2,Nicole Maier,AK,67.5,64.7,,27,127.5,147.5,-157.5,147.5,75,80,82.5,82.5,130,147.5,157.5,157.5,387.5,,,,SBD,Wraps,F,Open
3,Skylyn Kopas,PA,67.5,64.2,,29,130,142.5,-150,142.5,60,65,67.5,67.5,135,147.5,-157.5,147.5,357.5,,,,SBD,Wraps,F,Open
1,Madeline Sanchez,TX,75,73.9,,23,170,185,190,190,95,105,107.5,107.5,185,-197.5,-197.5,185,482.5,,,,SBD,Wraps,F,Open
2,Reyhan Roybal,SC,75,74.7,,44,157.5,-170,-170,157.5,105,110,-112.5,110,187.5,-195,-195,187.5,455,,,,SBD,Wraps,F,Open
3,Alexandria Toler,FL,75,72.9,,39,130,-137.5,137.5,137.5,55,57.5,62.5,62.5,130,-140,155,155,355,,,,SBD,Wraps,F,Open
1,Megan Geiger,GA,82.5,78.5,,30,-155,155,170,170,90,-97.5,-97.5,90,175,187.5,195,195,455,,,,SBD,Wraps,F,Open
2,Leah Calimlim,CA,82.5,80.4,,40,180,-190,-190,180,92.5,97.5,102.5,102.5,155,162.5,170,170,452.5,,,,SBD,Wraps,F,Open
3,Jasmine Barber,GA,82.5,79.7,,31,160,175,-185,175,-97.5,97.5,-115,97.5,142.5,160,-172.5,160,432.5,,,,SBD,Wraps,F,Open
1,Brooke Burns,OR,90,89,,26,152.5,160,-167.5,160,70,75,-77.5,75,142.5,150,157.5,157.5,392.5,,,,SBD,Wraps,F,Open
1,Julia Sweet,IN,100,98.8,,52,140,-148,148,148,85.5,-93,93,93,145,168,-182.5,168,409,,,,SBD,Wraps,F,Open
1,Julie Roman,OK,110,106.9,,47,-170,170,-180,170,97.5,102.5,108,108,165,175,-178,175,453,,110,,SBD,Wraps,F,Open
DQ,Michelle Abram,WA,110,104.7,,52,-210,-210,-210,,105,110,112.5,112.5,190,192.5,-195,192.5,,,115,,SBD,Wraps,F,Open
1,Marcie Bain,CA,110+,117.9,,51,182.5,192.5,-205,192.5,92.5,97.5,-102.5,97.5,165,175,185,185,475,,,,SBD,Wraps,F,Open
2,Samantha Boen,OK,110+,113.3,,33,175,-185,185,185,90,95,100,100,175,-185,-187.5,175,460,,,,SBD,Wraps,F,Open
1,Alexandria Toler,FL,75,72.9,,39,130,-137.5,137.5,137.5,55,57.5,62.5,62.5,130,-140,155,155,355,,,,SBD,Wraps,F,Submasters 35-39
1,Ellen Stein,NY,67.5,60.7,,69,150,160,170,170,85,90,93,93,175,185,195,195,458,,,,SBD,Wraps,F,Masters 65-69
1,Reyhan Roybal,SC,75,74.7,,44,157.5,-170,-170,157.5,105,110,-112.5,110,187.5,-195,-195,187.5,455,,,,SBD,Wraps,F,Masters 40-44
1,Leah Calimlim,CA,82.5,80.4,,40,180,-190,-190,180,92.5,97.5,102.5,102.5,155,162.5,170,170,452.5,,,,SBD,Wraps,F,Masters 40-44
1,Brooke Verrill,CA,82.5,78.5,,50,142.5,155,-160,155,75,82.5,-87.5,82.5,152.5,165,170,170,407.5,,,,SBD,Wraps,F,Masters 50-54
1,Julia Sweet,IN,100,98.8,,52,140,-148,148,148,85.5,-93,93,93,145,168,-182.5,168,409,,,,SBD,Wraps,F,Masters 50-54
1,Julie Roman,OK,110,106.9,,47,-170,170,-180,170,97.5,102.5,108,108,165,175,-178,175,453,,110,,SBD,Wraps,F,Masters 45-49
DQ,Michelle Abram,WA,110,104.7,,52,-210,-210,-210,,105,110,112.5,112.5,190,192.5,-195,192.5,,,115,,SBD,Wraps,F,Masters 50-54
1,Marcie Bain,CA,110+,117.9,,51,182.5,192.5,-205,192.5,92.5,97.5,-102.5,97.5,165,175,185,185,475,,,,SBD,Wraps,F,Masters 50-54
1,Garret Rester,MS,90,88.6,,18,-265,270,280,280,150,155,-160.5,155,265,-275,-275,265,700,,,,SBD,Wraps,M,Juniors 18-19
DQ,Brandon Tedder,IL,100,96.6,,18,-247.5,-247.5,-247.5,,132.5,-140,-140,132.5,240,-255,255,255,,,,,SBD,Wraps,M,Juniors 18-19
1,Robert Wesley,NY,110,106.7,,22,290,-305,-305,290,172.5,180,-185,180,285,297.5,302.5,302.5,772.5,,,,SBD,Wraps,M,Juniors 20-23
1,Taylen Washington,CA,125,115.1,,23,-227.5,227.5,237.5,237.5,175,185,-192.5,185,317.5,322.5,327.5,327.5,750,,,,SBD,Wraps,M,Juniors 20-23
1,Phillip Johnson,CA,67.5,67,,26,185,195,-202.5,195,110,117.5,-122.5,117.5,185,195,-200,195,507.5,,,,SBD,Wraps,M,Open
1,Philip Cremers,CO,82.5,81.3,,28,220,230,,230,132.5,-137.5,,132.5,250,260,-272.5,260,622.5,,,,SBD,Wraps,M,Open
1,Christian Oxford,CA,90,88,,31,255,-265,265,265,157.5,162.5,,162.5,257.5,265,-275,265,692.5,,,,SBD,Wraps,M,Open
DQ,Kevin Chapman,MO,90,87.3,,46,-262.5,-272.5,-272.5,,-142.5,,,,,,,,,,,,SBD,Wraps,M,Open
1,Reggie Loyola,NV,100,98.2,,41,-237.5,237.5,247.5,247.5,165,175,-182.5,175,295,310,-320,310,732.5,,,,SBD,Wraps,M,Open
2,Robert Davila,TX,100,97.6,,25,-252.5,265,-272.5,265,192.5,197.5,-202.5,197.5,252.5,265,267.5,267.5,730,,,,SBD,Wraps,M,Open
3,Sean Bales,CA,100,98.7,,37,240,250,260,260,-145,145,155,155,245,260,272.5,272.5,687.5,,,,SBD,Wraps,M,Open
4,Curtis Rice,NY,100,98.3,,32,237.5,247.5,250,250,160,-165,165,165,237.5,247.5,-252.5,247.5,662.5,,,,SBD,Wraps,M,Open
5,Alfred Munoz,TX,100,97.3,,42,230,-235,235,235,145,155,-160,155,240,247.5,-250,247.5,637.5,,,,SBD,Wraps,M,Open
DQ,Brandon Tedder,IL,100,96.6,,18,-247.5,-247.5,-247.5,,132.5,-140,-140,132.5,240,-255,255,255,,,,,SBD,Wraps,M,Open
DQ,Andrew Corbin,AK,100,98.4,,29,-265,265,-282.5,265,-177.5,-190,-190,,310,332.5,352.5,352.5,,,,,SBD,Wraps,M,Open
1,Kenneth Zimmerman,OH,110,108.7,,26,317.5,332.5,-340,332.5,212.5,220,,220,325,337.5,-342.5,337.5,890,,,,SBD,Wraps,M,Open
2,Collin Rhodes #1,NM,110,109.3,,55,-292.5,292.5,-302.5,292.5,195,212.5,-215,212.5,300,325,332.5,332.5,837.5,,,,SBD,Wraps,M,Open
1,Collin Rhodes #1,NM,110,109.3,,55,-292.5,292.5,-302.5,292.5,195,212.5,-215,212.5,300,325,332.5,332.5,837.5,,,,SBD,Wraps,M,Masters 55-59
3,Robert Wesley,NY,110,106.7,,22,290,-305,-305,290,172.5,180,-185,180,285,297.5,302.5,302.5,772.5,,,,SBD,Wraps,M,Open
4,Robert Mallory,CA,110,106.6,,35,255,272.5,280,280,157.5,170,,170,265,280,297.5,297.5,747.5,,,,SBD,Wraps,M,Open
5,Zack Bingaman,LA,110,107,,35,297.5,-305,305,305,152.5,157.5,-160,157.5,265,272.5,282.5,282.5,745,,,,SBD,Wraps,M,Open
6,Robert Sanchez #7,CA,110,108.5,,40,260,275,-285,275,170,180,185,185,240,255,267.5,267.5,727.5,,,,SBD,Wraps,M,Open
7,Bradie Crandall,DE,110,106.6,,25,255,-275,275,275,147.5,157.5,167.5,167.5,255,275,-285,275,717.5,,,,SBD,Wraps,M,Open
8,Fred Zeiba,MA,110,108.1,,34,230,252.5,-272.5,252.5,160,170,-177.5,170,215,-245,-250,215,637.5,,,,SBD,Wraps,M,Open
9,Roque Domingues,AZ,110,109.2,,32,255,-272.5,,255,135,142.5,-150,142.5,62.5,,,62.5,460,,,,SBD,Wraps,M,Open
1,Joe Tallan,CO,125,123.6,,27,227.5,272.5,,272.5,205,-217.5,-217.5,205,227.5,270,300,300,777.5,,,,SBD,Wraps,M,Open
2,Glenn Baggett,GA,125,122.1,,49,250,282.5,-295,282.5,200,-213,-213,200,235,290,,290,772.5,,,,SBD,Wraps,M,Open
3,Matt Imwalle,CA,125,121.3,,39,242.5,-260,260,260,175,185,-190,185,305,-320,320,320,765,,,,SBD,Wraps,M,Open
4,Omar Cervantes,CA,125,123.7,,32,260,277.5,290,290,167.5,-177.5,-177.5,167.5,290,-305,-305,290,747.5,,,,SBD,Wraps,M,Open
5,Sean Moore,ME,125,124.3,,28,242.5,265,-275,265,165,175,-185,175,242.5,260,-272.5,260,700,,,,SBD,Wraps,M,Open
DQ,Garrett Coleman,UT,125,121,,32,-322.5,-322.5,-322.5,,205,-215,-215,205,302.5,-312.5,,302.5,,,,,SBD,Wraps,M,Open
1,Vincent Vela-Pulido,TX,140,135.4,,33,322.5,-332.5,,322.5,197.5,220,-227.5,220,322.5,-330,330,330,872.5,,,,SBD,Wraps,M,Open
2,Konnor Hayes,CA,140,138.8,,26,300,312.5,-317.5,312.5,215,227.5,235,235,310,-322.5,322.5,322.5,870,,,,SBD,Wraps,M,Open
3,Ricardo Russell,GA,140,137,,37,227.5,272.5,292.5,292.5,217.5,240,-245,240,272.5,317.5,325,325,857.5,,,,SBD,Wraps,M,Open
4,Vincent Hernandez,TX,140,137.9,,28,-352.5,352.5,372.5,372.5,190,200,205,205,-280,280,-290,280,857.5,,,,SBD,Wraps,M,Open
5,Bryce Merchant,IA,140,136.4,,31,-315,327.5,340,340,175,-192.5,192.5,192.5,262.5,-287.5,-300,262.5,795,,,,SBD,Wraps,M,Open
6,Clayton Huff,TN,140,131.3,,33,277.5,-290,297.5,297.5,190,205,-212.5,205,290,-302.5,-302.5,290,792.5,,,,SBD,Wraps,M,Open
1,Nick Fisher #1,AK,140+,169.7,,27,-360,-360,367.5,367.5,237.5,255,-260,255,335,355,-377.5,355,977.5,,,,SBD,Wraps,M,Open
2,Justin Ruiz,CA,140+,147,,33,312.5,322.5,-340,322.5,255,262.5,265,265,320,-337.5,-337.5,320,907.5,,,,SBD,Wraps,M,Open
3,Robert Geiger,GA,140+,145.7,,30,300,-317.5,317.5,317.5,215,227.5,-235,227.5,305,320,327.5,327.5,872.5,,,,SBD,Wraps,M,Open
1,Sean Bales,CA,100,98.7,,37,240,250,260,260,-145,145,155,155,245,260,272.5,272.5,687.5,,,,SBD,Wraps,M,Submasters 35-39
1,Robert Mallory,CA,110,106.6,,35,255,272.5,280,280,157.5,170,,170,265,280,297.5,297.5,747.5,,,,SBD,Wraps,M,Submasters 35-39
2,Zack Bingaman,LA,110,107,,35,297.5,-305,305,305,152.5,157.5,-160,157.5,265,272.5,282.5,282.5,745,,,,SBD,Wraps,M,Submasters 35-39
1,Matt Imwalle,CA,125,121.3,,39,242.5,-260,260,260,175,185,-190,185,305,-320,320,320,765,,,,SBD,Wraps,M,Submasters 35-39
1,Ricardo Russell,GA,140,137,,37,227.5,272.5,292.5,292.5,217.5,240,-245,240,272.5,317.5,325,325,857.5,,,,SBD,Wraps,M,Submasters 35-39
1,Ray Mack,OK,75,74.1,,49,-160,160,-172.5,160,90,92.5,95,95,170,180,-190,180,435,,,,SBD,Wraps,M,Masters 45-49
1,Tim O'Brien #1,FL,82.5,79.2,,56,175,187.5,-195,187.5,110,117.5,-122.5,117.5,185,192.5,-202.5,192.5,497.5,,,,SBD,Wraps,M,Masters 55-59
1,John Killin,CA,82.5,82.1,,73,-145,-145,145,145,75,-80,,75,177.5,190,-197.5,190,410,,,,SBD,Wraps,M,Masters 70-74
DQ,Kevin Chapman,MO,90,87.3,,46,-262.5,-272.5,-272.5,,-142.5,,,,,,,,,,,,SBD,Wraps,M,Masters 45-49
1,Ross Blanton,MO,90,87.7,,57,-200,-200,200,200,120,125,130,130,205,212.5,220,220,550,,,,SBD,Wraps,M,Masters 55-59
1,Reggie Loyola,NV,100,98.2,,41,-237.5,237.5,247.5,247.5,165,175,-182.5,175,295,310,-320,310,732.5,,,,SBD,Wraps,M,Masters 40-44
2,Alfred Munoz,TX,100,97.3,,42,230,-235,235,235,145,155,-160,155,240,247.5,-250,247.5,637.5,,,,SBD,Wraps,M,Masters 40-44
1,Craig Recore,WA,100,97.7,,49,-230,230,255,255,180,-197.5,-197.5,180,275,302.5,-312.5,302.5,737.5,,,,SBD,Wraps,M,Masters 45-49
1,Robert Sanchez #7,CA,110,108.5,,40,260,275,-285,275,170,180,185,185,240,255,267.5,267.5,727.5,,,,SBD,Wraps,M,Masters 40-44
DQ,David Clem,ND,110,108.7,,50,-280,-280,-280,,,,,,,,,,,,,,SBD,Wraps,M,Masters 50-54
1,Glenn Baggett,GA,125,122.1,,49,250,282.5,-295,282.5,200,-213,-213,200,235,290,,290,772.5,,,,SBD,Wraps,M,Masters 45-49
DQ,Allen Heisler,MT,125,122.2,,49,-200,-200,-200,,157.5,-162.5,-162.5,157.5,240,245,-257.5,245,,,,,SBD,Wraps,M,Masters 45-49
1,Michael Graber #2,OR,125,122.1,,50,-270,270,-275,270,180,-185,185,185,247.5,257.5,262.5,262.5,717.5,,,,SBD,Wraps,M,Masters 50-54
1,Josh Maish,CA,140,125.8,,41,-295,295,-307.5,295,160,-172.5,,160,275,-287.5,,275,730,,,,SBD,Wraps,M,Masters 40-44
1,Michael Hughes,CA,140+,147,,61,140,152.5,160,160,145,155,163,163,185,192.5,-200,192.5,515.5,,,,SBD,Wraps,M,Masters 60-64
1,Hanna Mercado,TX,44,40.4,,16,85,90,-97.5,90,37.5,-43,-43,37.5,82.5,-90.5,90.5,90.5,218,,,,SBD,Single-ply,F,Juniors 16-17
1,Daniela Mercado,TX,48,44.3,,14,80,87.5,-96.5,87.5,32.5,35,-38.5,35,67.5,-75,-75,67.5,190,,,,SBD,Single-ply,F,Juniors 13-15
1,Devany Monsivais,TX,48,47,,17,112.5,125.5,127.5,127.5,47.5,-57.5,-57.5,47.5,-120,120,133,133,308,,,,SBD,Single-ply,F,Juniors 16-17
1,Isabella Tiscani,TX,75,73.3,,17,127.5,143,152.5,152.5,52.5,58.5,-62.5,58.5,132.5,-143,143,143,354,,,,SBD,Single-ply,F,Juniors 16-17
1,Cayte Bona,AZ,60,58.9,,31,145,157.5,-165,157.5,105,-112.5,112.5,112.5,150,-165,-165,150,420,,,,SBD,Single-ply,F,Open
DQ,Desiree Walker,NC,60,58.9,,43,-152.5,-152.5,-152.5,,-87.5,,,,,,,,,,,,SBD,Single-ply,F,Open
1,Betsy Spann,CA,56,55.7,,65,77.5,85,92.5,92.5,52.5,55,57.5,57.5,115,125,135,135,285,97.5,,,SBD,Single-ply,F,Masters 65-69
DQ,Desiree Walker,NC,60,58.9,,43,-152.5,-152.5,-152.5,,-87.5,,,,,,,,,,,,SBD,Single-ply,F,Masters 40-44
1,Justin Figueroa,TX,56,54.7,,17,-160,160,-175,160,102.5,-120.5,-120.5,102.5,167.5,170.5,182.5,182.5,445,,,187.5,SBD,Single-ply,M,Juniors 16-17
1,Jayson Figueroa,TX,82.5,80.7,,16,190,200,206,206,-137.5,137.5,148,148,182.5,195,-210,195,549,220.5,,,SBD,Single-ply,M,Juniors 16-17
1,Daniel Trujillo,TX,90,88.9,,17,195,215,-233,215,112.5,-142.5,-142.5,112.5,212.5,233,237.5,237.5,565,,,,SBD,Single-ply,M,Juniors 16-17
1,Keegan Garcia,TX,125,123.2,,15,215,237.5,252.5,252.5,130,-142.5,,130,240,265,277.5,277.5,660,,,,SBD,Single-ply,M,Juniors 13-15
1,Isaiah Ricondo,TX,125,117.8,,17,210,230.5,-237.5,230.5,75,-175,-175.5,75,207.5,225,,225,530.5,,,,SBD,Single-ply,M,Juniors 16-17
1,Carlos Ramirez #7,CA,90,88.4,,25,265,272.5,277.5,277.5,-245,-245,245,245,272.5,285,-300,285,807.5,,,,SBD,Single-ply,M,Open
1,Michael Poort,CO,100,98.7,,47,-255,255,275,275,252.5,-265.5,-265.5,252.5,265,277.5,-285,277.5,805,,,,SBD,Single-ply,M,Open
2,Shawn Buckley,CA,100,98.3,,39,-350,365,-385.5,365,82.5,,,82.5,60,,,60,507.5,,,,SBD,Single-ply,M,Open
1,Clint McCord,AZ,110,105.1,,32,-302.5,302.5,-317.5,302.5,212.5,217.5,-222.5,217.5,287.5,-302.5,-302.5,287.5,807.5,,,,SBD,Single-ply,M,Open
1,Kendall Austin,AZ,125,112.5,,32,265,272.5,-280,272.5,205,215,-222.5,215,247.5,255,-262.5,255,742.5,,,,SBD,Single-ply,M,Open
1,Santiago Vasquez,AZ,140,133.4,,25,292.5,297.5,-302.5,297.5,-242.5,-242.5,242.5,242.5,282.5,300,317.5,317.5,857.5,,,,SBD,Single-ply,M,Open
1,Joshua Ficklin,TX,140+,160.6,,25,-360,-375,392.5,392.5,-225,232.5,-250,232.5,317.5,330,-342.5,330,955,,,,SBD,Single-ply,M,Open
1,Shawn Buckley,CA,100,98.3,,39,-350,365,-385.5,365,82.5,,,82.5,60,,,60,507.5,,,,SBD,Single-ply,M,Submasters 35-39
DQ,Keith Kanemoto,CA,90,83,,63,-257.5,-273,-273,,-155,,,,,,,,,,,,SBD,Single-ply,M,Masters 60-64
1,Michael Poort,CO,100,98.7,,47,-255,255,275,275,252.5,-265.5,-265.5,252.5,265,277.5,-285,277.5,805,,,,SBD,Single-ply,M,Masters 45-49
1,Ron Pagal,CA,110,102.1,,76,142.5,155,,155,115,120,127.5,127.5,160,170,182.5,182.5,465,,,,SBD,Single-ply,M,Masters 75-79
1,Kianna Nakaoka,CA,44,42.6,,15,,,,,40,-45,-45,40,,,,,40,,,,B,Raw,F,Juniors 13-15
1,Madeline Aigner,CA,48,47.9,,15,,,,,40,-45,-45,40,,,,,40,,,,B,Raw,F,Juniors 13-15
1,Briana Negron,FL,52,51.4,,23,,,,,77.5,-82.5,82.5,82.5,,,,,82.5,,,,B,Raw,F,Juniors 20-23
1,Brianna Reed,TX,56,55.5,,23,,,,,77.5,82.5,-85,82.5,,,,,82.5,,,,B,Raw,F,Juniors 20-23
1,Leslie Albert,IL,110+,113.3,,15,,,,,75,82.5,-85,82.5,,,,,82.5,,,,B,Raw,F,Juniors 13-15
1,Amy Garrido,CA,48,47.8,,26,,,,,72.5,75,80,80,,,,,80,,,,B,Raw,F,Open
2,Madeline Aigner,CA,48,47.9,,15,,,,,40,-45,-45,40,,,,,40,,,,B,Raw,F,Open
1,Briana Negron,FL,52,51.4,,23,,,,,77.5,-82.5,82.5,82.5,,,,,82.5,,,,B,Raw,F,Open
2,Margie Haddon,TX,52,50.8,,60,,,,,45,47.5,-50,47.5,,,,,47.5,,,,B,Raw,F,Open
1,Brianna Reed,TX,56,55.5,,23,,,,,77.5,82.5,-85,82.5,,,,,82.5,,,,B,Raw,F,Open
1,Paige Kimball,LA,60,59.9,,32,,,,,80,85,90,90,,,,,90,,,,B,Raw,F,Open
1,Nicole Maier,AK,67.5,64.7,,27,,,,,75,80,82.5,82.5,,,,,82.5,,,,B,Raw,F,Open
1,Barbara Taylor,CA,75,70.9,,64,,,,,105,-110,-111,105,,,,,105,,,,B,Raw,F,Open
2,Kristine Kobza,AZ,75,73.1,,55,,,,,95,102.5,-105,102.5,,,,,102.5,,,,B,Raw,F,Open
DQ,Melody Watson,TN,75,69.5,,28,,,,,-97.5,-105,-105,,,,,,,,,,B,Raw,F,Open
1,Charlie Cheryl Ritchie,OR,82.5,81.4,,51,,,,,112.5,117.5,-123,117.5,,,,,117.5,,,,B,Raw,F,Open
2,Rebecca Gigliotti,CA,82.5,81.4,,28,,,,,90,97.5,-102.5,97.5,,,,,97.5,,,,B,Raw,F,Open
3,Suzette Aranda,CA,82.5,80.5,,47,,,,,82.5,85,-87.5,85,,,,,85,,,,B,Raw,F,Open
4,Lauren Plooster,WA,82.5,81.6,,38,,,,,70,72.5,-75,72.5,,,,,72.5,,,,B,Raw,F,Open
1,Alisa Snyder,NY,90,83.5,,47,,,,,102.5,110,115,115,,,,,115,,,,B,Raw,F,Open
2,Jacquelyne Stieber,CA,90,82.6,,29,,,,,-70,75,77.5,77.5,,,,,77.5,,,,B,Raw,F,Open
1,Michelle Abram,WA,110,104.7,,52,,,,,105,110,112.5,112.5,,,,,112.5,,115,,B,Raw,F,Open
2,Julie Roman,OK,110,106.9,,47,,,,,97.5,102.5,108,108,,,,,108,,110,,B,Raw,F,Open
1,Marcie Bain,CA,110+,117.9,,51,,,,,92.5,97.5,-102.5,97.5,,,,,97.5,,,,B,Raw,F,Open
2,Leslie Albert,IL,110+,113.3,,15,,,,,75,82.5,-85,82.5,,,,,82.5,,,,B,Raw,F,Open
1,Lauren Plooster,WA,82.5,81.6,,38,,,,,70,72.5,-75,72.5,,,,,72.5,,,,B,Raw,F,Submasters 35-39
1,Margie Haddon,TX,52,50.8,,60,,,,,45,47.5,-50,47.5,,,,,47.5,,,,B,Raw,F,Masters 60-64
1,Jessica Skarin,LA,75,73.5,,40,,,,,82.5,-87.5,-87.5,82.5,,,,,82.5,,,,B,Raw,F,Masters 40-44
1,Kristine Kobza,AZ,75,73.1,,55,,,,,95,102.5,-105,102.5,,,,,102.5,,,,B,Raw,F,Masters 55-59
1,Barbara Taylor,CA,75,70.9,,64,,,,,105,-110,-111,105,,,,,105,,,,B,Raw,F,Masters 60-64
1,Cindy Slone-Martin,OR,82.5,81.5,,42,,,,,122.5,125.5,-127.5,125.5,,,,,125.5,,,,B,Raw,F,Masters 40-44
1,Suzette Aranda,CA,82.5,80.5,,47,,,,,82.5,85,-87.5,85,,,,,85,,,,B,Raw,F,Masters 45-49
1,Charlie Cheryl Ritchie,OR,82.5,81.4,,51,,,,,112.5,117.5,-123,117.5,,,,,117.5,,,,B,Raw,F,Masters 50-54
1,Alisa Snyder,NY,90,83.5,,47,,,,,102.5,110,115,115,,,,,115,,,,B,Raw,F,Masters 45-49
1,Julie Roman,OK,110,106.9,,47,,,,,97.5,102.5,108,108,,,,,108,,110,,B,Raw,F,Masters 45-49
1,Michelle Abram,WA,110,104.7,,52,,,,,105,110,112.5,112.5,,,,,112.5,,115,,B,Raw,F,Masters 50-54
1,Marcie Bain,CA,110+,117.9,,51,,,,,92.5,97.5,-102.5,97.5,,,,,97.5,,,,B,Raw,F,Masters 50-54
1,Seth Keas,CO,67.5,66.6,,18,,,,,130,138.5,-143,138.5,,,,,138.5,,,,B,Raw,M,Juniors 18-19
1,Jacob Brandt,OH,82.5,80.7,,17,,,,,145,152.5,157.5,157.5,,,,,157.5,,,,B,Raw,M,Juniors 16-17
1,John Trindade,CA,100,98,,21,,,,,202.5,-215.5,-215.5,202.5,,,,,202.5,,,,B,Raw,M,Juniors 20-23
2,Garret Alcaraz,CA,100,96.1,,20,,,,,125,135,137.5,137.5,,,,,137.5,,,,B,Raw,M,Juniors 20-23
1,Richard Navarra,CA,67.5,66.8,,31,,,,,142.5,155,-162.5,155,,,,,155,,,,B,Raw,M,Open
1,David Spitdowski,GA,75,74.1,,33,,,,,167.5,-175,-175,167.5,,,,,167.5,,,,B,Raw,M,Open
2,Dele Atoro,NH,75,74.2,,33,,,,,130,-132.5,-132.5,130,,,,,130,,,,B,Raw,M,Open
1,Michael Kimura,HI,82.5,81,,54,,,,,145,162.5,177.5,177.5,,,,,177.5,,,,B,Raw,M,Open
2,Alexander Glover,NY,82.5,81.8,,31,,,,,155,-160,-160,155,,,,,155,,,,B,Raw,M,Open
3,Chris Holcomb,TX,82.5,80.1,,41,,,,,140,147.5,-152.5,147.5,,,,,147.5,,,,B,Raw,M,Open
DQ,Daniel Conant,NY,82.5,80.4,,25,,,,,-147.5,-147.5,-147.5,,,,,,,,,,B,Raw,M,Open
DQ,Kamaron Martinez,CA,82.5,80.8,,30,,,,,-175,-175,,,,,,,,,,,B,Raw,M,Open
1,Jim Smith #3,MS,100,96.1,,53,,,,,207.5,215.5,217.5,217.5,,,,,217.5,,220,,B,Raw,M,Open
2,John Trindade,CA,100,98,,21,,,,,202.5,-215.5,-215.5,202.5,,,,,202.5,,,,B,Raw,M,Open
DQ,Matthew Boulden,CA,100,94.5,,33,,,,,-155,-155,-155,,,,,,,,,,B,Raw,M,Open
1,Kenneth Zimmerman,OH,110,108.7,,26,,,,,212.5,220,,220,,,,,220,,,,B,Raw,M,Open
2,Ryan Kimball,LA,110,108,,35,,,,,182.5,195,202.5,202.5,,,,,202.5,,,,B,Raw,M,Open
3,Jacob Cone,WA,110,106.9,,27,,,,,187.5,-195,-197.5,187.5,,,,,187.5,,,,B,Raw,M,Open
DQ,Trent Hinklin,TX,110,108.8,,36,,,,,-195,-195,-195,,,,,,,,,,B,Raw,M,Open
1,TJ Finley,OH,125,124.4,,41,,,,,-235,235,-245,235,,,,,235,,,,B,Raw,M,Open
2,Ron Bailey,GA,125,119.4,,50,,,,,185,207.5,210,210,,,,,210,,,,B,Raw,M,Open
3,Jerrid Kramer,ID,125,119.3,,33,,,,,-197.5,207.5,-220,207.5,,,,,207.5,,,,B,Raw,M,Open
4,Glenn Baggett,GA,125,122.1,,49,,,,,200,-213,-213,200,,,,,200,,,,B,Raw,M,Open
5,Rick Geller,CO,125,123.2,,62,,,,,190,197.5,-202.5,197.5,,,,,197.5,,,,B,Raw,M,Open
6,Joe Franklin,GA,125,115.4,,50,,,,,177.5,182.5,-187.5,182.5,,,,,182.5,,,,B,Raw,M,Open
1,Maurice Moody,CT,140,129.3,,33,,,,,230,-245,245,245,,,,,245,,,,B,Raw,M,Open
2,Chuck Bell,IN,140,136.5,,50,,,,,152.5,-160,-160,152.5,,,,,152.5,,,,B,Raw,M,Open
1,Justin Ruiz,CA,140+,147,,33,,,,,255,262.5,265,265,,,,,265,,,,B,Raw,M,Open
2,Jacob Hutchinson,CA,140+,169.4,,48,,,,,200,210,-220,210,,,,,210,,,,B,Raw,M,Open
1,Michael Cherry,GA,90,87.5,,35,,,,,160,-165,165,165,,,,,165,,,,B,Raw,M,Submasters 35-39
1,Ryan Kimball,LA,110,108,,35,,,,,182.5,195,202.5,202.5,,,,,202.5,,,,B,Raw,M,Submasters 35-39
1,Jacob Hutchinson,CA,140+,169.4,,48,,,,,200,210,-220,210,,,,,210,,,,B,Raw,M,Masters 45-49
1,Ray Mack,OK,75,74.1,,49,,,,,90,92.5,95,95,,,,,95,,,,B,Raw,M,Masters 45-49
1,Chris Holcomb,TX,82.5,80.1,,41,,,,,140,147.5,-152.5,147.5,,,,,147.5,,,,B,Raw,M,Masters 40-44
1,Michael Kimura,HI,82.5,81,,54,,,,,145,162.5,177.5,177.5,,,,,177.5,,,,B,Raw,M,Masters 50-54
1,Paul Hansen,KS,82.5,80.9,,72,,,,,-105,105,-110,105,,,,,105,,,,B,Raw,M,Masters 70-74
1,Tim Lease,WA,90,86.5,,40,,,,,140,150,160,160,,,,,160,,,,B,Raw,M,Masters 40-44
1,Greg Schmick,OR,90,85,,73,,,,,87.5,92.5,97.5,97.5,,,,,97.5,,,,B,Raw,M,Masters 70-74
1,Craig Recore,WA,100,97.7,,49,,,,,180,-197.5,-197.5,180,,,,,180,,,,B,Raw,M,Masters 45-49
1,Jim Smith #3,MS,100,96.1,,53,,,,,207.5,215.5,217.5,217.5,,,,,217.5,,220,,B,Raw,M,Masters 50-54
1,Jeff Averitt,CA,110,106.9,,42,,,,,160,-172.5,-172.5,160,,,,,160,,,,B,Raw,M,Masters 40-44
1,Michael Moon,WA,110,100.2,,50,,,,,132.5,145,160,160,,,,,160,,,,B,Raw,M,Masters 50-54
1,Tod Miller,GA,110,108,,60,,,,,167.5,175,180,180,,,,,180,,,,B,Raw,M,Masters 60-64
1,Steven Piehl,IL,110,107.8,,69,,,,,115,-120,120,120,,,,,120,,,,B,Raw,M,Masters 65-69
1,Holgie Choi,CA,125,118.4,,42,,,,,170,175,-182.5,175,,,,,175,,,,B,Raw,M,Masters 40-44
1,Glenn Baggett,GA,125,122.1,,49,,,,,200,-213,-213,200,,,,,200,,,,B,Raw,M,Masters 45-49
2,Allen Heisler,MT,125,122.2,,49,,,,,157.5,-162.5,-162.5,157.5,,,,,157.5,,,,B,Raw,M,Masters 45-49
1,Ron Bailey,GA,125,119.4,,50,,,,,185,207.5,210,210,,,,,210,,,,B,Raw,M,Masters 50-54
2,Eugene Malbrough,TX,125,121.5,,52,,,,,195,200,202.5,202.5,,,,,202.5,,,,B,Raw,M,Masters 50-54
3,Joe Franklin,GA,125,115.4,,50,,,,,177.5,182.5,-187.5,182.5,,,,,182.5,,,,B,Raw,M,Masters 50-54
1,Rick Geller,CO,125,123.2,,62,,,,,190,197.5,-202.5,197.5,,,,,197.5,,,,B,Raw,M,Masters 60-64
1,Chuck Bell,IN,140,136.5,,50,,,,,152.5,-160,-160,152.5,,,,,152.5,,,,B,Raw,M,Masters 50-54
1,Chris Dodson,CA,140,128.7,,57,,,,,157.5,167.5,182.5,182.5,,,,,182.5,,,,B,Raw,M,Masters 55-59
1,Michael Hughes,CA,140+,147,,61,,,,,145,155,163,163,,,,,163,,,,B,Raw,M,Masters 60-64
1,Hanna Mercado,TX,44,40.4,,16,,,,,37.5,-43,-43,37.5,,,,,37.5,,,,B,Single-ply,F,Juniors 16-17
1,Daniela Mercado,TX,48,44.3,,14,,,,,32.5,35,-38.5,35,,,,,35,,,,B,Single-ply,F,Juniors 13-15
1,Devany Monsivais,TX,48,47,,17,,,,,47.5,-57.5,-57.5,47.5,,,,,47.5,,,,B,Single-ply,F,Juniors 16-17
1,Isabella Tiscani,TX,75,73.3,,17,,,,,52.5,58.5,-62.5,58.5,,,,,58.5,,,,B,Single-ply,F,Juniors 16-17
1,Betsy Spann,CA,56,55.7,,65,,,,,52.5,55,57.5,57.5,,,,,57.5,,,,B,Single-ply,F,Masters 65-69
1,Justin Figueroa,TX,56,54.7,,17,,,,,102.5,-120.5,-120.5,102.5,,,,,102.5,,,,B,Single-ply,M,Juniors 16-17
1,Jayson Figueroa,TX,82.5,80.7,,16,,,,,-137.5,137.5,148,148,,,,,148,,,,B,Single-ply,M,Juniors 16-17
1,Daniel Trujillo,TX,90,88.9,,17,,,,,112.5,-142.5,-142.5,112.5,,,,,112.5,,,,B,Single-ply,M,Juniors 16-17
1,Keegan Garcia,TX,125,123.2,,15,,,,,130,-142.5,,130,,,,,130,,,,B,Single-ply,M,Juniors 13-15
1,Isaiah Ricondo,TX,125,117.8,,17,,,,,75,-175,-175.5,75,,,,,75,,,,B,Single-ply,M,Juniors 16-17
1,Michael Poort,CO,100,98.7,,47,,,,,252.5,-265.5,-265.5,252.5,,,,,252.5,,,,B,Single-ply,M,Open
1,Scott Simonson,FL,125,117.2,,55,,,,,250,265,-272.5,265,,,,,265,,,,B,Single-ply,M,Open
2,Rick Geller,CO,125,123.2,,62,,,,,-242.5,242.5,-247.5,242.5,,,,,242.5,,,,B,Single-ply,M,Open
1,Michael Poort,CO,100,98.7,,47,,,,,252.5,-265.5,-265.5,252.5,,,,,252.5,,,,B,Single-ply,M,Masters 45-49
1,Wesley Woodhull,TN,110,103.2,,45,,,,,-175,175,-182.5,175,,,,,175,,,,B,Single-ply,M,Masters 45-49
1,Ron Pagal,CA,110,102.1,,76,,,,,115,120,127.5,127.5,,,,,127.5,,,,B,Single-ply,M,Masters 75-79
1,Scott Simonson,FL,125,117.2,,55,,,,,250,265,-272.5,265,,,,,265,,,,B,Single-ply,M,Masters 55-59
1,Rick Geller,CO,125,123.2,,62,,,,,-242.5,242.5,-247.5,242.5,,,,,242.5,,,,B,Single-ply,M,Masters 60-64
1,Kianna Nakaoka,CA,44,42.6,,15,,,,,,,,,77.5,82.5,-85,82.5,82.5,,,,D,Raw,F,Juniors 13-15
1,Madeline Aigner,CA,48,47.9,,15,,,,,,,,,80,87.5,95,95,95,,,,D,Raw,F,Juniors 13-15
1,Briana Negron,FL,52,51.4,,23,,,,,,,,,150,165,-175.5,165,165,,,,D,Raw,F,Juniors 20-23
1,Brianna Reed,TX,56,55.5,,23,,,,,,,,,150,162.5,168,168,168,,,,D,Raw,F,Juniors 20-23
1,Leslie Albert,IL,110+,113.3,,15,,,,,,,,,142.5,152.5,-162.5,152.5,152.5,,,,D,Raw,F,Juniors 13-15
1,Madeline Aigner,CA,48,47.9,,15,,,,,,,,,80,87.5,95,95,95,,,,D,Raw,F,Open
1,Briana Negron,FL,52,51.4,,23,,,,,,,,,150,165,-175.5,165,165,,,,D,Raw,F,Open
2,Margie Haddon,TX,52,50.8,,60,,,,,,,,,110,113.5,116,116,116,,,117.0,D,Raw,F,Open
1,Brianna Reed,TX,56,55.5,,23,,,,,,,,,150,162.5,168,168,168,,,,D,Raw,F,Open
1,Paige Kimball,LA,60,59.9,,32,,,,,,,,,172.5,177.5,182.5,182.5,182.5,,,,D,Raw,F,Open
1,Michelle Mazulis,NM,67.5,65.9,,53,,,,,,,,,150,160,170,170,170,,,,D,Raw,F,Open
2,Marshelle Johnston,CO,67.5,66.2,,28,,,,,,,,,160,167.5,-175,167.5,167.5,,,,D,Raw,F,Open
3,Jamila Meccariello,GA,67.5,65.5,,32,,,,,,,,,137.5,150,-162.5,150,150,,,,D,Raw,F,Open
1,Leslie Hofheins,UT,75,74.5,,51,,,,,,,,,205,-227.5,-227.5,205,205,,,,D,Raw,F,Open
2,Kristine Kobza,AZ,75,73.1,,55,,,,,,,,,185,197.5,-205,197.5,197.5,,,,D,Raw,F,Open
3,Barbara Taylor,CA,75,70.9,,64,,,,,,,,,165,175,185,185,185,,,,D,Raw,F,Open
1,Tina Collins #1,TX,82.5,80.5,,53,,,,,,,,,152.5,170,182.5,182.5,182.5,,,,D,Raw,F,Open
2,Suzette Aranda,CA,82.5,80.5,,47,,,,,,,,,160,-175,177.5,177.5,177.5,,,,D,Raw,F,Open
3,Lauren Plooster,WA,82.5,81.6,,38,,,,,,,,,160,170,175,175,175,,,,D,Raw,F,Open
1,Alisa Snyder,NY,90,83.5,,47,,,,,,,,,177.5,190,200,200,200,,,207.5,D,Raw,F,Open
2,Jacquelyne Stieber,CA,90,82.6,,29,,,,,,,,,150,157.5,-165,157.5,157.5,,,,D,Raw,F,Open
1,Michelle Abram,WA,110,104.7,,52,,,,,,,,,190,192.5,-195,192.5,192.5,,,,D,Raw,F,Open
1,Marcie Bain,CA,110+,117.9,,51,,,,,,,,,165,175,185,185,185,,,,D,Raw,F,Open
2,Chelsea Hampton,LA,110+,137.4,,28,,,,,,,,,145,155,-167.5,155,155,,,,D,Raw,F,Open
3,Leslie Albert,IL,110+,113.3,,15,,,,,,,,,142.5,152.5,-162.5,152.5,152.5,,,,D,Raw,F,Open
1,Felicia Baker,CA,82.5,80.9,,36,,,,,,,,,167.5,180,185,185,185,,,,D,Raw,F,Submasters 35-39
2,Lauren Plooster,WA,82.5,81.6,,38,,,,,,,,,160,170,175,175,175,,,,D,Raw,F,Submasters 35-39
1,Sarah Wade,CA,110+,137,,35,,,,,,,,,190,202.5,-210,202.5,202.5,,,,D,Raw,F,Submasters 35-39
1,Margie Haddon,TX,52,50.8,,60,,,,,,,,,110,113.5,116,116,116,,,117.0,D,Raw,F,Masters 60-64
1,Lori Christ,NM,60,56.9,,65,,,,,,,,,95,100,102.5,102.5,102.5,,,,D,Raw,F,Masters 65-69
1,Michelle Mazulis,NM,67.5,65.9,,53,,,,,,,,,150,160,170,170,170,,,,D,Raw,F,Masters 50-54
1,Jessica Skarin,LA,75,73.5,,40,,,,,,,,,132.5,140,147.5,147.5,147.5,,,,D,Raw,F,Masters 40-44
1,Leslie Hofheins,UT,75,74.5,,51,,,,,,,,,205,-227.5,-227.5,205,205,,,,D,Raw,F,Masters 50-54
1,Kristine Kobza,AZ,75,73.1,,55,,,,,,,,,185,197.5,-205,197.5,197.5,,,,D,Raw,F,Masters 55-59
1,Barbara Taylor,CA,75,70.9,,64,,,,,,,,,165,175,185,185,185,,,,D,Raw,F,Masters 60-64
1,Cindy Slone-Martin,OR,82.5,81.5,,42,,,,,,,,,-185,185,-200,185,185,,,,D,Raw,F,Masters 40-44
1,Suzette Aranda,CA,82.5,80.5,,47,,,,,,,,,160,-175,177.5,177.5,177.5,,,,D,Raw,F,Masters 45-49
1,Tina Collins #1,TX,82.5,80.5,,53,,,,,,,,,152.5,170,182.5,182.5,182.5,,,,D,Raw,F,Masters 50-54
1,Alisa Snyder,NY,90,83.5,,47,,,,,,,,,177.5,190,200,200,200,,,207.5,D,Raw,F,Masters 45-49
2,Megan Wiesner,CA,90,86.4,,47,,,,,,,,,185,192.5,-200,192.5,192.5,,,,D,Raw,F,Masters 45-49
1,Michelle Abram,WA,110,104.7,,52,,,,,,,,,190,192.5,-195,192.5,192.5,,,,D,Raw,F,Masters 50-54
1,Marcie Bain,CA,110+,117.9,,51,,,,,,,,,165,175,185,185,185,,,,D,Raw,F,Masters 50-54
1,Jared Jones,CA,75,73.4,,21,,,,,,,,,227.5,237.5,242.5,242.5,242.5,,,,D,Raw,M,Juniors 20-23
1,Mariano Saucedo,NV,100,99.9,,21,,,,,,,,,290,300,-305,300,300,,,,D,Raw,M,Juniors 20-23
DQ,Yousef Jammal,KS,100,99.3,,23,,,,,,,,,-345,-345,-345,,,,,,D,Raw,M,Juniors 20-23
1,Don Collins,CA,67.5,66.7,,61,,,,,,,,,-210,-214,214,214,214,,,,D,Raw,M,Open
1,Jared Jones,CA,75,73.4,,21,,,,,,,,,227.5,237.5,242.5,242.5,242.5,,,,D,Raw,M,Open
2,Dele Atoro,NH,75,74.2,,33,,,,,,,,,210,212.5,-215,212.5,212.5,,,,D,Raw,M,Open
1,Aaron Madriaga,WA,82.5,81.1,,38,,,,,,,,,270,282.5,-287.5,282.5,282.5,,,,D,Raw,M,Open
2,Alexander Glover,NY,82.5,81.8,,31,,,,,,,,,260,277.5,280,280,280,,,,D,Raw,M,Open
3,Chris Holcomb,TX,82.5,80.1,,41,,,,,,,,,235,245,255,255,255,,,,D,Raw,M,Open
1,Adam Rubin,OH,90,88.2,,29,,,,,,,,,257.5,265,-272.5,265,265,,,,D,Raw,M,Open
1,Kalil Zaky,MD,100,96.9,,30,,,,,,,,,352.5,370,-380,370,370,,,,D,Raw,M,Open
2,Andrew Corbin,AK,100,98.4,,29,,,,,,,,,310,332.5,352.5,352.5,352.5,,,,D,Raw,M,Open
3,James Lima,AZ,100,99.2,,35,,,,,,,,,300,317.5,-325,317.5,317.5,,,,D,Raw,M,Open
4,Mariano Saucedo,NV,100,99.9,,21,,,,,,,,,290,300,-305,300,300,,,,D,Raw,M,Open
DQ,Yousef Jammal,KS,100,99.3,,23,,,,,,,,,-345,-345,-345,,,,,,D,Raw,M,Open
1,Kenneth Zimmerman,OH,110,108.7,,26,,,,,,,,,325,337.5,-342.5,337.5,337.5,,,,D,Raw,M,Open
1,Ivaylo Hristov,NV,125,119.1,,43,,,,,,,,,335,355,375,375,375,,,,D,Raw,M,Open
2,Matt Imwalle,CA,125,121.3,,39,,,,,,,,,305,-320,320,320,320,,,,D,Raw,M,Open
3,Caleb Offer,CA,125,123.1,,40,,,,,,,,,292.5,307.5,-317.5,307.5,307.5,,,,D,Raw,M,Open
4,TJ Finley,OH,125,124.4,,41,,,,,,,,,277.5,300,-322.5,300,300,,,,D,Raw,M,Open
5,Ashton Urda,CA,125,111.2,,26,,,,,,,,,247.5,262.5,-272.5,262.5,262.5,,,,D,Raw,M,Open
6,Dalton Mullinax,KS,125,117.1,,30,,,,,,,,,-222.5,240,-247.5,240,240,,,,D,Raw,M,Open
7,Ron Bailey,GA,125,119.4,,50,,,,,,,,,227.5,-242.5,-252.5,227.5,227.5,,,,D,Raw,M,Open
1,Robert Geiger,GA,140+,145.7,,30,,,,,,,,,305,320,327.5,327.5,327.5,,,,D,Raw,M,Open
1,Aaron Madriaga,WA,82.5,81.1,,38,,,,,,,,,270,282.5,-287.5,282.5,282.5,,,,D,Raw,M,Submasters 35-39
1,Michael Cherry,GA,90,87.5,,35,,,,,,,,,227.5,235,-250,235,235,,,,D,Raw,M,Submasters 35-39
1,James Lima,AZ,100,99.2,,35,,,,,,,,,300,317.5,-325,317.5,317.5,,,,D,Raw,M,Submasters 35-39
1,Matt Imwalle,CA,125,121.3,,39,,,,,,,,,305,-320,320,320,320,,,,D,Raw,M,Submasters 35-39
1,Don Collins,CA,67.5,66.7,,61,,,,,,,,,-210,-214,214,214,214,,,,D,Raw,M,Masters 60-64
1,Ray Mack,OK,75,74.1,,49,,,,,,,,,170,180,-190,180,180,,,,D,Raw,M,Masters 45-49
1,Ron Scott,CA,75,69.7,,76,,,,,,,,,150,163,175,175,175,,,184.5,D,Raw,M,Masters 75-79
1,Jim Gallagher #1,CA,75,71.1,,86,,,,,,,,,140,150,157.5,157.5,157.5,,,160,D,Raw,M,Masters 80+
1,Chris Holcomb,TX,82.5,80.1,,41,,,,,,,,,235,245,255,255,255,,,,D,Raw,M,Masters 40-44
1,Perry Johnson,MS,90,87.9,,50,,,,,,,,,232.5,247.5,260,260,260,,,,D,Raw,M,Masters 50-54
1,Craig Recore,WA,100,97.7,,49,,,,,,,,,275,302.5,-312.5,302.5,302.5,,,,D,Raw,M,Masters 45-49
1,Bobby Whitten,SC,100,99.6,,72,,,,,,,,,175,185,190,190,190,,,,D,Raw,M,Masters 70-74
1,Joseph Marino,AZ,110,100.8,,67,,,,,,,,,207.5,-222.5,-222.5,207.5,207.5,,,,D,Raw,M,Masters 65-69
2,Steve Busch,CA,110,104,,69,,,,,,,,,207.5,-222.5,-232.5,207.5,207.5,,,,D,Raw,M,Masters 65-69
1,Caleb Offer,CA,125,123.1,,40,,,,,,,,,292.5,307.5,-317.5,307.5,307.5,,,,D,Raw,M,Masters 40-44
1,Allen Heisler,MT,125,122.2,,49,,,,,,,,,240,245,-257.5,245,245,,,,D,Raw,M,Masters 45-49
1,Richard Ham-Kucharski,OR,125,112.3,,50,,,,,,,,,235,245,-252.5,245,245,,,,D,Raw,M,Masters 50-54
2,Ron Bailey,GA,125,119.4,,50,,,,,,,,,227.5,-242.5,-252.5,227.5,227.5,,,,D,Raw,M,Masters 50-54
1,Gregory Cotterell,CA,125,118.3,,62,,,,,,,,,227.5,-250,250,250,250,,,,D,Raw,M,Masters 60-64
1,Fredrick Martinez,CA,140,129.9,,56,,,,,,,,,-295,295,-321.5,295,295,,,,D,Raw,M,Masters 55-59
1,Michael Hughes,CA,140+,147,,61,,,,,,,,,185,192.5,-200,192.5,192.5,,,,D,Raw,M,Masters 60-64
1,Hanna Mercado,TX,44,40.4,,16,,,,,,,,,82.5,-90.5,90.5,90.5,90.5,,,,D,Single-ply,F,Juniors 16-17
1,Daniela Mercado,TX,48,44.3,,14,,,,,,,,,67.5,-75,-75,67.5,67.5,,,,D,Single-ply,F,Juniors 13-15
1,Devany Monsivais,TX,48,47,,17,,,,,,,,,-120,120,133,133,133,,,,D,Single-ply,F,Juniors 16-17
1,Isabella Tiscani,TX,75,73.3,,17,,,,,,,,,132.5,-143,143,143,143,,,,D,Single-ply,F,Juniors 16-17
1,Betsy Spann,CA,56,55.7,,65,,,,,,,,,115,125,135,135,135,,,,D,Single-ply,F,Masters 65-69
1,Justin Figueroa,TX,56,54.7,,17,,,,,,,,,167.5,170.5,182.5,182.5,182.5,,,187.5,D,Single-ply,M,Juniors 16-17
1,Jayson Figueroa,TX,82.5,80.7,,16,,,,,,,,,182.5,195,-210,195,195,,,,D,Single-ply,M,Juniors 16-17
1,Daniel Trujillo,TX,90,88.9,,17,,,,,,,,,212.5,233,237.5,237.5,237.5,,,,D,Single-ply,M,Juniors 16-17
1,Keegan Garcia,TX,125,123.2,,15,,,,,,,,,240,265,277.5,277.5,277.5,,,,D,Single-ply,M,Juniors 13-15
1,Michael Poort,CO,100,98.7,,47,,,,,,,,,265,277.5,-285,277.5,277.5,,,,D,Single-ply,M,Open
1,Santiago Vasquez,AZ,140,133.4,,25,,,,,,,,,282.5,300,317.5,317.5,317.5,,,,D,Single-ply,M,Open
1,Michael Poort,CO,100,98.7,,47,,,,,,,,,265,277.5,-285,277.5,277.5,,,,D,Single-ply,M,Masters 45-49
1,Ron Pagal,CA,110,102.1,,76,,,,,,,,,160,170,182.5,182.5,182.5,,,,D,Single-ply,M,Masters 75-79
